2019-02-15T13:28:02+02:00::ERR :   Mysqli prepare error: You have an error in your SQL syntax; check the manual that corresponds to your MariaDB server version for the right syntax to use near '))' at line 1
2019-02-15T13:28:02+02:00::DEBUG : URL = http://lh.talentspotting.com/get-sub-department-by-list
2019-02-15T13:28:02+02:00::DEBUG : HTTP_REFERER = http://lh.talentspotting.com/job?id=1260
2019-02-15T13:28:02+02:00::DEBUG : USER AGENT = Mozilla/5.0 (Macintosh; Intel Mac OS X 10_13_5) AppleWebKit/537.36 (KHTML, like Gecko) Chrome/72.0.3626.109 Safari/537.36
2019-02-15T13:28:02+02:00::DEBUG : FILE = /Applications/XAMPP/xamppfiles/htdocs/html/talentspotting/library/WebApp/Db/Table.php :: line=104
2019-02-15T13:28:02+02:00::DEBUG : ZONE LANDING = ajax/index/get-sub-department-by-list
2019-02-15T13:28:02+02:00::DEBUG : CLASS/FUNCTION = Zend_Db_Adapter_Abstract -> fetchPairs
2019-02-15T13:28:02+02:00::DEBUG : TRACE 0 = ...ml/talentspotting/library/Zend/Db/Statement.php : line=/Applications/XAMPP/xamppfiles/htdocs/html/talentspotting/library/Zend/Db/Statement.php : func=_prepare
2019-02-15T13:28:02+02:00::DEBUG : TRACE 1 = ...lentspotting/library/Zend/Db/Adapter/Mysqli.php : line=/Applications/XAMPP/xamppfiles/htdocs/html/talentspotting/library/Zend/Db/Adapter/Mysqli.php : func=__construct
2019-02-15T13:28:02+02:00::DEBUG : TRACE 2 = ...ntspotting/library/Zend/Db/Adapter/Abstract.php : line=/Applications/XAMPP/xamppfiles/htdocs/html/talentspotting/library/Zend/Db/Adapter/Abstract.php : func=prepare
2019-02-15T13:28:02+02:00::DEBUG : TRACE 3 = ...ntspotting/library/Zend/Db/Adapter/Abstract.php : line=/Applications/XAMPP/xamppfiles/htdocs/html/talentspotting/library/Zend/Db/Adapter/Abstract.php : func=query
2019-02-15T13:28:02+02:00::DEBUG : TRACE 4 = ...html/talentspotting/library/WebApp/Db/Table.php : line=/Applications/XAMPP/xamppfiles/htdocs/html/talentspotting/library/WebApp/Db/Table.php : func=fetchPairs
2019-02-15T13:28:02+02:00::DEBUG : TRACE 5 = ...l/talentspotting/application/models/Content.php : line=/Applications/XAMPP/xamppfiles/htdocs/html/talentspotting/application/models/Content.php : func=fetchPairs
2019-02-15T13:28:02+02:00::DEBUG : TRACE 6 = ...on/modules/ajax/controllers/IndexController.php : line=/Applications/XAMPP/xamppfiles/htdocs/html/talentspotting/application/modules/ajax/controllers/IndexController.php : func=getSubDepartmentsByDepartmentList
2019-02-15T13:28:02+02:00::DEBUG : TRACE 7 = ...lentspotting/library/Zend/Controller/Action.php : line=/Applications/XAMPP/xamppfiles/htdocs/html/talentspotting/library/Zend/Controller/Action.php : func=getSubDepartmentByListAction
2019-02-15T13:28:02+02:00::DEBUG : TRACE 8 = ...library/Zend/Controller/Dispatcher/Standard.php : line=/Applications/XAMPP/xamppfiles/htdocs/html/talentspotting/library/Zend/Controller/Dispatcher/Standard.php : func=dispatch
2019-02-15T13:28:02+02:00::DEBUG : TRACE 9 = ...alentspotting/library/Zend/Controller/Front.php : line=/Applications/XAMPP/xamppfiles/htdocs/html/talentspotting/library/Zend/Controller/Front.php : func=dispatch
2019-02-15T13:28:02+02:00::DEBUG : TRACE 10 = ...ibrary/Zend/Application/Bootstrap/Bootstrap.php : line=/Applications/XAMPP/xamppfiles/htdocs/html/talentspotting/library/Zend/Application/Bootstrap/Bootstrap.php : func=dispatch
2019-02-15T13:28:02+02:00::DEBUG : TRACE 11 = ...tml/talentspotting/library/Zend/Application.php : line=/Applications/XAMPP/xamppfiles/htdocs/html/talentspotting/library/Zend/Application.php : func=run
2019-02-15T13:28:02+02:00::DEBUG : TRACE 12 = ...les/htdocs/html/talentspotting/public/index.php : line=/Applications/XAMPP/xamppfiles/htdocs/html/talentspotting/public/index.php : func=run

2019-02-15T13:28:12+02:00::ERR :   Mysqli prepare error: You have an error in your SQL syntax; check the manual that corresponds to your MariaDB server version for the right syntax to use near '))' at line 1
2019-02-15T13:28:12+02:00::DEBUG : URL = http://lh.talentspotting.com/get-sub-department-by-list
2019-02-15T13:28:12+02:00::DEBUG : HTTP_REFERER = http://lh.talentspotting.com/job?id=1260
2019-02-15T13:28:12+02:00::DEBUG : USER AGENT = Mozilla/5.0 (Macintosh; Intel Mac OS X 10_13_5) AppleWebKit/537.36 (KHTML, like Gecko) Chrome/72.0.3626.109 Safari/537.36
2019-02-15T13:28:12+02:00::DEBUG : FILE = /Applications/XAMPP/xamppfiles/htdocs/html/talentspotting/library/WebApp/Db/Table.php :: line=104
2019-02-15T13:28:12+02:00::DEBUG : ZONE LANDING = ajax/index/get-sub-department-by-list
2019-02-15T13:28:12+02:00::DEBUG : CLASS/FUNCTION = Zend_Db_Adapter_Abstract -> fetchPairs
2019-02-15T13:28:12+02:00::DEBUG : TRACE 0 = ...ml/talentspotting/library/Zend/Db/Statement.php : line=/Applications/XAMPP/xamppfiles/htdocs/html/talentspotting/library/Zend/Db/Statement.php : func=_prepare
2019-02-15T13:28:12+02:00::DEBUG : TRACE 1 = ...lentspotting/library/Zend/Db/Adapter/Mysqli.php : line=/Applications/XAMPP/xamppfiles/htdocs/html/talentspotting/library/Zend/Db/Adapter/Mysqli.php : func=__construct
2019-02-15T13:28:12+02:00::DEBUG : TRACE 2 = ...ntspotting/library/Zend/Db/Adapter/Abstract.php : line=/Applications/XAMPP/xamppfiles/htdocs/html/talentspotting/library/Zend/Db/Adapter/Abstract.php : func=prepare
2019-02-15T13:28:12+02:00::DEBUG : TRACE 3 = ...ntspotting/library/Zend/Db/Adapter/Abstract.php : line=/Applications/XAMPP/xamppfiles/htdocs/html/talentspotting/library/Zend/Db/Adapter/Abstract.php : func=query
2019-02-15T13:28:12+02:00::DEBUG : TRACE 4 = ...html/talentspotting/library/WebApp/Db/Table.php : line=/Applications/XAMPP/xamppfiles/htdocs/html/talentspotting/library/WebApp/Db/Table.php : func=fetchPairs
2019-02-15T13:28:12+02:00::DEBUG : TRACE 5 = ...l/talentspotting/application/models/Content.php : line=/Applications/XAMPP/xamppfiles/htdocs/html/talentspotting/application/models/Content.php : func=fetchPairs
2019-02-15T13:28:12+02:00::DEBUG : TRACE 6 = ...on/modules/ajax/controllers/IndexController.php : line=/Applications/XAMPP/xamppfiles/htdocs/html/talentspotting/application/modules/ajax/controllers/IndexController.php : func=getSubDepartmentsByDepartmentList
2019-02-15T13:28:12+02:00::DEBUG : TRACE 7 = ...lentspotting/library/Zend/Controller/Action.php : line=/Applications/XAMPP/xamppfiles/htdocs/html/talentspotting/library/Zend/Controller/Action.php : func=getSubDepartmentByListAction
2019-02-15T13:28:12+02:00::DEBUG : TRACE 8 = ...library/Zend/Controller/Dispatcher/Standard.php : line=/Applications/XAMPP/xamppfiles/htdocs/html/talentspotting/library/Zend/Controller/Dispatcher/Standard.php : func=dispatch
2019-02-15T13:28:12+02:00::DEBUG : TRACE 9 = ...alentspotting/library/Zend/Controller/Front.php : line=/Applications/XAMPP/xamppfiles/htdocs/html/talentspotting/library/Zend/Controller/Front.php : func=dispatch
2019-02-15T13:28:12+02:00::DEBUG : TRACE 10 = ...ibrary/Zend/Application/Bootstrap/Bootstrap.php : line=/Applications/XAMPP/xamppfiles/htdocs/html/talentspotting/library/Zend/Application/Bootstrap/Bootstrap.php : func=dispatch
2019-02-15T13:28:12+02:00::DEBUG : TRACE 11 = ...tml/talentspotting/library/Zend/Application.php : line=/Applications/XAMPP/xamppfiles/htdocs/html/talentspotting/library/Zend/Application.php : func=run
2019-02-15T13:28:12+02:00::DEBUG : TRACE 12 = ...les/htdocs/html/talentspotting/public/index.php : line=/Applications/XAMPP/xamppfiles/htdocs/html/talentspotting/public/index.php : func=run

2019-02-15T13:28:35+02:00::ERR :   Mysqli prepare error: You have an error in your SQL syntax; check the manual that corresponds to your MariaDB server version for the right syntax to use near '))' at line 1
2019-02-15T13:28:35+02:00::DEBUG : URL = http://lh.talentspotting.com/get-sub-department-by-list
2019-02-15T13:28:35+02:00::DEBUG : HTTP_REFERER = http://lh.talentspotting.com/job?id=1260
2019-02-15T13:28:35+02:00::DEBUG : USER AGENT = Mozilla/5.0 (Macintosh; Intel Mac OS X 10_13_5) AppleWebKit/537.36 (KHTML, like Gecko) Chrome/72.0.3626.109 Safari/537.36
2019-02-15T13:28:35+02:00::DEBUG : FILE = /Applications/XAMPP/xamppfiles/htdocs/html/talentspotting/library/WebApp/Db/Table.php :: line=104
2019-02-15T13:28:35+02:00::DEBUG : ZONE LANDING = ajax/index/get-sub-department-by-list
2019-02-15T13:28:35+02:00::DEBUG : CLASS/FUNCTION = Zend_Db_Adapter_Abstract -> fetchPairs
2019-02-15T13:28:35+02:00::DEBUG : TRACE 0 = ...ml/talentspotting/library/Zend/Db/Statement.php : line=/Applications/XAMPP/xamppfiles/htdocs/html/talentspotting/library/Zend/Db/Statement.php : func=_prepare
2019-02-15T13:28:35+02:00::DEBUG : TRACE 1 = ...lentspotting/library/Zend/Db/Adapter/Mysqli.php : line=/Applications/XAMPP/xamppfiles/htdocs/html/talentspotting/library/Zend/Db/Adapter/Mysqli.php : func=__construct
2019-02-15T13:28:35+02:00::DEBUG : TRACE 2 = ...ntspotting/library/Zend/Db/Adapter/Abstract.php : line=/Applications/XAMPP/xamppfiles/htdocs/html/talentspotting/library/Zend/Db/Adapter/Abstract.php : func=prepare
2019-02-15T13:28:35+02:00::DEBUG : TRACE 3 = ...ntspotting/library/Zend/Db/Adapter/Abstract.php : line=/Applications/XAMPP/xamppfiles/htdocs/html/talentspotting/library/Zend/Db/Adapter/Abstract.php : func=query
2019-02-15T13:28:35+02:00::DEBUG : TRACE 4 = ...html/talentspotting/library/WebApp/Db/Table.php : line=/Applications/XAMPP/xamppfiles/htdocs/html/talentspotting/library/WebApp/Db/Table.php : func=fetchPairs
2019-02-15T13:28:35+02:00::DEBUG : TRACE 5 = ...l/talentspotting/application/models/Content.php : line=/Applications/XAMPP/xamppfiles/htdocs/html/talentspotting/application/models/Content.php : func=fetchPairs
2019-02-15T13:28:35+02:00::DEBUG : TRACE 6 = ...on/modules/ajax/controllers/IndexController.php : line=/Applications/XAMPP/xamppfiles/htdocs/html/talentspotting/application/modules/ajax/controllers/IndexController.php : func=getSubDepartmentsByDepartmentList
2019-02-15T13:28:35+02:00::DEBUG : TRACE 7 = ...lentspotting/library/Zend/Controller/Action.php : line=/Applications/XAMPP/xamppfiles/htdocs/html/talentspotting/library/Zend/Controller/Action.php : func=getSubDepartmentByListAction
2019-02-15T13:28:35+02:00::DEBUG : TRACE 8 = ...library/Zend/Controller/Dispatcher/Standard.php : line=/Applications/XAMPP/xamppfiles/htdocs/html/talentspotting/library/Zend/Controller/Dispatcher/Standard.php : func=dispatch
2019-02-15T13:28:35+02:00::DEBUG : TRACE 9 = ...alentspotting/library/Zend/Controller/Front.php : line=/Applications/XAMPP/xamppfiles/htdocs/html/talentspotting/library/Zend/Controller/Front.php : func=dispatch
2019-02-15T13:28:35+02:00::DEBUG : TRACE 10 = ...ibrary/Zend/Application/Bootstrap/Bootstrap.php : line=/Applications/XAMPP/xamppfiles/htdocs/html/talentspotting/library/Zend/Application/Bootstrap/Bootstrap.php : func=dispatch
2019-02-15T13:28:35+02:00::DEBUG : TRACE 11 = ...tml/talentspotting/library/Zend/Application.php : line=/Applications/XAMPP/xamppfiles/htdocs/html/talentspotting/library/Zend/Application.php : func=run
2019-02-15T13:28:35+02:00::DEBUG : TRACE 12 = ...les/htdocs/html/talentspotting/public/index.php : line=/Applications/XAMPP/xamppfiles/htdocs/html/talentspotting/public/index.php : func=run

2019-02-15T13:30:06+02:00::ERR :   Mysqli prepare error: You have an error in your SQL syntax; check the manual that corresponds to your MariaDB server version for the right syntax to use near '))' at line 1
2019-02-15T13:30:06+02:00::DEBUG : URL = http://lh.talentspotting.com/get-sub-department-by-list
2019-02-15T13:30:06+02:00::DEBUG : HTTP_REFERER = http://lh.talentspotting.com/job?id=1260
2019-02-15T13:30:06+02:00::DEBUG : USER AGENT = Mozilla/5.0 (Macintosh; Intel Mac OS X 10_13_5) AppleWebKit/537.36 (KHTML, like Gecko) Chrome/72.0.3626.109 Safari/537.36
2019-02-15T13:30:06+02:00::DEBUG : FILE = /Applications/XAMPP/xamppfiles/htdocs/html/talentspotting/library/WebApp/Db/Table.php :: line=104
2019-02-15T13:30:06+02:00::DEBUG : ZONE LANDING = ajax/index/get-sub-department-by-list
2019-02-15T13:30:06+02:00::DEBUG : CLASS/FUNCTION = Zend_Db_Adapter_Abstract -> fetchPairs
2019-02-15T13:30:06+02:00::DEBUG : TRACE 0 = ...ml/talentspotting/library/Zend/Db/Statement.php : line=/Applications/XAMPP/xamppfiles/htdocs/html/talentspotting/library/Zend/Db/Statement.php : func=_prepare
2019-02-15T13:30:06+02:00::DEBUG : TRACE 1 = ...lentspotting/library/Zend/Db/Adapter/Mysqli.php : line=/Applications/XAMPP/xamppfiles/htdocs/html/talentspotting/library/Zend/Db/Adapter/Mysqli.php : func=__construct
2019-02-15T13:30:06+02:00::DEBUG : TRACE 2 = ...ntspotting/library/Zend/Db/Adapter/Abstract.php : line=/Applications/XAMPP/xamppfiles/htdocs/html/talentspotting/library/Zend/Db/Adapter/Abstract.php : func=prepare
2019-02-15T13:30:06+02:00::DEBUG : TRACE 3 = ...ntspotting/library/Zend/Db/Adapter/Abstract.php : line=/Applications/XAMPP/xamppfiles/htdocs/html/talentspotting/library/Zend/Db/Adapter/Abstract.php : func=query
2019-02-15T13:30:06+02:00::DEBUG : TRACE 4 = ...html/talentspotting/library/WebApp/Db/Table.php : line=/Applications/XAMPP/xamppfiles/htdocs/html/talentspotting/library/WebApp/Db/Table.php : func=fetchPairs
2019-02-15T13:30:06+02:00::DEBUG : TRACE 5 = ...l/talentspotting/application/models/Content.php : line=/Applications/XAMPP/xamppfiles/htdocs/html/talentspotting/application/models/Content.php : func=fetchPairs
2019-02-15T13:30:06+02:00::DEBUG : TRACE 6 = ...on/modules/ajax/controllers/IndexController.php : line=/Applications/XAMPP/xamppfiles/htdocs/html/talentspotting/application/modules/ajax/controllers/IndexController.php : func=getSubDepartmentsByDepartmentList
2019-02-15T13:30:06+02:00::DEBUG : TRACE 7 = ...lentspotting/library/Zend/Controller/Action.php : line=/Applications/XAMPP/xamppfiles/htdocs/html/talentspotting/library/Zend/Controller/Action.php : func=getSubDepartmentByListAction
2019-02-15T13:30:06+02:00::DEBUG : TRACE 8 = ...library/Zend/Controller/Dispatcher/Standard.php : line=/Applications/XAMPP/xamppfiles/htdocs/html/talentspotting/library/Zend/Controller/Dispatcher/Standard.php : func=dispatch
2019-02-15T13:30:06+02:00::DEBUG : TRACE 9 = ...alentspotting/library/Zend/Controller/Front.php : line=/Applications/XAMPP/xamppfiles/htdocs/html/talentspotting/library/Zend/Controller/Front.php : func=dispatch
2019-02-15T13:30:06+02:00::DEBUG : TRACE 10 = ...ibrary/Zend/Application/Bootstrap/Bootstrap.php : line=/Applications/XAMPP/xamppfiles/htdocs/html/talentspotting/library/Zend/Application/Bootstrap/Bootstrap.php : func=dispatch
2019-02-15T13:30:06+02:00::DEBUG : TRACE 11 = ...tml/talentspotting/library/Zend/Application.php : line=/Applications/XAMPP/xamppfiles/htdocs/html/talentspotting/library/Zend/Application.php : func=run
2019-02-15T13:30:06+02:00::DEBUG : TRACE 12 = ...les/htdocs/html/talentspotting/public/index.php : line=/Applications/XAMPP/xamppfiles/htdocs/html/talentspotting/public/index.php : func=run

2019-02-15T13:35:11+02:00::ERR :   Mysqli prepare error: You have an error in your SQL syntax; check the manual that corresponds to your MariaDB server version for the right syntax to use near '))' at line 1
2019-02-15T13:35:11+02:00::DEBUG : URL = http://lh.talentspotting.com/get-sub-department-by-list
2019-02-15T13:35:11+02:00::DEBUG : HTTP_REFERER = http://lh.talentspotting.com/job?id=1260
2019-02-15T13:35:11+02:00::DEBUG : USER AGENT = Mozilla/5.0 (Macintosh; Intel Mac OS X 10_13_5) AppleWebKit/537.36 (KHTML, like Gecko) Chrome/72.0.3626.109 Safari/537.36
2019-02-15T13:35:11+02:00::DEBUG : FILE = /Applications/XAMPP/xamppfiles/htdocs/html/talentspotting/library/WebApp/Db/Table.php :: line=104
2019-02-15T13:35:11+02:00::DEBUG : ZONE LANDING = ajax/index/get-sub-department-by-list
2019-02-15T13:35:11+02:00::DEBUG : CLASS/FUNCTION = Zend_Db_Adapter_Abstract -> fetchPairs
2019-02-15T13:35:11+02:00::DEBUG : TRACE 0 = ...ml/talentspotting/library/Zend/Db/Statement.php : line=/Applications/XAMPP/xamppfiles/htdocs/html/talentspotting/library/Zend/Db/Statement.php : func=_prepare
2019-02-15T13:35:11+02:00::DEBUG : TRACE 1 = ...lentspotting/library/Zend/Db/Adapter/Mysqli.php : line=/Applications/XAMPP/xamppfiles/htdocs/html/talentspotting/library/Zend/Db/Adapter/Mysqli.php : func=__construct
2019-02-15T13:35:11+02:00::DEBUG : TRACE 2 = ...ntspotting/library/Zend/Db/Adapter/Abstract.php : line=/Applications/XAMPP/xamppfiles/htdocs/html/talentspotting/library/Zend/Db/Adapter/Abstract.php : func=prepare
2019-02-15T13:35:11+02:00::DEBUG : TRACE 3 = ...ntspotting/library/Zend/Db/Adapter/Abstract.php : line=/Applications/XAMPP/xamppfiles/htdocs/html/talentspotting/library/Zend/Db/Adapter/Abstract.php : func=query
2019-02-15T13:35:11+02:00::DEBUG : TRACE 4 = ...html/talentspotting/library/WebApp/Db/Table.php : line=/Applications/XAMPP/xamppfiles/htdocs/html/talentspotting/library/WebApp/Db/Table.php : func=fetchPairs
2019-02-15T13:35:11+02:00::DEBUG : TRACE 5 = ...l/talentspotting/application/models/Content.php : line=/Applications/XAMPP/xamppfiles/htdocs/html/talentspotting/application/models/Content.php : func=fetchPairs
2019-02-15T13:35:11+02:00::DEBUG : TRACE 6 = ...on/modules/ajax/controllers/IndexController.php : line=/Applications/XAMPP/xamppfiles/htdocs/html/talentspotting/application/modules/ajax/controllers/IndexController.php : func=getSubDepartmentsByDepartmentList
2019-02-15T13:35:11+02:00::DEBUG : TRACE 7 = ...lentspotting/library/Zend/Controller/Action.php : line=/Applications/XAMPP/xamppfiles/htdocs/html/talentspotting/library/Zend/Controller/Action.php : func=getSubDepartmentByListAction
2019-02-15T13:35:11+02:00::DEBUG : TRACE 8 = ...library/Zend/Controller/Dispatcher/Standard.php : line=/Applications/XAMPP/xamppfiles/htdocs/html/talentspotting/library/Zend/Controller/Dispatcher/Standard.php : func=dispatch
2019-02-15T13:35:11+02:00::DEBUG : TRACE 9 = ...alentspotting/library/Zend/Controller/Front.php : line=/Applications/XAMPP/xamppfiles/htdocs/html/talentspotting/library/Zend/Controller/Front.php : func=dispatch
2019-02-15T13:35:11+02:00::DEBUG : TRACE 10 = ...ibrary/Zend/Application/Bootstrap/Bootstrap.php : line=/Applications/XAMPP/xamppfiles/htdocs/html/talentspotting/library/Zend/Application/Bootstrap/Bootstrap.php : func=dispatch
2019-02-15T13:35:11+02:00::DEBUG : TRACE 11 = ...tml/talentspotting/library/Zend/Application.php : line=/Applications/XAMPP/xamppfiles/htdocs/html/talentspotting/library/Zend/Application.php : func=run
2019-02-15T13:35:11+02:00::DEBUG : TRACE 12 = ...les/htdocs/html/talentspotting/public/index.php : line=/Applications/XAMPP/xamppfiles/htdocs/html/talentspotting/public/index.php : func=run

2019-02-15T13:36:08+02:00::ERR :   Mysqli prepare error: You have an error in your SQL syntax; check the manual that corresponds to your MariaDB server version for the right syntax to use near '))' at line 1
2019-02-15T13:36:08+02:00::DEBUG : URL = http://lh.talentspotting.com/get-sub-department-by-list
2019-02-15T13:36:08+02:00::DEBUG : HTTP_REFERER = http://lh.talentspotting.com/job?id=1260
2019-02-15T13:36:08+02:00::DEBUG : USER AGENT = Mozilla/5.0 (Macintosh; Intel Mac OS X 10_13_5) AppleWebKit/537.36 (KHTML, like Gecko) Chrome/72.0.3626.109 Safari/537.36
2019-02-15T13:36:08+02:00::DEBUG : FILE = /Applications/XAMPP/xamppfiles/htdocs/html/talentspotting/library/WebApp/Db/Table.php :: line=104
2019-02-15T13:36:08+02:00::DEBUG : ZONE LANDING = ajax/index/get-sub-department-by-list
2019-02-15T13:36:08+02:00::DEBUG : CLASS/FUNCTION = Zend_Db_Adapter_Abstract -> fetchPairs
2019-02-15T13:36:08+02:00::DEBUG : TRACE 0 = ...ml/talentspotting/library/Zend/Db/Statement.php : line=/Applications/XAMPP/xamppfiles/htdocs/html/talentspotting/library/Zend/Db/Statement.php : func=_prepare
2019-02-15T13:36:08+02:00::DEBUG : TRACE 1 = ...lentspotting/library/Zend/Db/Adapter/Mysqli.php : line=/Applications/XAMPP/xamppfiles/htdocs/html/talentspotting/library/Zend/Db/Adapter/Mysqli.php : func=__construct
2019-02-15T13:36:08+02:00::DEBUG : TRACE 2 = ...ntspotting/library/Zend/Db/Adapter/Abstract.php : line=/Applications/XAMPP/xamppfiles/htdocs/html/talentspotting/library/Zend/Db/Adapter/Abstract.php : func=prepare
2019-02-15T13:36:08+02:00::DEBUG : TRACE 3 = ...ntspotting/library/Zend/Db/Adapter/Abstract.php : line=/Applications/XAMPP/xamppfiles/htdocs/html/talentspotting/library/Zend/Db/Adapter/Abstract.php : func=query
2019-02-15T13:36:08+02:00::DEBUG : TRACE 4 = ...html/talentspotting/library/WebApp/Db/Table.php : line=/Applications/XAMPP/xamppfiles/htdocs/html/talentspotting/library/WebApp/Db/Table.php : func=fetchPairs
2019-02-15T13:36:08+02:00::DEBUG : TRACE 5 = ...l/talentspotting/application/models/Content.php : line=/Applications/XAMPP/xamppfiles/htdocs/html/talentspotting/application/models/Content.php : func=fetchPairs
2019-02-15T13:36:08+02:00::DEBUG : TRACE 6 = ...on/modules/ajax/controllers/IndexController.php : line=/Applications/XAMPP/xamppfiles/htdocs/html/talentspotting/application/modules/ajax/controllers/IndexController.php : func=getSubDepartmentsByDepartmentList
2019-02-15T13:36:08+02:00::DEBUG : TRACE 7 = ...lentspotting/library/Zend/Controller/Action.php : line=/Applications/XAMPP/xamppfiles/htdocs/html/talentspotting/library/Zend/Controller/Action.php : func=getSubDepartmentByListAction
2019-02-15T13:36:08+02:00::DEBUG : TRACE 8 = ...library/Zend/Controller/Dispatcher/Standard.php : line=/Applications/XAMPP/xamppfiles/htdocs/html/talentspotting/library/Zend/Controller/Dispatcher/Standard.php : func=dispatch
2019-02-15T13:36:08+02:00::DEBUG : TRACE 9 = ...alentspotting/library/Zend/Controller/Front.php : line=/Applications/XAMPP/xamppfiles/htdocs/html/talentspotting/library/Zend/Controller/Front.php : func=dispatch
2019-02-15T13:36:08+02:00::DEBUG : TRACE 10 = ...ibrary/Zend/Application/Bootstrap/Bootstrap.php : line=/Applications/XAMPP/xamppfiles/htdocs/html/talentspotting/library/Zend/Application/Bootstrap/Bootstrap.php : func=dispatch
2019-02-15T13:36:08+02:00::DEBUG : TRACE 11 = ...tml/talentspotting/library/Zend/Application.php : line=/Applications/XAMPP/xamppfiles/htdocs/html/talentspotting/library/Zend/Application.php : func=run
2019-02-15T13:36:08+02:00::DEBUG : TRACE 12 = ...les/htdocs/html/talentspotting/public/index.php : line=/Applications/XAMPP/xamppfiles/htdocs/html/talentspotting/public/index.php : func=run

2019-02-15T13:46:59+02:00::ERR :   Mysqli prepare error: You have an error in your SQL syntax; check the manual that corresponds to your MariaDB server version for the right syntax to use near '))' at line 1
2019-02-15T13:46:59+02:00::DEBUG : URL = http://lh.talentspotting.com/get-sub-department-by-list
2019-02-15T13:46:59+02:00::DEBUG : HTTP_REFERER = http://lh.talentspotting.com/job?id=1260
2019-02-15T13:46:59+02:00::DEBUG : USER AGENT = Mozilla/5.0 (Macintosh; Intel Mac OS X 10_13_5) AppleWebKit/537.36 (KHTML, like Gecko) Chrome/72.0.3626.109 Safari/537.36
2019-02-15T13:46:59+02:00::DEBUG : FILE = /Applications/XAMPP/xamppfiles/htdocs/html/talentspotting/library/WebApp/Db/Table.php :: line=104
2019-02-15T13:46:59+02:00::DEBUG : ZONE LANDING = ajax/index/get-sub-department-by-list
2019-02-15T13:46:59+02:00::DEBUG : CLASS/FUNCTION = Zend_Db_Adapter_Abstract -> fetchPairs
2019-02-15T13:46:59+02:00::DEBUG : TRACE 0 = ...ml/talentspotting/library/Zend/Db/Statement.php : line=/Applications/XAMPP/xamppfiles/htdocs/html/talentspotting/library/Zend/Db/Statement.php : func=_prepare
2019-02-15T13:46:59+02:00::DEBUG : TRACE 1 = ...lentspotting/library/Zend/Db/Adapter/Mysqli.php : line=/Applications/XAMPP/xamppfiles/htdocs/html/talentspotting/library/Zend/Db/Adapter/Mysqli.php : func=__construct
2019-02-15T13:46:59+02:00::DEBUG : TRACE 2 = ...ntspotting/library/Zend/Db/Adapter/Abstract.php : line=/Applications/XAMPP/xamppfiles/htdocs/html/talentspotting/library/Zend/Db/Adapter/Abstract.php : func=prepare
2019-02-15T13:46:59+02:00::DEBUG : TRACE 3 = ...ntspotting/library/Zend/Db/Adapter/Abstract.php : line=/Applications/XAMPP/xamppfiles/htdocs/html/talentspotting/library/Zend/Db/Adapter/Abstract.php : func=query
2019-02-15T13:46:59+02:00::DEBUG : TRACE 4 = ...html/talentspotting/library/WebApp/Db/Table.php : line=/Applications/XAMPP/xamppfiles/htdocs/html/talentspotting/library/WebApp/Db/Table.php : func=fetchPairs
2019-02-15T13:46:59+02:00::DEBUG : TRACE 5 = ...l/talentspotting/application/models/Content.php : line=/Applications/XAMPP/xamppfiles/htdocs/html/talentspotting/application/models/Content.php : func=fetchPairs
2019-02-15T13:46:59+02:00::DEBUG : TRACE 6 = ...on/modules/ajax/controllers/IndexController.php : line=/Applications/XAMPP/xamppfiles/htdocs/html/talentspotting/application/modules/ajax/controllers/IndexController.php : func=getSubDepartmentsByDepartmentList
2019-02-15T13:46:59+02:00::DEBUG : TRACE 7 = ...lentspotting/library/Zend/Controller/Action.php : line=/Applications/XAMPP/xamppfiles/htdocs/html/talentspotting/library/Zend/Controller/Action.php : func=getSubDepartmentByListAction
2019-02-15T13:46:59+02:00::DEBUG : TRACE 8 = ...library/Zend/Controller/Dispatcher/Standard.php : line=/Applications/XAMPP/xamppfiles/htdocs/html/talentspotting/library/Zend/Controller/Dispatcher/Standard.php : func=dispatch
2019-02-15T13:46:59+02:00::DEBUG : TRACE 9 = ...alentspotting/library/Zend/Controller/Front.php : line=/Applications/XAMPP/xamppfiles/htdocs/html/talentspotting/library/Zend/Controller/Front.php : func=dispatch
2019-02-15T13:46:59+02:00::DEBUG : TRACE 10 = ...ibrary/Zend/Application/Bootstrap/Bootstrap.php : line=/Applications/XAMPP/xamppfiles/htdocs/html/talentspotting/library/Zend/Application/Bootstrap/Bootstrap.php : func=dispatch
2019-02-15T13:46:59+02:00::DEBUG : TRACE 11 = ...tml/talentspotting/library/Zend/Application.php : line=/Applications/XAMPP/xamppfiles/htdocs/html/talentspotting/library/Zend/Application.php : func=run
2019-02-15T13:46:59+02:00::DEBUG : TRACE 12 = ...les/htdocs/html/talentspotting/public/index.php : line=/Applications/XAMPP/xamppfiles/htdocs/html/talentspotting/public/index.php : func=run

2019-02-15T13:47:43+02:00::ERR :   script 'features.phtml' not found in path (/Applications/XAMPP/xamppfiles/htdocs/html/talentspotting/application/layouts/scripts/:/Applications/XAMPP/xamppfiles/htdocs/html/talentspotting/application/modules/default/views/scripts/:/Applications/XAMPP/xamppfiles/htdocs/html/talentspotting/application/layouts/scripts/)
2019-02-15T13:47:43+02:00::DEBUG : URL = http://lh.talentspotting.com/home
2019-02-15T13:47:43+02:00::DEBUG : HTTP_REFERER = http://lh.talentspotting.com/job?id=1260
2019-02-15T13:47:43+02:00::DEBUG : USER AGENT = Mozilla/5.0 (Macintosh; Intel Mac OS X 10_13_5) AppleWebKit/537.36 (KHTML, like Gecko) Chrome/72.0.3626.109 Safari/537.36
2019-02-15T13:47:43+02:00::DEBUG : FILE = /Applications/XAMPP/xamppfiles/htdocs/html/talentspotting/public/index.php :: line=70
2019-02-15T13:47:43+02:00::DEBUG : ZONE LANDING = default/index/index
2019-02-15T13:47:43+02:00::DEBUG : CLASS/FUNCTION = Zend_Application -> run
2019-02-15T13:47:43+02:00::DEBUG : TRACE 0 = ...l/talentspotting/library/Zend/View/Abstract.php : line=/Applications/XAMPP/xamppfiles/htdocs/html/talentspotting/library/Zend/View/Abstract.php : func=_script
2019-02-15T13:47:43+02:00::DEBUG : TRACE 1 = ...ocs/html/talentspotting/library/Zend/Layout.php : line=/Applications/XAMPP/xamppfiles/htdocs/html/talentspotting/library/Zend/Layout.php : func=render
2019-02-15T13:47:43+02:00::DEBUG : TRACE 2 = ...ibrary/Zend/Layout/Controller/Plugin/Layout.php : line=/Applications/XAMPP/xamppfiles/htdocs/html/talentspotting/library/Zend/Layout/Controller/Plugin/Layout.php : func=render
2019-02-15T13:47:43+02:00::DEBUG : TRACE 3 = ...tting/library/Zend/Controller/Plugin/Broker.php : line=/Applications/XAMPP/xamppfiles/htdocs/html/talentspotting/library/Zend/Controller/Plugin/Broker.php : func=postDispatch
2019-02-15T13:47:43+02:00::DEBUG : TRACE 4 = ...alentspotting/library/Zend/Controller/Front.php : line=/Applications/XAMPP/xamppfiles/htdocs/html/talentspotting/library/Zend/Controller/Front.php : func=postDispatch
2019-02-15T13:47:43+02:00::DEBUG : TRACE 5 = ...ibrary/Zend/Application/Bootstrap/Bootstrap.php : line=/Applications/XAMPP/xamppfiles/htdocs/html/talentspotting/library/Zend/Application/Bootstrap/Bootstrap.php : func=dispatch
2019-02-15T13:47:43+02:00::DEBUG : TRACE 6 = ...tml/talentspotting/library/Zend/Application.php : line=/Applications/XAMPP/xamppfiles/htdocs/html/talentspotting/library/Zend/Application.php : func=run
2019-02-15T13:47:43+02:00::DEBUG : TRACE 7 = ...les/htdocs/html/talentspotting/public/index.php : line=/Applications/XAMPP/xamppfiles/htdocs/html/talentspotting/public/index.php : func=run

2019-02-15T13:47:49+02:00::ERR :   script 'features.phtml' not found in path (/Applications/XAMPP/xamppfiles/htdocs/html/talentspotting/application/layouts/scripts/:/Applications/XAMPP/xamppfiles/htdocs/html/talentspotting/application/modules/default/views/scripts/:/Applications/XAMPP/xamppfiles/htdocs/html/talentspotting/application/layouts/scripts/)
2019-02-15T13:47:49+02:00::DEBUG : URL = http://lh.talentspotting.com/home
2019-02-15T13:47:49+02:00::DEBUG : HTTP_REFERER = http://lh.talentspotting.com/job?id=1260
2019-02-15T13:47:49+02:00::DEBUG : USER AGENT = Mozilla/5.0 (Macintosh; Intel Mac OS X 10_13_5) AppleWebKit/537.36 (KHTML, like Gecko) Chrome/72.0.3626.109 Safari/537.36
2019-02-15T13:47:49+02:00::DEBUG : FILE = /Applications/XAMPP/xamppfiles/htdocs/html/talentspotting/public/index.php :: line=70
2019-02-15T13:47:49+02:00::DEBUG : ZONE LANDING = default/index/index
2019-02-15T13:47:49+02:00::DEBUG : CLASS/FUNCTION = Zend_Application -> run
2019-02-15T13:47:49+02:00::DEBUG : TRACE 0 = ...l/talentspotting/library/Zend/View/Abstract.php : line=/Applications/XAMPP/xamppfiles/htdocs/html/talentspotting/library/Zend/View/Abstract.php : func=_script
2019-02-15T13:47:49+02:00::DEBUG : TRACE 1 = ...ocs/html/talentspotting/library/Zend/Layout.php : line=/Applications/XAMPP/xamppfiles/htdocs/html/talentspotting/library/Zend/Layout.php : func=render
2019-02-15T13:47:49+02:00::DEBUG : TRACE 2 = ...ibrary/Zend/Layout/Controller/Plugin/Layout.php : line=/Applications/XAMPP/xamppfiles/htdocs/html/talentspotting/library/Zend/Layout/Controller/Plugin/Layout.php : func=render
2019-02-15T13:47:49+02:00::DEBUG : TRACE 3 = ...tting/library/Zend/Controller/Plugin/Broker.php : line=/Applications/XAMPP/xamppfiles/htdocs/html/talentspotting/library/Zend/Controller/Plugin/Broker.php : func=postDispatch
2019-02-15T13:47:49+02:00::DEBUG : TRACE 4 = ...alentspotting/library/Zend/Controller/Front.php : line=/Applications/XAMPP/xamppfiles/htdocs/html/talentspotting/library/Zend/Controller/Front.php : func=postDispatch
2019-02-15T13:47:49+02:00::DEBUG : TRACE 5 = ...ibrary/Zend/Application/Bootstrap/Bootstrap.php : line=/Applications/XAMPP/xamppfiles/htdocs/html/talentspotting/library/Zend/Application/Bootstrap/Bootstrap.php : func=dispatch
2019-02-15T13:47:49+02:00::DEBUG : TRACE 6 = ...tml/talentspotting/library/Zend/Application.php : line=/Applications/XAMPP/xamppfiles/htdocs/html/talentspotting/library/Zend/Application.php : func=run
2019-02-15T13:47:49+02:00::DEBUG : TRACE 7 = ...les/htdocs/html/talentspotting/public/index.php : line=/Applications/XAMPP/xamppfiles/htdocs/html/talentspotting/public/index.php : func=run

2019-02-15T13:53:52+02:00::ERR :   script 'features.phtml' not found in path (/Applications/XAMPP/xamppfiles/htdocs/html/talentspotting/application/layouts/scripts/:/Applications/XAMPP/xamppfiles/htdocs/html/talentspotting/application/modules/default/views/scripts/:/Applications/XAMPP/xamppfiles/htdocs/html/talentspotting/application/layouts/scripts/)
2019-02-15T13:53:52+02:00::DEBUG : URL = http://lh.talentspotting.com/home
2019-02-15T13:53:52+02:00::DEBUG : HTTP_REFERER = http://lh.talentspotting.com/add-campaign
2019-02-15T13:53:52+02:00::DEBUG : USER AGENT = Mozilla/5.0 (Macintosh; Intel Mac OS X 10_13_5) AppleWebKit/537.36 (KHTML, like Gecko) Chrome/72.0.3626.109 Safari/537.36
2019-02-15T13:53:52+02:00::DEBUG : FILE = /Applications/XAMPP/xamppfiles/htdocs/html/talentspotting/public/index.php :: line=70
2019-02-15T13:53:52+02:00::DEBUG : ZONE LANDING = default/index/index
2019-02-15T13:53:52+02:00::DEBUG : CLASS/FUNCTION = Zend_Application -> run
2019-02-15T13:53:52+02:00::DEBUG : TRACE 0 = ...l/talentspotting/library/Zend/View/Abstract.php : line=/Applications/XAMPP/xamppfiles/htdocs/html/talentspotting/library/Zend/View/Abstract.php : func=_script
2019-02-15T13:53:52+02:00::DEBUG : TRACE 1 = ...ocs/html/talentspotting/library/Zend/Layout.php : line=/Applications/XAMPP/xamppfiles/htdocs/html/talentspotting/library/Zend/Layout.php : func=render
2019-02-15T13:53:52+02:00::DEBUG : TRACE 2 = ...ibrary/Zend/Layout/Controller/Plugin/Layout.php : line=/Applications/XAMPP/xamppfiles/htdocs/html/talentspotting/library/Zend/Layout/Controller/Plugin/Layout.php : func=render
2019-02-15T13:53:52+02:00::DEBUG : TRACE 3 = ...tting/library/Zend/Controller/Plugin/Broker.php : line=/Applications/XAMPP/xamppfiles/htdocs/html/talentspotting/library/Zend/Controller/Plugin/Broker.php : func=postDispatch
2019-02-15T13:53:52+02:00::DEBUG : TRACE 4 = ...alentspotting/library/Zend/Controller/Front.php : line=/Applications/XAMPP/xamppfiles/htdocs/html/talentspotting/library/Zend/Controller/Front.php : func=postDispatch
2019-02-15T13:53:52+02:00::DEBUG : TRACE 5 = ...ibrary/Zend/Application/Bootstrap/Bootstrap.php : line=/Applications/XAMPP/xamppfiles/htdocs/html/talentspotting/library/Zend/Application/Bootstrap/Bootstrap.php : func=dispatch
2019-02-15T13:53:52+02:00::DEBUG : TRACE 6 = ...tml/talentspotting/library/Zend/Application.php : line=/Applications/XAMPP/xamppfiles/htdocs/html/talentspotting/library/Zend/Application.php : func=run
2019-02-15T13:53:52+02:00::DEBUG : TRACE 7 = ...les/htdocs/html/talentspotting/public/index.php : line=/Applications/XAMPP/xamppfiles/htdocs/html/talentspotting/public/index.php : func=run

2019-02-15T16:00:54+02:00::ERR :   script 'admin.phtml' not found in path (/Applications/XAMPP/xamppfiles/htdocs/html/talentspotting/application/layouts/scripts/:/Applications/XAMPP/xamppfiles/htdocs/html/talentspotting/application/modules/default/views/scripts/:/Applications/XAMPP/xamppfiles/htdocs/html/talentspotting/application/layouts/scripts/)
2019-02-15T16:00:54+02:00::DEBUG : URL = http://lh.talentspotting.com/dashboard
2019-02-15T16:00:54+02:00::DEBUG : HTTP_REFERER = 
2019-02-15T16:00:54+02:00::DEBUG : USER AGENT = Mozilla/5.0 (Macintosh; Intel Mac OS X 10_13_5) AppleWebKit/537.36 (KHTML, like Gecko) Chrome/72.0.3626.109 Safari/537.36
2019-02-15T16:00:54+02:00::DEBUG : FILE = /Applications/XAMPP/xamppfiles/htdocs/html/talentspotting/public/index.php :: line=70
2019-02-15T16:00:54+02:00::DEBUG : ZONE LANDING = default/admin/dashboard
2019-02-15T16:00:54+02:00::DEBUG : CLASS/FUNCTION = Zend_Application -> run
2019-02-15T16:00:54+02:00::DEBUG : TRACE 0 = ...l/talentspotting/library/Zend/View/Abstract.php : line=/Applications/XAMPP/xamppfiles/htdocs/html/talentspotting/library/Zend/View/Abstract.php : func=_script
2019-02-15T16:00:54+02:00::DEBUG : TRACE 1 = ...ocs/html/talentspotting/library/Zend/Layout.php : line=/Applications/XAMPP/xamppfiles/htdocs/html/talentspotting/library/Zend/Layout.php : func=render
2019-02-15T16:00:54+02:00::DEBUG : TRACE 2 = ...ibrary/Zend/Layout/Controller/Plugin/Layout.php : line=/Applications/XAMPP/xamppfiles/htdocs/html/talentspotting/library/Zend/Layout/Controller/Plugin/Layout.php : func=render
2019-02-15T16:00:54+02:00::DEBUG : TRACE 3 = ...tting/library/Zend/Controller/Plugin/Broker.php : line=/Applications/XAMPP/xamppfiles/htdocs/html/talentspotting/library/Zend/Controller/Plugin/Broker.php : func=postDispatch
2019-02-15T16:00:54+02:00::DEBUG : TRACE 4 = ...alentspotting/library/Zend/Controller/Front.php : line=/Applications/XAMPP/xamppfiles/htdocs/html/talentspotting/library/Zend/Controller/Front.php : func=postDispatch
2019-02-15T16:00:54+02:00::DEBUG : TRACE 5 = ...ibrary/Zend/Application/Bootstrap/Bootstrap.php : line=/Applications/XAMPP/xamppfiles/htdocs/html/talentspotting/library/Zend/Application/Bootstrap/Bootstrap.php : func=dispatch
2019-02-15T16:00:54+02:00::DEBUG : TRACE 6 = ...tml/talentspotting/library/Zend/Application.php : line=/Applications/XAMPP/xamppfiles/htdocs/html/talentspotting/library/Zend/Application.php : func=run
2019-02-15T16:00:54+02:00::DEBUG : TRACE 7 = ...les/htdocs/html/talentspotting/public/index.php : line=/Applications/XAMPP/xamppfiles/htdocs/html/talentspotting/public/index.php : func=run

2019-02-15T16:00:57+02:00::ERR :   script 'admin.phtml' not found in path (/Applications/XAMPP/xamppfiles/htdocs/html/talentspotting/application/layouts/scripts/:/Applications/XAMPP/xamppfiles/htdocs/html/talentspotting/application/modules/default/views/scripts/:/Applications/XAMPP/xamppfiles/htdocs/html/talentspotting/application/layouts/scripts/)
2019-02-15T16:00:57+02:00::DEBUG : URL = http://lh.talentspotting.com/dashboard
2019-02-15T16:00:57+02:00::DEBUG : HTTP_REFERER = 
2019-02-15T16:00:57+02:00::DEBUG : USER AGENT = Mozilla/5.0 (Macintosh; Intel Mac OS X 10_13_5) AppleWebKit/537.36 (KHTML, like Gecko) Chrome/72.0.3626.109 Safari/537.36
2019-02-15T16:00:57+02:00::DEBUG : FILE = /Applications/XAMPP/xamppfiles/htdocs/html/talentspotting/public/index.php :: line=70
2019-02-15T16:00:57+02:00::DEBUG : ZONE LANDING = default/admin/dashboard
2019-02-15T16:00:57+02:00::DEBUG : CLASS/FUNCTION = Zend_Application -> run
2019-02-15T16:00:57+02:00::DEBUG : TRACE 0 = ...l/talentspotting/library/Zend/View/Abstract.php : line=/Applications/XAMPP/xamppfiles/htdocs/html/talentspotting/library/Zend/View/Abstract.php : func=_script
2019-02-15T16:00:57+02:00::DEBUG : TRACE 1 = ...ocs/html/talentspotting/library/Zend/Layout.php : line=/Applications/XAMPP/xamppfiles/htdocs/html/talentspotting/library/Zend/Layout.php : func=render
2019-02-15T16:00:57+02:00::DEBUG : TRACE 2 = ...ibrary/Zend/Layout/Controller/Plugin/Layout.php : line=/Applications/XAMPP/xamppfiles/htdocs/html/talentspotting/library/Zend/Layout/Controller/Plugin/Layout.php : func=render
2019-02-15T16:00:57+02:00::DEBUG : TRACE 3 = ...tting/library/Zend/Controller/Plugin/Broker.php : line=/Applications/XAMPP/xamppfiles/htdocs/html/talentspotting/library/Zend/Controller/Plugin/Broker.php : func=postDispatch
2019-02-15T16:00:57+02:00::DEBUG : TRACE 4 = ...alentspotting/library/Zend/Controller/Front.php : line=/Applications/XAMPP/xamppfiles/htdocs/html/talentspotting/library/Zend/Controller/Front.php : func=postDispatch
2019-02-15T16:00:57+02:00::DEBUG : TRACE 5 = ...ibrary/Zend/Application/Bootstrap/Bootstrap.php : line=/Applications/XAMPP/xamppfiles/htdocs/html/talentspotting/library/Zend/Application/Bootstrap/Bootstrap.php : func=dispatch
2019-02-15T16:00:57+02:00::DEBUG : TRACE 6 = ...tml/talentspotting/library/Zend/Application.php : line=/Applications/XAMPP/xamppfiles/htdocs/html/talentspotting/library/Zend/Application.php : func=run
2019-02-15T16:00:57+02:00::DEBUG : TRACE 7 = ...les/htdocs/html/talentspotting/public/index.php : line=/Applications/XAMPP/xamppfiles/htdocs/html/talentspotting/public/index.php : func=run

2019-02-15T16:01:00+02:00::ERR :   script 'admin.phtml' not found in path (/Applications/XAMPP/xamppfiles/htdocs/html/talentspotting/application/layouts/scripts/:/Applications/XAMPP/xamppfiles/htdocs/html/talentspotting/application/modules/default/views/scripts/:/Applications/XAMPP/xamppfiles/htdocs/html/talentspotting/application/layouts/scripts/)
2019-02-15T16:01:00+02:00::DEBUG : URL = http://lh.talentspotting.com/dashboard
2019-02-15T16:01:00+02:00::DEBUG : HTTP_REFERER = 
2019-02-15T16:01:00+02:00::DEBUG : USER AGENT = Mozilla/5.0 (Macintosh; Intel Mac OS X 10_13_5) AppleWebKit/537.36 (KHTML, like Gecko) Chrome/72.0.3626.109 Safari/537.36
2019-02-15T16:01:00+02:00::DEBUG : FILE = /Applications/XAMPP/xamppfiles/htdocs/html/talentspotting/public/index.php :: line=70
2019-02-15T16:01:00+02:00::DEBUG : ZONE LANDING = default/admin/dashboard
2019-02-15T16:01:00+02:00::DEBUG : CLASS/FUNCTION = Zend_Application -> run
2019-02-15T16:01:00+02:00::DEBUG : TRACE 0 = ...l/talentspotting/library/Zend/View/Abstract.php : line=/Applications/XAMPP/xamppfiles/htdocs/html/talentspotting/library/Zend/View/Abstract.php : func=_script
2019-02-15T16:01:00+02:00::DEBUG : TRACE 1 = ...ocs/html/talentspotting/library/Zend/Layout.php : line=/Applications/XAMPP/xamppfiles/htdocs/html/talentspotting/library/Zend/Layout.php : func=render
2019-02-15T16:01:00+02:00::DEBUG : TRACE 2 = ...ibrary/Zend/Layout/Controller/Plugin/Layout.php : line=/Applications/XAMPP/xamppfiles/htdocs/html/talentspotting/library/Zend/Layout/Controller/Plugin/Layout.php : func=render
2019-02-15T16:01:00+02:00::DEBUG : TRACE 3 = ...tting/library/Zend/Controller/Plugin/Broker.php : line=/Applications/XAMPP/xamppfiles/htdocs/html/talentspotting/library/Zend/Controller/Plugin/Broker.php : func=postDispatch
2019-02-15T16:01:00+02:00::DEBUG : TRACE 4 = ...alentspotting/library/Zend/Controller/Front.php : line=/Applications/XAMPP/xamppfiles/htdocs/html/talentspotting/library/Zend/Controller/Front.php : func=postDispatch
2019-02-15T16:01:00+02:00::DEBUG : TRACE 5 = ...ibrary/Zend/Application/Bootstrap/Bootstrap.php : line=/Applications/XAMPP/xamppfiles/htdocs/html/talentspotting/library/Zend/Application/Bootstrap/Bootstrap.php : func=dispatch
2019-02-15T16:01:00+02:00::DEBUG : TRACE 6 = ...tml/talentspotting/library/Zend/Application.php : line=/Applications/XAMPP/xamppfiles/htdocs/html/talentspotting/library/Zend/Application.php : func=run
2019-02-15T16:01:00+02:00::DEBUG : TRACE 7 = ...les/htdocs/html/talentspotting/public/index.php : line=/Applications/XAMPP/xamppfiles/htdocs/html/talentspotting/public/index.php : func=run

2019-02-15T17:27:13+02:00::ERR :   script 'admin.phtml' not found in path (/Applications/XAMPP/xamppfiles/htdocs/html/talentspotting/application/layouts/scripts/:/Applications/XAMPP/xamppfiles/htdocs/html/talentspotting/application/modules/campaigns/views/scripts/:/Applications/XAMPP/xamppfiles/htdocs/html/talentspotting/application/layouts/scripts/)
2019-02-15T17:27:13+02:00::DEBUG : URL = http://lh.talentspotting.com/view-campaigns
2019-02-15T17:27:13+02:00::DEBUG : HTTP_REFERER = http://lh.talentspotting.com/jobs/9/sales-representative-hr-services--douala/test?track=2cc0b255c4894762e17aad3059ce2dcb?ts=15502398475c66c867c2196&source=12
2019-02-15T17:27:13+02:00::DEBUG : USER AGENT = Mozilla/5.0 (Macintosh; Intel Mac OS X 10_13_5) AppleWebKit/537.36 (KHTML, like Gecko) Chrome/72.0.3626.109 Safari/537.36
2019-02-15T17:27:13+02:00::DEBUG : FILE = /Applications/XAMPP/xamppfiles/htdocs/html/talentspotting/public/index.php :: line=70
2019-02-15T17:27:13+02:00::DEBUG : ZONE LANDING = campaigns/admin/view
2019-02-15T17:27:13+02:00::DEBUG : CLASS/FUNCTION = Zend_Application -> run
2019-02-15T17:27:13+02:00::DEBUG : TRACE 0 = ...l/talentspotting/library/Zend/View/Abstract.php : line=/Applications/XAMPP/xamppfiles/htdocs/html/talentspotting/library/Zend/View/Abstract.php : func=_script
2019-02-15T17:27:13+02:00::DEBUG : TRACE 1 = ...ocs/html/talentspotting/library/Zend/Layout.php : line=/Applications/XAMPP/xamppfiles/htdocs/html/talentspotting/library/Zend/Layout.php : func=render
2019-02-15T17:27:13+02:00::DEBUG : TRACE 2 = ...ibrary/Zend/Layout/Controller/Plugin/Layout.php : line=/Applications/XAMPP/xamppfiles/htdocs/html/talentspotting/library/Zend/Layout/Controller/Plugin/Layout.php : func=render
2019-02-15T17:27:13+02:00::DEBUG : TRACE 3 = ...tting/library/Zend/Controller/Plugin/Broker.php : line=/Applications/XAMPP/xamppfiles/htdocs/html/talentspotting/library/Zend/Controller/Plugin/Broker.php : func=postDispatch
2019-02-15T17:27:13+02:00::DEBUG : TRACE 4 = ...alentspotting/library/Zend/Controller/Front.php : line=/Applications/XAMPP/xamppfiles/htdocs/html/talentspotting/library/Zend/Controller/Front.php : func=postDispatch
2019-02-15T17:27:13+02:00::DEBUG : TRACE 5 = ...ibrary/Zend/Application/Bootstrap/Bootstrap.php : line=/Applications/XAMPP/xamppfiles/htdocs/html/talentspotting/library/Zend/Application/Bootstrap/Bootstrap.php : func=dispatch
2019-02-15T17:27:13+02:00::DEBUG : TRACE 6 = ...tml/talentspotting/library/Zend/Application.php : line=/Applications/XAMPP/xamppfiles/htdocs/html/talentspotting/library/Zend/Application.php : func=run
2019-02-15T17:27:13+02:00::DEBUG : TRACE 7 = ...les/htdocs/html/talentspotting/public/index.php : line=/Applications/XAMPP/xamppfiles/htdocs/html/talentspotting/public/index.php : func=run

2019-02-15T17:27:15+02:00::ERR :   script 'admin.phtml' not found in path (/Applications/XAMPP/xamppfiles/htdocs/html/talentspotting/application/layouts/scripts/:/Applications/XAMPP/xamppfiles/htdocs/html/talentspotting/application/modules/campaigns/views/scripts/:/Applications/XAMPP/xamppfiles/htdocs/html/talentspotting/application/layouts/scripts/)
2019-02-15T17:27:15+02:00::DEBUG : URL = http://lh.talentspotting.com/view-campaigns
2019-02-15T17:27:15+02:00::DEBUG : HTTP_REFERER = http://lh.talentspotting.com/jobs/9/sales-representative-hr-services--douala/test?track=2cc0b255c4894762e17aad3059ce2dcb?ts=15502398475c66c867c2196&source=12
2019-02-15T17:27:15+02:00::DEBUG : USER AGENT = Mozilla/5.0 (Macintosh; Intel Mac OS X 10_13_5) AppleWebKit/537.36 (KHTML, like Gecko) Chrome/72.0.3626.109 Safari/537.36
2019-02-15T17:27:15+02:00::DEBUG : FILE = /Applications/XAMPP/xamppfiles/htdocs/html/talentspotting/public/index.php :: line=70
2019-02-15T17:27:15+02:00::DEBUG : ZONE LANDING = campaigns/admin/view
2019-02-15T17:27:15+02:00::DEBUG : CLASS/FUNCTION = Zend_Application -> run
2019-02-15T17:27:15+02:00::DEBUG : TRACE 0 = ...l/talentspotting/library/Zend/View/Abstract.php : line=/Applications/XAMPP/xamppfiles/htdocs/html/talentspotting/library/Zend/View/Abstract.php : func=_script
2019-02-15T17:27:15+02:00::DEBUG : TRACE 1 = ...ocs/html/talentspotting/library/Zend/Layout.php : line=/Applications/XAMPP/xamppfiles/htdocs/html/talentspotting/library/Zend/Layout.php : func=render
2019-02-15T17:27:15+02:00::DEBUG : TRACE 2 = ...ibrary/Zend/Layout/Controller/Plugin/Layout.php : line=/Applications/XAMPP/xamppfiles/htdocs/html/talentspotting/library/Zend/Layout/Controller/Plugin/Layout.php : func=render
2019-02-15T17:27:15+02:00::DEBUG : TRACE 3 = ...tting/library/Zend/Controller/Plugin/Broker.php : line=/Applications/XAMPP/xamppfiles/htdocs/html/talentspotting/library/Zend/Controller/Plugin/Broker.php : func=postDispatch
2019-02-15T17:27:15+02:00::DEBUG : TRACE 4 = ...alentspotting/library/Zend/Controller/Front.php : line=/Applications/XAMPP/xamppfiles/htdocs/html/talentspotting/library/Zend/Controller/Front.php : func=postDispatch
2019-02-15T17:27:15+02:00::DEBUG : TRACE 5 = ...ibrary/Zend/Application/Bootstrap/Bootstrap.php : line=/Applications/XAMPP/xamppfiles/htdocs/html/talentspotting/library/Zend/Application/Bootstrap/Bootstrap.php : func=dispatch
2019-02-15T17:27:15+02:00::DEBUG : TRACE 6 = ...tml/talentspotting/library/Zend/Application.php : line=/Applications/XAMPP/xamppfiles/htdocs/html/talentspotting/library/Zend/Application.php : func=run
2019-02-15T17:27:15+02:00::DEBUG : TRACE 7 = ...les/htdocs/html/talentspotting/public/index.php : line=/Applications/XAMPP/xamppfiles/htdocs/html/talentspotting/public/index.php : func=run

2019-02-15T18:13:00+02:00::ERR :   Mysqli statement execute error : No data supplied for parameters in prepared statement
2019-02-15T18:13:00+02:00::DEBUG : URL = http://lh.talentspotting.com/jobs/1250/acquision-junior-assistant/test
2019-02-15T18:13:00+02:00::DEBUG : HTTP_REFERER = http://lh.talentspotting.com/home
2019-02-15T18:13:00+02:00::DEBUG : USER AGENT = Mozilla/5.0 (Macintosh; Intel Mac OS X 10_13_5) AppleWebKit/537.36 (KHTML, like Gecko) Chrome/72.0.3626.109 Safari/537.36
2019-02-15T18:13:00+02:00::DEBUG : FILE = /Applications/XAMPP/xamppfiles/htdocs/html/talentspotting/library/WebApp/Db/Table.php :: line=79
2019-02-15T18:13:00+02:00::DEBUG : ZONE LANDING = jobs/index/details
2019-02-15T18:13:00+02:00::DEBUG : CLASS/FUNCTION = Zend_Db_Adapter_Abstract -> fetchRow
2019-02-15T18:13:00+02:00::DEBUG : TRACE 0 = ...ml/talentspotting/library/Zend/Db/Statement.php : line=/Applications/XAMPP/xamppfiles/htdocs/html/talentspotting/library/Zend/Db/Statement.php : func=_execute
2019-02-15T18:13:00+02:00::DEBUG : TRACE 1 = ...ntspotting/library/Zend/Db/Adapter/Abstract.php : line=/Applications/XAMPP/xamppfiles/htdocs/html/talentspotting/library/Zend/Db/Adapter/Abstract.php : func=execute
2019-02-15T18:13:00+02:00::DEBUG : TRACE 2 = ...ntspotting/library/Zend/Db/Adapter/Abstract.php : line=/Applications/XAMPP/xamppfiles/htdocs/html/talentspotting/library/Zend/Db/Adapter/Abstract.php : func=query
2019-02-15T18:13:00+02:00::DEBUG : TRACE 3 = ...html/talentspotting/library/WebApp/Db/Table.php : line=/Applications/XAMPP/xamppfiles/htdocs/html/talentspotting/library/WebApp/Db/Table.php : func=fetchRow
2019-02-15T18:13:00+02:00::DEBUG : TRACE 4 = ...html/talentspotting/application/models/User.php : line=/Applications/XAMPP/xamppfiles/htdocs/html/talentspotting/application/models/User.php : func=fetchRow
2019-02-15T18:13:00+02:00::DEBUG : TRACE 5 = ...html/talentspotting/application/models/Jobs.php : line=/Applications/XAMPP/xamppfiles/htdocs/html/talentspotting/application/models/Jobs.php : func=getTooltipViews
2019-02-15T18:13:00+02:00::DEBUG : TRACE 6 = ...ayouts/scripts/partials/not-logged/header.phtml : line=/Applications/XAMPP/xamppfiles/htdocs/html/talentspotting/application/layouts/scripts/partials/not-logged/header.phtml : func=getTooltipViews
2019-02-15T18:13:00+02:00::DEBUG : TRACE 7 = ...tdocs/html/talentspotting/library/Zend/View.php : line=/Applications/XAMPP/xamppfiles/htdocs/html/talentspotting/library/Zend/View.php : func=include
2019-02-15T18:13:00+02:00::DEBUG : TRACE 8 = ...l/talentspotting/library/Zend/View/Abstract.php : line=/Applications/XAMPP/xamppfiles/htdocs/html/talentspotting/library/Zend/View/Abstract.php : func=_run
2019-02-15T18:13:00+02:00::DEBUG : TRACE 9 = ...ing/application/layouts/scripts/frontend_.phtml : line=/Applications/XAMPP/xamppfiles/htdocs/html/talentspotting/application/layouts/scripts/frontend_.phtml : func=render
2019-02-15T18:13:00+02:00::DEBUG : TRACE 10 = ...tdocs/html/talentspotting/library/Zend/View.php : line=/Applications/XAMPP/xamppfiles/htdocs/html/talentspotting/library/Zend/View.php : func=include
2019-02-15T18:13:00+02:00::DEBUG : TRACE 11 = ...l/talentspotting/library/Zend/View/Abstract.php : line=/Applications/XAMPP/xamppfiles/htdocs/html/talentspotting/library/Zend/View/Abstract.php : func=_run
2019-02-15T18:13:00+02:00::DEBUG : TRACE 12 = ...ocs/html/talentspotting/library/Zend/Layout.php : line=/Applications/XAMPP/xamppfiles/htdocs/html/talentspotting/library/Zend/Layout.php : func=render
2019-02-15T18:13:00+02:00::DEBUG : TRACE 13 = ...ibrary/Zend/Layout/Controller/Plugin/Layout.php : line=/Applications/XAMPP/xamppfiles/htdocs/html/talentspotting/library/Zend/Layout/Controller/Plugin/Layout.php : func=render
2019-02-15T18:13:00+02:00::DEBUG : TRACE 14 = ...tting/library/Zend/Controller/Plugin/Broker.php : line=/Applications/XAMPP/xamppfiles/htdocs/html/talentspotting/library/Zend/Controller/Plugin/Broker.php : func=postDispatch
2019-02-15T18:13:00+02:00::DEBUG : TRACE 15 = ...alentspotting/library/Zend/Controller/Front.php : line=/Applications/XAMPP/xamppfiles/htdocs/html/talentspotting/library/Zend/Controller/Front.php : func=postDispatch
2019-02-15T18:13:00+02:00::DEBUG : TRACE 16 = ...ibrary/Zend/Application/Bootstrap/Bootstrap.php : line=/Applications/XAMPP/xamppfiles/htdocs/html/talentspotting/library/Zend/Application/Bootstrap/Bootstrap.php : func=dispatch
2019-02-15T18:13:00+02:00::DEBUG : TRACE 17 = ...tml/talentspotting/library/Zend/Application.php : line=/Applications/XAMPP/xamppfiles/htdocs/html/talentspotting/library/Zend/Application.php : func=run
2019-02-15T18:13:00+02:00::DEBUG : TRACE 18 = ...les/htdocs/html/talentspotting/public/index.php : line=/Applications/XAMPP/xamppfiles/htdocs/html/talentspotting/public/index.php : func=run

2019-02-15T18:13:03+02:00::ERR :   Mysqli statement execute error : No data supplied for parameters in prepared statement
2019-02-15T18:13:03+02:00::DEBUG : URL = http://lh.talentspotting.com/jobs/1250/acquision-junior-assistant/test
2019-02-15T18:13:03+02:00::DEBUG : HTTP_REFERER = http://lh.talentspotting.com/home
2019-02-15T18:13:03+02:00::DEBUG : USER AGENT = Mozilla/5.0 (Macintosh; Intel Mac OS X 10_13_5) AppleWebKit/537.36 (KHTML, like Gecko) Chrome/72.0.3626.109 Safari/537.36
2019-02-15T18:13:03+02:00::DEBUG : FILE = /Applications/XAMPP/xamppfiles/htdocs/html/talentspotting/library/WebApp/Db/Table.php :: line=79
2019-02-15T18:13:03+02:00::DEBUG : ZONE LANDING = jobs/index/details
2019-02-15T18:13:03+02:00::DEBUG : CLASS/FUNCTION = Zend_Db_Adapter_Abstract -> fetchRow
2019-02-15T18:13:03+02:00::DEBUG : TRACE 0 = ...ml/talentspotting/library/Zend/Db/Statement.php : line=/Applications/XAMPP/xamppfiles/htdocs/html/talentspotting/library/Zend/Db/Statement.php : func=_execute
2019-02-15T18:13:03+02:00::DEBUG : TRACE 1 = ...ntspotting/library/Zend/Db/Adapter/Abstract.php : line=/Applications/XAMPP/xamppfiles/htdocs/html/talentspotting/library/Zend/Db/Adapter/Abstract.php : func=execute
2019-02-15T18:13:03+02:00::DEBUG : TRACE 2 = ...ntspotting/library/Zend/Db/Adapter/Abstract.php : line=/Applications/XAMPP/xamppfiles/htdocs/html/talentspotting/library/Zend/Db/Adapter/Abstract.php : func=query
2019-02-15T18:13:03+02:00::DEBUG : TRACE 3 = ...html/talentspotting/library/WebApp/Db/Table.php : line=/Applications/XAMPP/xamppfiles/htdocs/html/talentspotting/library/WebApp/Db/Table.php : func=fetchRow
2019-02-15T18:13:03+02:00::DEBUG : TRACE 4 = ...html/talentspotting/application/models/User.php : line=/Applications/XAMPP/xamppfiles/htdocs/html/talentspotting/application/models/User.php : func=fetchRow
2019-02-15T18:13:03+02:00::DEBUG : TRACE 5 = ...html/talentspotting/application/models/Jobs.php : line=/Applications/XAMPP/xamppfiles/htdocs/html/talentspotting/application/models/Jobs.php : func=getTooltipViews
2019-02-15T18:13:03+02:00::DEBUG : TRACE 6 = ...ayouts/scripts/partials/not-logged/header.phtml : line=/Applications/XAMPP/xamppfiles/htdocs/html/talentspotting/application/layouts/scripts/partials/not-logged/header.phtml : func=getTooltipViews
2019-02-15T18:13:03+02:00::DEBUG : TRACE 7 = ...tdocs/html/talentspotting/library/Zend/View.php : line=/Applications/XAMPP/xamppfiles/htdocs/html/talentspotting/library/Zend/View.php : func=include
2019-02-15T18:13:03+02:00::DEBUG : TRACE 8 = ...l/talentspotting/library/Zend/View/Abstract.php : line=/Applications/XAMPP/xamppfiles/htdocs/html/talentspotting/library/Zend/View/Abstract.php : func=_run
2019-02-15T18:13:03+02:00::DEBUG : TRACE 9 = ...ing/application/layouts/scripts/frontend_.phtml : line=/Applications/XAMPP/xamppfiles/htdocs/html/talentspotting/application/layouts/scripts/frontend_.phtml : func=render
2019-02-15T18:13:03+02:00::DEBUG : TRACE 10 = ...tdocs/html/talentspotting/library/Zend/View.php : line=/Applications/XAMPP/xamppfiles/htdocs/html/talentspotting/library/Zend/View.php : func=include
2019-02-15T18:13:03+02:00::DEBUG : TRACE 11 = ...l/talentspotting/library/Zend/View/Abstract.php : line=/Applications/XAMPP/xamppfiles/htdocs/html/talentspotting/library/Zend/View/Abstract.php : func=_run
2019-02-15T18:13:03+02:00::DEBUG : TRACE 12 = ...ocs/html/talentspotting/library/Zend/Layout.php : line=/Applications/XAMPP/xamppfiles/htdocs/html/talentspotting/library/Zend/Layout.php : func=render
2019-02-15T18:13:03+02:00::DEBUG : TRACE 13 = ...ibrary/Zend/Layout/Controller/Plugin/Layout.php : line=/Applications/XAMPP/xamppfiles/htdocs/html/talentspotting/library/Zend/Layout/Controller/Plugin/Layout.php : func=render
2019-02-15T18:13:03+02:00::DEBUG : TRACE 14 = ...tting/library/Zend/Controller/Plugin/Broker.php : line=/Applications/XAMPP/xamppfiles/htdocs/html/talentspotting/library/Zend/Controller/Plugin/Broker.php : func=postDispatch
2019-02-15T18:13:03+02:00::DEBUG : TRACE 15 = ...alentspotting/library/Zend/Controller/Front.php : line=/Applications/XAMPP/xamppfiles/htdocs/html/talentspotting/library/Zend/Controller/Front.php : func=postDispatch
2019-02-15T18:13:03+02:00::DEBUG : TRACE 16 = ...ibrary/Zend/Application/Bootstrap/Bootstrap.php : line=/Applications/XAMPP/xamppfiles/htdocs/html/talentspotting/library/Zend/Application/Bootstrap/Bootstrap.php : func=dispatch
2019-02-15T18:13:03+02:00::DEBUG : TRACE 17 = ...tml/talentspotting/library/Zend/Application.php : line=/Applications/XAMPP/xamppfiles/htdocs/html/talentspotting/library/Zend/Application.php : func=run
2019-02-15T18:13:03+02:00::DEBUG : TRACE 18 = ...les/htdocs/html/talentspotting/public/index.php : line=/Applications/XAMPP/xamppfiles/htdocs/html/talentspotting/public/index.php : func=run

2019-02-15T18:13:15+02:00::ERR :   Mysqli statement execute error : No data supplied for parameters in prepared statement
2019-02-15T18:13:15+02:00::DEBUG : URL = http://lh.talentspotting.com/home
2019-02-15T18:13:15+02:00::DEBUG : HTTP_REFERER = http://lh.talentspotting.com/home
2019-02-15T18:13:15+02:00::DEBUG : USER AGENT = Mozilla/5.0 (Macintosh; Intel Mac OS X 10_13_5) AppleWebKit/537.36 (KHTML, like Gecko) Chrome/72.0.3626.109 Safari/537.36
2019-02-15T18:13:15+02:00::DEBUG : FILE = /Applications/XAMPP/xamppfiles/htdocs/html/talentspotting/library/WebApp/Db/Table.php :: line=79
2019-02-15T18:13:15+02:00::DEBUG : ZONE LANDING = default/index/index
2019-02-15T18:13:15+02:00::DEBUG : CLASS/FUNCTION = Zend_Db_Adapter_Abstract -> fetchRow
2019-02-15T18:13:15+02:00::DEBUG : TRACE 0 = ...ml/talentspotting/library/Zend/Db/Statement.php : line=/Applications/XAMPP/xamppfiles/htdocs/html/talentspotting/library/Zend/Db/Statement.php : func=_execute
2019-02-15T18:13:15+02:00::DEBUG : TRACE 1 = ...ntspotting/library/Zend/Db/Adapter/Abstract.php : line=/Applications/XAMPP/xamppfiles/htdocs/html/talentspotting/library/Zend/Db/Adapter/Abstract.php : func=execute
2019-02-15T18:13:15+02:00::DEBUG : TRACE 2 = ...ntspotting/library/Zend/Db/Adapter/Abstract.php : line=/Applications/XAMPP/xamppfiles/htdocs/html/talentspotting/library/Zend/Db/Adapter/Abstract.php : func=query
2019-02-15T18:13:15+02:00::DEBUG : TRACE 3 = ...html/talentspotting/library/WebApp/Db/Table.php : line=/Applications/XAMPP/xamppfiles/htdocs/html/talentspotting/library/WebApp/Db/Table.php : func=fetchRow
2019-02-15T18:13:15+02:00::DEBUG : TRACE 4 = ...html/talentspotting/application/models/User.php : line=/Applications/XAMPP/xamppfiles/htdocs/html/talentspotting/application/models/User.php : func=fetchRow
2019-02-15T18:13:15+02:00::DEBUG : TRACE 5 = ...html/talentspotting/application/models/Jobs.php : line=/Applications/XAMPP/xamppfiles/htdocs/html/talentspotting/application/models/Jobs.php : func=getTooltipViews
2019-02-15T18:13:15+02:00::DEBUG : TRACE 6 = ...ayouts/scripts/partials/not-logged/header.phtml : line=/Applications/XAMPP/xamppfiles/htdocs/html/talentspotting/application/layouts/scripts/partials/not-logged/header.phtml : func=getTooltipViews
2019-02-15T18:13:15+02:00::DEBUG : TRACE 7 = ...tdocs/html/talentspotting/library/Zend/View.php : line=/Applications/XAMPP/xamppfiles/htdocs/html/talentspotting/library/Zend/View.php : func=include
2019-02-15T18:13:15+02:00::DEBUG : TRACE 8 = ...l/talentspotting/library/Zend/View/Abstract.php : line=/Applications/XAMPP/xamppfiles/htdocs/html/talentspotting/library/Zend/View/Abstract.php : func=_run
2019-02-15T18:13:15+02:00::DEBUG : TRACE 9 = ...ting/application/layouts/scripts/features.phtml : line=/Applications/XAMPP/xamppfiles/htdocs/html/talentspotting/application/layouts/scripts/features.phtml : func=render
2019-02-15T18:13:15+02:00::DEBUG : TRACE 10 = ...tdocs/html/talentspotting/library/Zend/View.php : line=/Applications/XAMPP/xamppfiles/htdocs/html/talentspotting/library/Zend/View.php : func=include
2019-02-15T18:13:15+02:00::DEBUG : TRACE 11 = ...l/talentspotting/library/Zend/View/Abstract.php : line=/Applications/XAMPP/xamppfiles/htdocs/html/talentspotting/library/Zend/View/Abstract.php : func=_run
2019-02-15T18:13:15+02:00::DEBUG : TRACE 12 = ...ocs/html/talentspotting/library/Zend/Layout.php : line=/Applications/XAMPP/xamppfiles/htdocs/html/talentspotting/library/Zend/Layout.php : func=render
2019-02-15T18:13:15+02:00::DEBUG : TRACE 13 = ...ibrary/Zend/Layout/Controller/Plugin/Layout.php : line=/Applications/XAMPP/xamppfiles/htdocs/html/talentspotting/library/Zend/Layout/Controller/Plugin/Layout.php : func=render
2019-02-15T18:13:15+02:00::DEBUG : TRACE 14 = ...tting/library/Zend/Controller/Plugin/Broker.php : line=/Applications/XAMPP/xamppfiles/htdocs/html/talentspotting/library/Zend/Controller/Plugin/Broker.php : func=postDispatch
2019-02-15T18:13:15+02:00::DEBUG : TRACE 15 = ...alentspotting/library/Zend/Controller/Front.php : line=/Applications/XAMPP/xamppfiles/htdocs/html/talentspotting/library/Zend/Controller/Front.php : func=postDispatch
2019-02-15T18:13:15+02:00::DEBUG : TRACE 16 = ...ibrary/Zend/Application/Bootstrap/Bootstrap.php : line=/Applications/XAMPP/xamppfiles/htdocs/html/talentspotting/library/Zend/Application/Bootstrap/Bootstrap.php : func=dispatch
2019-02-15T18:13:15+02:00::DEBUG : TRACE 17 = ...tml/talentspotting/library/Zend/Application.php : line=/Applications/XAMPP/xamppfiles/htdocs/html/talentspotting/library/Zend/Application.php : func=run
2019-02-15T18:13:15+02:00::DEBUG : TRACE 18 = ...les/htdocs/html/talentspotting/public/index.php : line=/Applications/XAMPP/xamppfiles/htdocs/html/talentspotting/public/index.php : func=run

2019-02-15T18:13:32+02:00::ERR :   Mysqli statement execute error : No data supplied for parameters in prepared statement
2019-02-15T18:13:32+02:00::DEBUG : URL = http://lh.talentspotting.com/home
2019-02-15T18:13:32+02:00::DEBUG : HTTP_REFERER = http://lh.talentspotting.com/home
2019-02-15T18:13:32+02:00::DEBUG : USER AGENT = Mozilla/5.0 (Macintosh; Intel Mac OS X 10_13_5) AppleWebKit/537.36 (KHTML, like Gecko) Chrome/72.0.3626.109 Safari/537.36
2019-02-15T18:13:32+02:00::DEBUG : FILE = /Applications/XAMPP/xamppfiles/htdocs/html/talentspotting/library/WebApp/Db/Table.php :: line=79
2019-02-15T18:13:32+02:00::DEBUG : ZONE LANDING = default/index/index
2019-02-15T18:13:32+02:00::DEBUG : CLASS/FUNCTION = Zend_Db_Adapter_Abstract -> fetchRow
2019-02-15T18:13:32+02:00::DEBUG : TRACE 0 = ...ml/talentspotting/library/Zend/Db/Statement.php : line=/Applications/XAMPP/xamppfiles/htdocs/html/talentspotting/library/Zend/Db/Statement.php : func=_execute
2019-02-15T18:13:32+02:00::DEBUG : TRACE 1 = ...ntspotting/library/Zend/Db/Adapter/Abstract.php : line=/Applications/XAMPP/xamppfiles/htdocs/html/talentspotting/library/Zend/Db/Adapter/Abstract.php : func=execute
2019-02-15T18:13:32+02:00::DEBUG : TRACE 2 = ...ntspotting/library/Zend/Db/Adapter/Abstract.php : line=/Applications/XAMPP/xamppfiles/htdocs/html/talentspotting/library/Zend/Db/Adapter/Abstract.php : func=query
2019-02-15T18:13:32+02:00::DEBUG : TRACE 3 = ...html/talentspotting/library/WebApp/Db/Table.php : line=/Applications/XAMPP/xamppfiles/htdocs/html/talentspotting/library/WebApp/Db/Table.php : func=fetchRow
2019-02-15T18:13:32+02:00::DEBUG : TRACE 4 = ...html/talentspotting/application/models/User.php : line=/Applications/XAMPP/xamppfiles/htdocs/html/talentspotting/application/models/User.php : func=fetchRow
2019-02-15T18:13:32+02:00::DEBUG : TRACE 5 = ...html/talentspotting/application/models/Jobs.php : line=/Applications/XAMPP/xamppfiles/htdocs/html/talentspotting/application/models/Jobs.php : func=getTooltipViews
2019-02-15T18:13:32+02:00::DEBUG : TRACE 6 = ...ayouts/scripts/partials/not-logged/header.phtml : line=/Applications/XAMPP/xamppfiles/htdocs/html/talentspotting/application/layouts/scripts/partials/not-logged/header.phtml : func=getTooltipViews
2019-02-15T18:13:32+02:00::DEBUG : TRACE 7 = ...tdocs/html/talentspotting/library/Zend/View.php : line=/Applications/XAMPP/xamppfiles/htdocs/html/talentspotting/library/Zend/View.php : func=include
2019-02-15T18:13:32+02:00::DEBUG : TRACE 8 = ...l/talentspotting/library/Zend/View/Abstract.php : line=/Applications/XAMPP/xamppfiles/htdocs/html/talentspotting/library/Zend/View/Abstract.php : func=_run
2019-02-15T18:13:32+02:00::DEBUG : TRACE 9 = ...ting/application/layouts/scripts/features.phtml : line=/Applications/XAMPP/xamppfiles/htdocs/html/talentspotting/application/layouts/scripts/features.phtml : func=render
2019-02-15T18:13:32+02:00::DEBUG : TRACE 10 = ...tdocs/html/talentspotting/library/Zend/View.php : line=/Applications/XAMPP/xamppfiles/htdocs/html/talentspotting/library/Zend/View.php : func=include
2019-02-15T18:13:32+02:00::DEBUG : TRACE 11 = ...l/talentspotting/library/Zend/View/Abstract.php : line=/Applications/XAMPP/xamppfiles/htdocs/html/talentspotting/library/Zend/View/Abstract.php : func=_run
2019-02-15T18:13:32+02:00::DEBUG : TRACE 12 = ...ocs/html/talentspotting/library/Zend/Layout.php : line=/Applications/XAMPP/xamppfiles/htdocs/html/talentspotting/library/Zend/Layout.php : func=render
2019-02-15T18:13:32+02:00::DEBUG : TRACE 13 = ...ibrary/Zend/Layout/Controller/Plugin/Layout.php : line=/Applications/XAMPP/xamppfiles/htdocs/html/talentspotting/library/Zend/Layout/Controller/Plugin/Layout.php : func=render
2019-02-15T18:13:32+02:00::DEBUG : TRACE 14 = ...tting/library/Zend/Controller/Plugin/Broker.php : line=/Applications/XAMPP/xamppfiles/htdocs/html/talentspotting/library/Zend/Controller/Plugin/Broker.php : func=postDispatch
2019-02-15T18:13:32+02:00::DEBUG : TRACE 15 = ...alentspotting/library/Zend/Controller/Front.php : line=/Applications/XAMPP/xamppfiles/htdocs/html/talentspotting/library/Zend/Controller/Front.php : func=postDispatch
2019-02-15T18:13:32+02:00::DEBUG : TRACE 16 = ...ibrary/Zend/Application/Bootstrap/Bootstrap.php : line=/Applications/XAMPP/xamppfiles/htdocs/html/talentspotting/library/Zend/Application/Bootstrap/Bootstrap.php : func=dispatch
2019-02-15T18:13:32+02:00::DEBUG : TRACE 17 = ...tml/talentspotting/library/Zend/Application.php : line=/Applications/XAMPP/xamppfiles/htdocs/html/talentspotting/library/Zend/Application.php : func=run
2019-02-15T18:13:32+02:00::DEBUG : TRACE 18 = ...les/htdocs/html/talentspotting/public/index.php : line=/Applications/XAMPP/xamppfiles/htdocs/html/talentspotting/public/index.php : func=run

2019-02-15T18:45:26+02:00::ERR :   Mysqli statement execute error : No data supplied for parameters in prepared statement
2019-02-15T18:45:26+02:00::DEBUG : URL = http://lh.talentspotting.com/jobs/9/sales-representative-hr-services--douala/test
2019-02-15T18:45:26+02:00::DEBUG : HTTP_REFERER = http://lh.talentspotting.com/home
2019-02-15T18:45:26+02:00::DEBUG : USER AGENT = Mozilla/5.0 (Macintosh; Intel Mac OS X 10_13_5) AppleWebKit/537.36 (KHTML, like Gecko) Chrome/72.0.3626.109 Safari/537.36
2019-02-15T18:45:26+02:00::DEBUG : FILE = /Applications/XAMPP/xamppfiles/htdocs/html/talentspotting/library/WebApp/Db/Table.php :: line=79
2019-02-15T18:45:26+02:00::DEBUG : ZONE LANDING = jobs/index/details
2019-02-15T18:45:26+02:00::DEBUG : CLASS/FUNCTION = Zend_Db_Adapter_Abstract -> fetchRow
2019-02-15T18:45:26+02:00::DEBUG : TRACE 0 = ...ml/talentspotting/library/Zend/Db/Statement.php : line=/Applications/XAMPP/xamppfiles/htdocs/html/talentspotting/library/Zend/Db/Statement.php : func=_execute
2019-02-15T18:45:26+02:00::DEBUG : TRACE 1 = ...ntspotting/library/Zend/Db/Adapter/Abstract.php : line=/Applications/XAMPP/xamppfiles/htdocs/html/talentspotting/library/Zend/Db/Adapter/Abstract.php : func=execute
2019-02-15T18:45:26+02:00::DEBUG : TRACE 2 = ...ntspotting/library/Zend/Db/Adapter/Abstract.php : line=/Applications/XAMPP/xamppfiles/htdocs/html/talentspotting/library/Zend/Db/Adapter/Abstract.php : func=query
2019-02-15T18:45:26+02:00::DEBUG : TRACE 3 = ...html/talentspotting/library/WebApp/Db/Table.php : line=/Applications/XAMPP/xamppfiles/htdocs/html/talentspotting/library/WebApp/Db/Table.php : func=fetchRow
2019-02-15T18:45:26+02:00::DEBUG : TRACE 4 = ...html/talentspotting/application/models/User.php : line=/Applications/XAMPP/xamppfiles/htdocs/html/talentspotting/application/models/User.php : func=fetchRow
2019-02-15T18:45:26+02:00::DEBUG : TRACE 5 = ...html/talentspotting/application/models/Jobs.php : line=/Applications/XAMPP/xamppfiles/htdocs/html/talentspotting/application/models/Jobs.php : func=getTooltipViews
2019-02-15T18:45:26+02:00::DEBUG : TRACE 6 = ...ayouts/scripts/partials/not-logged/header.phtml : line=/Applications/XAMPP/xamppfiles/htdocs/html/talentspotting/application/layouts/scripts/partials/not-logged/header.phtml : func=getTooltipViews
2019-02-15T18:45:26+02:00::DEBUG : TRACE 7 = ...tdocs/html/talentspotting/library/Zend/View.php : line=/Applications/XAMPP/xamppfiles/htdocs/html/talentspotting/library/Zend/View.php : func=include
2019-02-15T18:45:26+02:00::DEBUG : TRACE 8 = ...l/talentspotting/library/Zend/View/Abstract.php : line=/Applications/XAMPP/xamppfiles/htdocs/html/talentspotting/library/Zend/View/Abstract.php : func=_run
2019-02-15T18:45:26+02:00::DEBUG : TRACE 9 = ...ing/application/layouts/scripts/frontend_.phtml : line=/Applications/XAMPP/xamppfiles/htdocs/html/talentspotting/application/layouts/scripts/frontend_.phtml : func=render
2019-02-15T18:45:26+02:00::DEBUG : TRACE 10 = ...tdocs/html/talentspotting/library/Zend/View.php : line=/Applications/XAMPP/xamppfiles/htdocs/html/talentspotting/library/Zend/View.php : func=include
2019-02-15T18:45:26+02:00::DEBUG : TRACE 11 = ...l/talentspotting/library/Zend/View/Abstract.php : line=/Applications/XAMPP/xamppfiles/htdocs/html/talentspotting/library/Zend/View/Abstract.php : func=_run
2019-02-15T18:45:26+02:00::DEBUG : TRACE 12 = ...ocs/html/talentspotting/library/Zend/Layout.php : line=/Applications/XAMPP/xamppfiles/htdocs/html/talentspotting/library/Zend/Layout.php : func=render
2019-02-15T18:45:26+02:00::DEBUG : TRACE 13 = ...ibrary/Zend/Layout/Controller/Plugin/Layout.php : line=/Applications/XAMPP/xamppfiles/htdocs/html/talentspotting/library/Zend/Layout/Controller/Plugin/Layout.php : func=render
2019-02-15T18:45:26+02:00::DEBUG : TRACE 14 = ...tting/library/Zend/Controller/Plugin/Broker.php : line=/Applications/XAMPP/xamppfiles/htdocs/html/talentspotting/library/Zend/Controller/Plugin/Broker.php : func=postDispatch
2019-02-15T18:45:26+02:00::DEBUG : TRACE 15 = ...alentspotting/library/Zend/Controller/Front.php : line=/Applications/XAMPP/xamppfiles/htdocs/html/talentspotting/library/Zend/Controller/Front.php : func=postDispatch
2019-02-15T18:45:26+02:00::DEBUG : TRACE 16 = ...ibrary/Zend/Application/Bootstrap/Bootstrap.php : line=/Applications/XAMPP/xamppfiles/htdocs/html/talentspotting/library/Zend/Application/Bootstrap/Bootstrap.php : func=dispatch
2019-02-15T18:45:26+02:00::DEBUG : TRACE 17 = ...tml/talentspotting/library/Zend/Application.php : line=/Applications/XAMPP/xamppfiles/htdocs/html/talentspotting/library/Zend/Application.php : func=run
2019-02-15T18:45:26+02:00::DEBUG : TRACE 18 = ...les/htdocs/html/talentspotting/public/index.php : line=/Applications/XAMPP/xamppfiles/htdocs/html/talentspotting/public/index.php : func=run

