2019-02-04T12:34:44+02:00::ERR :   Mysqli prepare error: Unknown column 'd.action' in 'where clause'
2019-02-04T12:34:44+02:00::DEBUG : URL = http://lh.talentspotting.com/leaderboards
2019-02-04T12:34:44+02:00::DEBUG : HTTP_REFERER = http://lh.talentspotting.com/campaign-report?id=37
2019-02-04T12:34:44+02:00::DEBUG : USER AGENT = Mozilla/5.0 (Macintosh; Intel Mac OS X 10_13_5) AppleWebKit/537.36 (KHTML, like Gecko) Chrome/71.0.3578.98 Safari/537.36
2019-02-04T12:34:44+02:00::DEBUG : FILE = /Applications/XAMPP/xamppfiles/htdocs/html/talentspotting/library/WebApp/Db/Table.php :: line=71
2019-02-04T12:34:44+02:00::DEBUG : ZONE LANDING = users/admin/leaderboards
2019-02-04T12:34:44+02:00::DEBUG : CLASS/FUNCTION = Zend_Db_Adapter_Abstract -> fetchAssoc
2019-02-04T12:34:44+02:00::DEBUG : TRACE 0 = ...ml/talentspotting/library/Zend/Db/Statement.php : line=/Applications/XAMPP/xamppfiles/htdocs/html/talentspotting/library/Zend/Db/Statement.php : func=_prepare
2019-02-04T12:34:44+02:00::DEBUG : TRACE 1 = ...lentspotting/library/Zend/Db/Adapter/Mysqli.php : line=/Applications/XAMPP/xamppfiles/htdocs/html/talentspotting/library/Zend/Db/Adapter/Mysqli.php : func=__construct
2019-02-04T12:34:44+02:00::DEBUG : TRACE 2 = ...ntspotting/library/Zend/Db/Adapter/Abstract.php : line=/Applications/XAMPP/xamppfiles/htdocs/html/talentspotting/library/Zend/Db/Adapter/Abstract.php : func=prepare
2019-02-04T12:34:44+02:00::DEBUG : TRACE 3 = ...ntspotting/library/Zend/Db/Adapter/Abstract.php : line=/Applications/XAMPP/xamppfiles/htdocs/html/talentspotting/library/Zend/Db/Adapter/Abstract.php : func=query
2019-02-04T12:34:44+02:00::DEBUG : TRACE 4 = ...html/talentspotting/library/WebApp/Db/Table.php : line=/Applications/XAMPP/xamppfiles/htdocs/html/talentspotting/library/WebApp/Db/Table.php : func=fetchAssoc
2019-02-04T12:34:44+02:00::DEBUG : TRACE 5 = ...l/talentspotting/application/models/Company.php : line=/Applications/XAMPP/xamppfiles/htdocs/html/talentspotting/application/models/Company.php : func=fetchAssoc
2019-02-04T12:34:44+02:00::DEBUG : TRACE 6 = ...n/modules/users/controllers/AdminController.php : line=/Applications/XAMPP/xamppfiles/htdocs/html/talentspotting/application/modules/users/controllers/AdminController.php : func=getLeaderboards
2019-02-04T12:34:44+02:00::DEBUG : TRACE 7 = ...lentspotting/library/Zend/Controller/Action.php : line=/Applications/XAMPP/xamppfiles/htdocs/html/talentspotting/library/Zend/Controller/Action.php : func=leaderboardsAction
2019-02-04T12:34:44+02:00::DEBUG : TRACE 8 = ...library/Zend/Controller/Dispatcher/Standard.php : line=/Applications/XAMPP/xamppfiles/htdocs/html/talentspotting/library/Zend/Controller/Dispatcher/Standard.php : func=dispatch
2019-02-04T12:34:44+02:00::DEBUG : TRACE 9 = ...alentspotting/library/Zend/Controller/Front.php : line=/Applications/XAMPP/xamppfiles/htdocs/html/talentspotting/library/Zend/Controller/Front.php : func=dispatch
2019-02-04T12:34:44+02:00::DEBUG : TRACE 10 = ...ibrary/Zend/Application/Bootstrap/Bootstrap.php : line=/Applications/XAMPP/xamppfiles/htdocs/html/talentspotting/library/Zend/Application/Bootstrap/Bootstrap.php : func=dispatch
2019-02-04T12:34:44+02:00::DEBUG : TRACE 11 = ...tml/talentspotting/library/Zend/Application.php : line=/Applications/XAMPP/xamppfiles/htdocs/html/talentspotting/library/Zend/Application.php : func=run
2019-02-04T12:34:44+02:00::DEBUG : TRACE 12 = ...les/htdocs/html/talentspotting/public/index.php : line=/Applications/XAMPP/xamppfiles/htdocs/html/talentspotting/public/index.php : func=run

2019-02-04T12:35:00+02:00::ERR :   Mysqli prepare error: Unknown column 'd.action' in 'where clause'
2019-02-04T12:35:00+02:00::DEBUG : URL = http://lh.talentspotting.com/leaderboards
2019-02-04T12:35:00+02:00::DEBUG : HTTP_REFERER = http://lh.talentspotting.com/campaign-report?id=37
2019-02-04T12:35:00+02:00::DEBUG : USER AGENT = Mozilla/5.0 (Macintosh; Intel Mac OS X 10_13_5) AppleWebKit/537.36 (KHTML, like Gecko) Chrome/71.0.3578.98 Safari/537.36
2019-02-04T12:35:00+02:00::DEBUG : FILE = /Applications/XAMPP/xamppfiles/htdocs/html/talentspotting/library/WebApp/Db/Table.php :: line=71
2019-02-04T12:35:00+02:00::DEBUG : ZONE LANDING = users/admin/leaderboards
2019-02-04T12:35:00+02:00::DEBUG : CLASS/FUNCTION = Zend_Db_Adapter_Abstract -> fetchAssoc
2019-02-04T12:35:00+02:00::DEBUG : TRACE 0 = ...ml/talentspotting/library/Zend/Db/Statement.php : line=/Applications/XAMPP/xamppfiles/htdocs/html/talentspotting/library/Zend/Db/Statement.php : func=_prepare
2019-02-04T12:35:00+02:00::DEBUG : TRACE 1 = ...lentspotting/library/Zend/Db/Adapter/Mysqli.php : line=/Applications/XAMPP/xamppfiles/htdocs/html/talentspotting/library/Zend/Db/Adapter/Mysqli.php : func=__construct
2019-02-04T12:35:00+02:00::DEBUG : TRACE 2 = ...ntspotting/library/Zend/Db/Adapter/Abstract.php : line=/Applications/XAMPP/xamppfiles/htdocs/html/talentspotting/library/Zend/Db/Adapter/Abstract.php : func=prepare
2019-02-04T12:35:00+02:00::DEBUG : TRACE 3 = ...ntspotting/library/Zend/Db/Adapter/Abstract.php : line=/Applications/XAMPP/xamppfiles/htdocs/html/talentspotting/library/Zend/Db/Adapter/Abstract.php : func=query
2019-02-04T12:35:00+02:00::DEBUG : TRACE 4 = ...html/talentspotting/library/WebApp/Db/Table.php : line=/Applications/XAMPP/xamppfiles/htdocs/html/talentspotting/library/WebApp/Db/Table.php : func=fetchAssoc
2019-02-04T12:35:00+02:00::DEBUG : TRACE 5 = ...l/talentspotting/application/models/Company.php : line=/Applications/XAMPP/xamppfiles/htdocs/html/talentspotting/application/models/Company.php : func=fetchAssoc
2019-02-04T12:35:00+02:00::DEBUG : TRACE 6 = ...n/modules/users/controllers/AdminController.php : line=/Applications/XAMPP/xamppfiles/htdocs/html/talentspotting/application/modules/users/controllers/AdminController.php : func=getLeaderboards
2019-02-04T12:35:00+02:00::DEBUG : TRACE 7 = ...lentspotting/library/Zend/Controller/Action.php : line=/Applications/XAMPP/xamppfiles/htdocs/html/talentspotting/library/Zend/Controller/Action.php : func=leaderboardsAction
2019-02-04T12:35:00+02:00::DEBUG : TRACE 8 = ...library/Zend/Controller/Dispatcher/Standard.php : line=/Applications/XAMPP/xamppfiles/htdocs/html/talentspotting/library/Zend/Controller/Dispatcher/Standard.php : func=dispatch
2019-02-04T12:35:00+02:00::DEBUG : TRACE 9 = ...alentspotting/library/Zend/Controller/Front.php : line=/Applications/XAMPP/xamppfiles/htdocs/html/talentspotting/library/Zend/Controller/Front.php : func=dispatch
2019-02-04T12:35:00+02:00::DEBUG : TRACE 10 = ...ibrary/Zend/Application/Bootstrap/Bootstrap.php : line=/Applications/XAMPP/xamppfiles/htdocs/html/talentspotting/library/Zend/Application/Bootstrap/Bootstrap.php : func=dispatch
2019-02-04T12:35:00+02:00::DEBUG : TRACE 11 = ...tml/talentspotting/library/Zend/Application.php : line=/Applications/XAMPP/xamppfiles/htdocs/html/talentspotting/library/Zend/Application.php : func=run
2019-02-04T12:35:00+02:00::DEBUG : TRACE 12 = ...les/htdocs/html/talentspotting/public/index.php : line=/Applications/XAMPP/xamppfiles/htdocs/html/talentspotting/public/index.php : func=run

2019-02-04T12:35:22+02:00::ERR :   Mysqli prepare error: Unknown column 'd.action' in 'where clause'
2019-02-04T12:35:22+02:00::DEBUG : URL = http://lh.talentspotting.com/leaderboards
2019-02-04T12:35:22+02:00::DEBUG : HTTP_REFERER = http://lh.talentspotting.com/campaign-report?id=37
2019-02-04T12:35:22+02:00::DEBUG : USER AGENT = Mozilla/5.0 (Macintosh; Intel Mac OS X 10_13_5) AppleWebKit/537.36 (KHTML, like Gecko) Chrome/71.0.3578.98 Safari/537.36
2019-02-04T12:35:22+02:00::DEBUG : FILE = /Applications/XAMPP/xamppfiles/htdocs/html/talentspotting/library/WebApp/Db/Table.php :: line=71
2019-02-04T12:35:22+02:00::DEBUG : ZONE LANDING = users/admin/leaderboards
2019-02-04T12:35:22+02:00::DEBUG : CLASS/FUNCTION = Zend_Db_Adapter_Abstract -> fetchAssoc
2019-02-04T12:35:22+02:00::DEBUG : TRACE 0 = ...ml/talentspotting/library/Zend/Db/Statement.php : line=/Applications/XAMPP/xamppfiles/htdocs/html/talentspotting/library/Zend/Db/Statement.php : func=_prepare
2019-02-04T12:35:22+02:00::DEBUG : TRACE 1 = ...lentspotting/library/Zend/Db/Adapter/Mysqli.php : line=/Applications/XAMPP/xamppfiles/htdocs/html/talentspotting/library/Zend/Db/Adapter/Mysqli.php : func=__construct
2019-02-04T12:35:22+02:00::DEBUG : TRACE 2 = ...ntspotting/library/Zend/Db/Adapter/Abstract.php : line=/Applications/XAMPP/xamppfiles/htdocs/html/talentspotting/library/Zend/Db/Adapter/Abstract.php : func=prepare
2019-02-04T12:35:22+02:00::DEBUG : TRACE 3 = ...ntspotting/library/Zend/Db/Adapter/Abstract.php : line=/Applications/XAMPP/xamppfiles/htdocs/html/talentspotting/library/Zend/Db/Adapter/Abstract.php : func=query
2019-02-04T12:35:22+02:00::DEBUG : TRACE 4 = ...html/talentspotting/library/WebApp/Db/Table.php : line=/Applications/XAMPP/xamppfiles/htdocs/html/talentspotting/library/WebApp/Db/Table.php : func=fetchAssoc
2019-02-04T12:35:22+02:00::DEBUG : TRACE 5 = ...l/talentspotting/application/models/Company.php : line=/Applications/XAMPP/xamppfiles/htdocs/html/talentspotting/application/models/Company.php : func=fetchAssoc
2019-02-04T12:35:22+02:00::DEBUG : TRACE 6 = ...n/modules/users/controllers/AdminController.php : line=/Applications/XAMPP/xamppfiles/htdocs/html/talentspotting/application/modules/users/controllers/AdminController.php : func=getLeaderboards
2019-02-04T12:35:22+02:00::DEBUG : TRACE 7 = ...lentspotting/library/Zend/Controller/Action.php : line=/Applications/XAMPP/xamppfiles/htdocs/html/talentspotting/library/Zend/Controller/Action.php : func=leaderboardsAction
2019-02-04T12:35:22+02:00::DEBUG : TRACE 8 = ...library/Zend/Controller/Dispatcher/Standard.php : line=/Applications/XAMPP/xamppfiles/htdocs/html/talentspotting/library/Zend/Controller/Dispatcher/Standard.php : func=dispatch
2019-02-04T12:35:22+02:00::DEBUG : TRACE 9 = ...alentspotting/library/Zend/Controller/Front.php : line=/Applications/XAMPP/xamppfiles/htdocs/html/talentspotting/library/Zend/Controller/Front.php : func=dispatch
2019-02-04T12:35:22+02:00::DEBUG : TRACE 10 = ...ibrary/Zend/Application/Bootstrap/Bootstrap.php : line=/Applications/XAMPP/xamppfiles/htdocs/html/talentspotting/library/Zend/Application/Bootstrap/Bootstrap.php : func=dispatch
2019-02-04T12:35:22+02:00::DEBUG : TRACE 11 = ...tml/talentspotting/library/Zend/Application.php : line=/Applications/XAMPP/xamppfiles/htdocs/html/talentspotting/library/Zend/Application.php : func=run
2019-02-04T12:35:22+02:00::DEBUG : TRACE 12 = ...les/htdocs/html/talentspotting/public/index.php : line=/Applications/XAMPP/xamppfiles/htdocs/html/talentspotting/public/index.php : func=run

2019-02-04T12:36:45+02:00::ERR :   Mysqli prepare error: Unknown column 'd.action' in 'where clause'
2019-02-04T12:36:45+02:00::DEBUG : URL = http://lh.talentspotting.com/leaderboards
2019-02-04T12:36:45+02:00::DEBUG : HTTP_REFERER = 
2019-02-04T12:36:45+02:00::DEBUG : USER AGENT = Mozilla/5.0 (Macintosh; Intel Mac OS X 10_13_5) AppleWebKit/537.36 (KHTML, like Gecko) Chrome/71.0.3578.98 Safari/537.36
2019-02-04T12:36:45+02:00::DEBUG : FILE = /Applications/XAMPP/xamppfiles/htdocs/html/talentspotting/library/WebApp/Db/Table.php :: line=71
2019-02-04T12:36:45+02:00::DEBUG : ZONE LANDING = users/admin/leaderboards
2019-02-04T12:36:45+02:00::DEBUG : CLASS/FUNCTION = Zend_Db_Adapter_Abstract -> fetchAssoc
2019-02-04T12:36:45+02:00::DEBUG : TRACE 0 = ...ml/talentspotting/library/Zend/Db/Statement.php : line=/Applications/XAMPP/xamppfiles/htdocs/html/talentspotting/library/Zend/Db/Statement.php : func=_prepare
2019-02-04T12:36:45+02:00::DEBUG : TRACE 1 = ...lentspotting/library/Zend/Db/Adapter/Mysqli.php : line=/Applications/XAMPP/xamppfiles/htdocs/html/talentspotting/library/Zend/Db/Adapter/Mysqli.php : func=__construct
2019-02-04T12:36:45+02:00::DEBUG : TRACE 2 = ...ntspotting/library/Zend/Db/Adapter/Abstract.php : line=/Applications/XAMPP/xamppfiles/htdocs/html/talentspotting/library/Zend/Db/Adapter/Abstract.php : func=prepare
2019-02-04T12:36:45+02:00::DEBUG : TRACE 3 = ...ntspotting/library/Zend/Db/Adapter/Abstract.php : line=/Applications/XAMPP/xamppfiles/htdocs/html/talentspotting/library/Zend/Db/Adapter/Abstract.php : func=query
2019-02-04T12:36:45+02:00::DEBUG : TRACE 4 = ...html/talentspotting/library/WebApp/Db/Table.php : line=/Applications/XAMPP/xamppfiles/htdocs/html/talentspotting/library/WebApp/Db/Table.php : func=fetchAssoc
2019-02-04T12:36:45+02:00::DEBUG : TRACE 5 = ...l/talentspotting/application/models/Company.php : line=/Applications/XAMPP/xamppfiles/htdocs/html/talentspotting/application/models/Company.php : func=fetchAssoc
2019-02-04T12:36:45+02:00::DEBUG : TRACE 6 = ...n/modules/users/controllers/AdminController.php : line=/Applications/XAMPP/xamppfiles/htdocs/html/talentspotting/application/modules/users/controllers/AdminController.php : func=getLeaderboards
2019-02-04T12:36:45+02:00::DEBUG : TRACE 7 = ...lentspotting/library/Zend/Controller/Action.php : line=/Applications/XAMPP/xamppfiles/htdocs/html/talentspotting/library/Zend/Controller/Action.php : func=leaderboardsAction
2019-02-04T12:36:45+02:00::DEBUG : TRACE 8 = ...library/Zend/Controller/Dispatcher/Standard.php : line=/Applications/XAMPP/xamppfiles/htdocs/html/talentspotting/library/Zend/Controller/Dispatcher/Standard.php : func=dispatch
2019-02-04T12:36:45+02:00::DEBUG : TRACE 9 = ...alentspotting/library/Zend/Controller/Front.php : line=/Applications/XAMPP/xamppfiles/htdocs/html/talentspotting/library/Zend/Controller/Front.php : func=dispatch
2019-02-04T12:36:45+02:00::DEBUG : TRACE 10 = ...ibrary/Zend/Application/Bootstrap/Bootstrap.php : line=/Applications/XAMPP/xamppfiles/htdocs/html/talentspotting/library/Zend/Application/Bootstrap/Bootstrap.php : func=dispatch
2019-02-04T12:36:45+02:00::DEBUG : TRACE 11 = ...tml/talentspotting/library/Zend/Application.php : line=/Applications/XAMPP/xamppfiles/htdocs/html/talentspotting/library/Zend/Application.php : func=run
2019-02-04T12:36:45+02:00::DEBUG : TRACE 12 = ...les/htdocs/html/talentspotting/public/index.php : line=/Applications/XAMPP/xamppfiles/htdocs/html/talentspotting/public/index.php : func=run

2019-02-04T12:39:38+02:00::ERR :   Mysqli prepare error: Unknown column 'd.action' in 'where clause'
2019-02-04T12:39:38+02:00::DEBUG : URL = http://lh.talentspotting.com/leaderboards
2019-02-04T12:39:38+02:00::DEBUG : HTTP_REFERER = 
2019-02-04T12:39:38+02:00::DEBUG : USER AGENT = Mozilla/5.0 (Macintosh; Intel Mac OS X 10_13_5) AppleWebKit/537.36 (KHTML, like Gecko) Chrome/71.0.3578.98 Safari/537.36
2019-02-04T12:39:38+02:00::DEBUG : FILE = /Applications/XAMPP/xamppfiles/htdocs/html/talentspotting/library/WebApp/Db/Table.php :: line=71
2019-02-04T12:39:38+02:00::DEBUG : ZONE LANDING = users/admin/leaderboards
2019-02-04T12:39:38+02:00::DEBUG : CLASS/FUNCTION = Zend_Db_Adapter_Abstract -> fetchAssoc
2019-02-04T12:39:38+02:00::DEBUG : TRACE 0 = ...ml/talentspotting/library/Zend/Db/Statement.php : line=/Applications/XAMPP/xamppfiles/htdocs/html/talentspotting/library/Zend/Db/Statement.php : func=_prepare
2019-02-04T12:39:38+02:00::DEBUG : TRACE 1 = ...lentspotting/library/Zend/Db/Adapter/Mysqli.php : line=/Applications/XAMPP/xamppfiles/htdocs/html/talentspotting/library/Zend/Db/Adapter/Mysqli.php : func=__construct
2019-02-04T12:39:38+02:00::DEBUG : TRACE 2 = ...ntspotting/library/Zend/Db/Adapter/Abstract.php : line=/Applications/XAMPP/xamppfiles/htdocs/html/talentspotting/library/Zend/Db/Adapter/Abstract.php : func=prepare
2019-02-04T12:39:38+02:00::DEBUG : TRACE 3 = ...ntspotting/library/Zend/Db/Adapter/Abstract.php : line=/Applications/XAMPP/xamppfiles/htdocs/html/talentspotting/library/Zend/Db/Adapter/Abstract.php : func=query
2019-02-04T12:39:38+02:00::DEBUG : TRACE 4 = ...html/talentspotting/library/WebApp/Db/Table.php : line=/Applications/XAMPP/xamppfiles/htdocs/html/talentspotting/library/WebApp/Db/Table.php : func=fetchAssoc
2019-02-04T12:39:38+02:00::DEBUG : TRACE 5 = ...l/talentspotting/application/models/Company.php : line=/Applications/XAMPP/xamppfiles/htdocs/html/talentspotting/application/models/Company.php : func=fetchAssoc
2019-02-04T12:39:38+02:00::DEBUG : TRACE 6 = ...n/modules/users/controllers/AdminController.php : line=/Applications/XAMPP/xamppfiles/htdocs/html/talentspotting/application/modules/users/controllers/AdminController.php : func=getLeaderboards
2019-02-04T12:39:38+02:00::DEBUG : TRACE 7 = ...lentspotting/library/Zend/Controller/Action.php : line=/Applications/XAMPP/xamppfiles/htdocs/html/talentspotting/library/Zend/Controller/Action.php : func=leaderboardsAction
2019-02-04T12:39:38+02:00::DEBUG : TRACE 8 = ...library/Zend/Controller/Dispatcher/Standard.php : line=/Applications/XAMPP/xamppfiles/htdocs/html/talentspotting/library/Zend/Controller/Dispatcher/Standard.php : func=dispatch
2019-02-04T12:39:38+02:00::DEBUG : TRACE 9 = ...alentspotting/library/Zend/Controller/Front.php : line=/Applications/XAMPP/xamppfiles/htdocs/html/talentspotting/library/Zend/Controller/Front.php : func=dispatch
2019-02-04T12:39:38+02:00::DEBUG : TRACE 10 = ...ibrary/Zend/Application/Bootstrap/Bootstrap.php : line=/Applications/XAMPP/xamppfiles/htdocs/html/talentspotting/library/Zend/Application/Bootstrap/Bootstrap.php : func=dispatch
2019-02-04T12:39:38+02:00::DEBUG : TRACE 11 = ...tml/talentspotting/library/Zend/Application.php : line=/Applications/XAMPP/xamppfiles/htdocs/html/talentspotting/library/Zend/Application.php : func=run
2019-02-04T12:39:38+02:00::DEBUG : TRACE 12 = ...les/htdocs/html/talentspotting/public/index.php : line=/Applications/XAMPP/xamppfiles/htdocs/html/talentspotting/public/index.php : func=run

2019-02-04T12:41:04+02:00::ERR :   Mysqli prepare error: Unknown column 'd.action' in 'where clause'
2019-02-04T12:41:04+02:00::DEBUG : URL = http://lh.talentspotting.com/leaderboards
2019-02-04T12:41:04+02:00::DEBUG : HTTP_REFERER = 
2019-02-04T12:41:04+02:00::DEBUG : USER AGENT = Mozilla/5.0 (Macintosh; Intel Mac OS X 10_13_5) AppleWebKit/537.36 (KHTML, like Gecko) Chrome/71.0.3578.98 Safari/537.36
2019-02-04T12:41:04+02:00::DEBUG : FILE = /Applications/XAMPP/xamppfiles/htdocs/html/talentspotting/library/WebApp/Db/Table.php :: line=71
2019-02-04T12:41:04+02:00::DEBUG : ZONE LANDING = users/admin/leaderboards
2019-02-04T12:41:04+02:00::DEBUG : CLASS/FUNCTION = Zend_Db_Adapter_Abstract -> fetchAssoc
2019-02-04T12:41:04+02:00::DEBUG : TRACE 0 = ...ml/talentspotting/library/Zend/Db/Statement.php : line=/Applications/XAMPP/xamppfiles/htdocs/html/talentspotting/library/Zend/Db/Statement.php : func=_prepare
2019-02-04T12:41:04+02:00::DEBUG : TRACE 1 = ...lentspotting/library/Zend/Db/Adapter/Mysqli.php : line=/Applications/XAMPP/xamppfiles/htdocs/html/talentspotting/library/Zend/Db/Adapter/Mysqli.php : func=__construct
2019-02-04T12:41:04+02:00::DEBUG : TRACE 2 = ...ntspotting/library/Zend/Db/Adapter/Abstract.php : line=/Applications/XAMPP/xamppfiles/htdocs/html/talentspotting/library/Zend/Db/Adapter/Abstract.php : func=prepare
2019-02-04T12:41:04+02:00::DEBUG : TRACE 3 = ...ntspotting/library/Zend/Db/Adapter/Abstract.php : line=/Applications/XAMPP/xamppfiles/htdocs/html/talentspotting/library/Zend/Db/Adapter/Abstract.php : func=query
2019-02-04T12:41:04+02:00::DEBUG : TRACE 4 = ...html/talentspotting/library/WebApp/Db/Table.php : line=/Applications/XAMPP/xamppfiles/htdocs/html/talentspotting/library/WebApp/Db/Table.php : func=fetchAssoc
2019-02-04T12:41:04+02:00::DEBUG : TRACE 5 = ...l/talentspotting/application/models/Company.php : line=/Applications/XAMPP/xamppfiles/htdocs/html/talentspotting/application/models/Company.php : func=fetchAssoc
2019-02-04T12:41:04+02:00::DEBUG : TRACE 6 = ...n/modules/users/controllers/AdminController.php : line=/Applications/XAMPP/xamppfiles/htdocs/html/talentspotting/application/modules/users/controllers/AdminController.php : func=getLeaderboards
2019-02-04T12:41:04+02:00::DEBUG : TRACE 7 = ...lentspotting/library/Zend/Controller/Action.php : line=/Applications/XAMPP/xamppfiles/htdocs/html/talentspotting/library/Zend/Controller/Action.php : func=leaderboardsAction
2019-02-04T12:41:04+02:00::DEBUG : TRACE 8 = ...library/Zend/Controller/Dispatcher/Standard.php : line=/Applications/XAMPP/xamppfiles/htdocs/html/talentspotting/library/Zend/Controller/Dispatcher/Standard.php : func=dispatch
2019-02-04T12:41:04+02:00::DEBUG : TRACE 9 = ...alentspotting/library/Zend/Controller/Front.php : line=/Applications/XAMPP/xamppfiles/htdocs/html/talentspotting/library/Zend/Controller/Front.php : func=dispatch
2019-02-04T12:41:04+02:00::DEBUG : TRACE 10 = ...ibrary/Zend/Application/Bootstrap/Bootstrap.php : line=/Applications/XAMPP/xamppfiles/htdocs/html/talentspotting/library/Zend/Application/Bootstrap/Bootstrap.php : func=dispatch
2019-02-04T12:41:04+02:00::DEBUG : TRACE 11 = ...tml/talentspotting/library/Zend/Application.php : line=/Applications/XAMPP/xamppfiles/htdocs/html/talentspotting/library/Zend/Application.php : func=run
2019-02-04T12:41:04+02:00::DEBUG : TRACE 12 = ...les/htdocs/html/talentspotting/public/index.php : line=/Applications/XAMPP/xamppfiles/htdocs/html/talentspotting/public/index.php : func=run

2019-02-04T12:41:25+02:00::ERR :   Mysqli prepare error: Unknown column 'd.action' in 'where clause'
2019-02-04T12:41:25+02:00::DEBUG : URL = http://lh.talentspotting.com/leaderboards
2019-02-04T12:41:25+02:00::DEBUG : HTTP_REFERER = 
2019-02-04T12:41:25+02:00::DEBUG : USER AGENT = Mozilla/5.0 (Macintosh; Intel Mac OS X 10_13_5) AppleWebKit/537.36 (KHTML, like Gecko) Chrome/71.0.3578.98 Safari/537.36
2019-02-04T12:41:25+02:00::DEBUG : FILE = /Applications/XAMPP/xamppfiles/htdocs/html/talentspotting/library/WebApp/Db/Table.php :: line=71
2019-02-04T12:41:25+02:00::DEBUG : ZONE LANDING = users/admin/leaderboards
2019-02-04T12:41:25+02:00::DEBUG : CLASS/FUNCTION = Zend_Db_Adapter_Abstract -> fetchAssoc
2019-02-04T12:41:25+02:00::DEBUG : TRACE 0 = ...ml/talentspotting/library/Zend/Db/Statement.php : line=/Applications/XAMPP/xamppfiles/htdocs/html/talentspotting/library/Zend/Db/Statement.php : func=_prepare
2019-02-04T12:41:25+02:00::DEBUG : TRACE 1 = ...lentspotting/library/Zend/Db/Adapter/Mysqli.php : line=/Applications/XAMPP/xamppfiles/htdocs/html/talentspotting/library/Zend/Db/Adapter/Mysqli.php : func=__construct
2019-02-04T12:41:25+02:00::DEBUG : TRACE 2 = ...ntspotting/library/Zend/Db/Adapter/Abstract.php : line=/Applications/XAMPP/xamppfiles/htdocs/html/talentspotting/library/Zend/Db/Adapter/Abstract.php : func=prepare
2019-02-04T12:41:25+02:00::DEBUG : TRACE 3 = ...ntspotting/library/Zend/Db/Adapter/Abstract.php : line=/Applications/XAMPP/xamppfiles/htdocs/html/talentspotting/library/Zend/Db/Adapter/Abstract.php : func=query
2019-02-04T12:41:25+02:00::DEBUG : TRACE 4 = ...html/talentspotting/library/WebApp/Db/Table.php : line=/Applications/XAMPP/xamppfiles/htdocs/html/talentspotting/library/WebApp/Db/Table.php : func=fetchAssoc
2019-02-04T12:41:25+02:00::DEBUG : TRACE 5 = ...l/talentspotting/application/models/Company.php : line=/Applications/XAMPP/xamppfiles/htdocs/html/talentspotting/application/models/Company.php : func=fetchAssoc
2019-02-04T12:41:25+02:00::DEBUG : TRACE 6 = ...n/modules/users/controllers/AdminController.php : line=/Applications/XAMPP/xamppfiles/htdocs/html/talentspotting/application/modules/users/controllers/AdminController.php : func=getLeaderboards
2019-02-04T12:41:25+02:00::DEBUG : TRACE 7 = ...lentspotting/library/Zend/Controller/Action.php : line=/Applications/XAMPP/xamppfiles/htdocs/html/talentspotting/library/Zend/Controller/Action.php : func=leaderboardsAction
2019-02-04T12:41:25+02:00::DEBUG : TRACE 8 = ...library/Zend/Controller/Dispatcher/Standard.php : line=/Applications/XAMPP/xamppfiles/htdocs/html/talentspotting/library/Zend/Controller/Dispatcher/Standard.php : func=dispatch
2019-02-04T12:41:25+02:00::DEBUG : TRACE 9 = ...alentspotting/library/Zend/Controller/Front.php : line=/Applications/XAMPP/xamppfiles/htdocs/html/talentspotting/library/Zend/Controller/Front.php : func=dispatch
2019-02-04T12:41:25+02:00::DEBUG : TRACE 10 = ...ibrary/Zend/Application/Bootstrap/Bootstrap.php : line=/Applications/XAMPP/xamppfiles/htdocs/html/talentspotting/library/Zend/Application/Bootstrap/Bootstrap.php : func=dispatch
2019-02-04T12:41:25+02:00::DEBUG : TRACE 11 = ...tml/talentspotting/library/Zend/Application.php : line=/Applications/XAMPP/xamppfiles/htdocs/html/talentspotting/library/Zend/Application.php : func=run
2019-02-04T12:41:25+02:00::DEBUG : TRACE 12 = ...les/htdocs/html/talentspotting/public/index.php : line=/Applications/XAMPP/xamppfiles/htdocs/html/talentspotting/public/index.php : func=run

2019-02-04T12:41:28+02:00::ERR :   Mysqli prepare error: Unknown column 'd.action' in 'where clause'
2019-02-04T12:41:28+02:00::DEBUG : URL = http://lh.talentspotting.com/leaderboards
2019-02-04T12:41:28+02:00::DEBUG : HTTP_REFERER = 
2019-02-04T12:41:28+02:00::DEBUG : USER AGENT = Mozilla/5.0 (Macintosh; Intel Mac OS X 10_13_5) AppleWebKit/537.36 (KHTML, like Gecko) Chrome/71.0.3578.98 Safari/537.36
2019-02-04T12:41:28+02:00::DEBUG : FILE = /Applications/XAMPP/xamppfiles/htdocs/html/talentspotting/library/WebApp/Db/Table.php :: line=71
2019-02-04T12:41:28+02:00::DEBUG : ZONE LANDING = users/admin/leaderboards
2019-02-04T12:41:28+02:00::DEBUG : CLASS/FUNCTION = Zend_Db_Adapter_Abstract -> fetchAssoc
2019-02-04T12:41:28+02:00::DEBUG : TRACE 0 = ...ml/talentspotting/library/Zend/Db/Statement.php : line=/Applications/XAMPP/xamppfiles/htdocs/html/talentspotting/library/Zend/Db/Statement.php : func=_prepare
2019-02-04T12:41:28+02:00::DEBUG : TRACE 1 = ...lentspotting/library/Zend/Db/Adapter/Mysqli.php : line=/Applications/XAMPP/xamppfiles/htdocs/html/talentspotting/library/Zend/Db/Adapter/Mysqli.php : func=__construct
2019-02-04T12:41:28+02:00::DEBUG : TRACE 2 = ...ntspotting/library/Zend/Db/Adapter/Abstract.php : line=/Applications/XAMPP/xamppfiles/htdocs/html/talentspotting/library/Zend/Db/Adapter/Abstract.php : func=prepare
2019-02-04T12:41:28+02:00::DEBUG : TRACE 3 = ...ntspotting/library/Zend/Db/Adapter/Abstract.php : line=/Applications/XAMPP/xamppfiles/htdocs/html/talentspotting/library/Zend/Db/Adapter/Abstract.php : func=query
2019-02-04T12:41:28+02:00::DEBUG : TRACE 4 = ...html/talentspotting/library/WebApp/Db/Table.php : line=/Applications/XAMPP/xamppfiles/htdocs/html/talentspotting/library/WebApp/Db/Table.php : func=fetchAssoc
2019-02-04T12:41:28+02:00::DEBUG : TRACE 5 = ...l/talentspotting/application/models/Company.php : line=/Applications/XAMPP/xamppfiles/htdocs/html/talentspotting/application/models/Company.php : func=fetchAssoc
2019-02-04T12:41:28+02:00::DEBUG : TRACE 6 = ...n/modules/users/controllers/AdminController.php : line=/Applications/XAMPP/xamppfiles/htdocs/html/talentspotting/application/modules/users/controllers/AdminController.php : func=getLeaderboards
2019-02-04T12:41:28+02:00::DEBUG : TRACE 7 = ...lentspotting/library/Zend/Controller/Action.php : line=/Applications/XAMPP/xamppfiles/htdocs/html/talentspotting/library/Zend/Controller/Action.php : func=leaderboardsAction
2019-02-04T12:41:28+02:00::DEBUG : TRACE 8 = ...library/Zend/Controller/Dispatcher/Standard.php : line=/Applications/XAMPP/xamppfiles/htdocs/html/talentspotting/library/Zend/Controller/Dispatcher/Standard.php : func=dispatch
2019-02-04T12:41:28+02:00::DEBUG : TRACE 9 = ...alentspotting/library/Zend/Controller/Front.php : line=/Applications/XAMPP/xamppfiles/htdocs/html/talentspotting/library/Zend/Controller/Front.php : func=dispatch
2019-02-04T12:41:28+02:00::DEBUG : TRACE 10 = ...ibrary/Zend/Application/Bootstrap/Bootstrap.php : line=/Applications/XAMPP/xamppfiles/htdocs/html/talentspotting/library/Zend/Application/Bootstrap/Bootstrap.php : func=dispatch
2019-02-04T12:41:28+02:00::DEBUG : TRACE 11 = ...tml/talentspotting/library/Zend/Application.php : line=/Applications/XAMPP/xamppfiles/htdocs/html/talentspotting/library/Zend/Application.php : func=run
2019-02-04T12:41:28+02:00::DEBUG : TRACE 12 = ...les/htdocs/html/talentspotting/public/index.php : line=/Applications/XAMPP/xamppfiles/htdocs/html/talentspotting/public/index.php : func=run

2019-02-04T12:51:46+02:00::ERR :   Mysqli prepare error: Unknown column 'cad.action' in 'where clause'
2019-02-04T12:51:46+02:00::DEBUG : URL = http://lh.talentspotting.com/leaderboards
2019-02-04T12:51:46+02:00::DEBUG : HTTP_REFERER = http://lh.talentspotting.com/campaign-report?id=37
2019-02-04T12:51:46+02:00::DEBUG : USER AGENT = Mozilla/5.0 (Macintosh; Intel Mac OS X 10_13_5) AppleWebKit/537.36 (KHTML, like Gecko) Chrome/71.0.3578.98 Safari/537.36
2019-02-04T12:51:46+02:00::DEBUG : FILE = /Applications/XAMPP/xamppfiles/htdocs/html/talentspotting/library/WebApp/Db/Table.php :: line=63
2019-02-04T12:51:46+02:00::DEBUG : ZONE LANDING = users/admin/leaderboards
2019-02-04T12:51:46+02:00::DEBUG : CLASS/FUNCTION = Zend_Db_Adapter_Abstract -> fetchAll
2019-02-04T12:51:46+02:00::DEBUG : TRACE 0 = ...ml/talentspotting/library/Zend/Db/Statement.php : line=/Applications/XAMPP/xamppfiles/htdocs/html/talentspotting/library/Zend/Db/Statement.php : func=_prepare
2019-02-04T12:51:46+02:00::DEBUG : TRACE 1 = ...lentspotting/library/Zend/Db/Adapter/Mysqli.php : line=/Applications/XAMPP/xamppfiles/htdocs/html/talentspotting/library/Zend/Db/Adapter/Mysqli.php : func=__construct
2019-02-04T12:51:46+02:00::DEBUG : TRACE 2 = ...ntspotting/library/Zend/Db/Adapter/Abstract.php : line=/Applications/XAMPP/xamppfiles/htdocs/html/talentspotting/library/Zend/Db/Adapter/Abstract.php : func=prepare
2019-02-04T12:51:46+02:00::DEBUG : TRACE 3 = ...ntspotting/library/Zend/Db/Adapter/Abstract.php : line=/Applications/XAMPP/xamppfiles/htdocs/html/talentspotting/library/Zend/Db/Adapter/Abstract.php : func=query
2019-02-04T12:51:46+02:00::DEBUG : TRACE 4 = ...html/talentspotting/library/WebApp/Db/Table.php : line=/Applications/XAMPP/xamppfiles/htdocs/html/talentspotting/library/WebApp/Db/Table.php : func=fetchAll
2019-02-04T12:51:46+02:00::DEBUG : TRACE 5 = ...l/talentspotting/application/models/Company.php : line=/Applications/XAMPP/xamppfiles/htdocs/html/talentspotting/application/models/Company.php : func=fetchAll
2019-02-04T12:51:46+02:00::DEBUG : TRACE 6 = ...n/modules/users/controllers/AdminController.php : line=/Applications/XAMPP/xamppfiles/htdocs/html/talentspotting/application/modules/users/controllers/AdminController.php : func=getLeaderboardsPagination
2019-02-04T12:51:46+02:00::DEBUG : TRACE 7 = ...lentspotting/library/Zend/Controller/Action.php : line=/Applications/XAMPP/xamppfiles/htdocs/html/talentspotting/library/Zend/Controller/Action.php : func=leaderboardsAction
2019-02-04T12:51:46+02:00::DEBUG : TRACE 8 = ...library/Zend/Controller/Dispatcher/Standard.php : line=/Applications/XAMPP/xamppfiles/htdocs/html/talentspotting/library/Zend/Controller/Dispatcher/Standard.php : func=dispatch
2019-02-04T12:51:46+02:00::DEBUG : TRACE 9 = ...alentspotting/library/Zend/Controller/Front.php : line=/Applications/XAMPP/xamppfiles/htdocs/html/talentspotting/library/Zend/Controller/Front.php : func=dispatch
2019-02-04T12:51:46+02:00::DEBUG : TRACE 10 = ...ibrary/Zend/Application/Bootstrap/Bootstrap.php : line=/Applications/XAMPP/xamppfiles/htdocs/html/talentspotting/library/Zend/Application/Bootstrap/Bootstrap.php : func=dispatch
2019-02-04T12:51:46+02:00::DEBUG : TRACE 11 = ...tml/talentspotting/library/Zend/Application.php : line=/Applications/XAMPP/xamppfiles/htdocs/html/talentspotting/library/Zend/Application.php : func=run
2019-02-04T12:51:46+02:00::DEBUG : TRACE 12 = ...les/htdocs/html/talentspotting/public/index.php : line=/Applications/XAMPP/xamppfiles/htdocs/html/talentspotting/public/index.php : func=run

2019-02-04T12:51:58+02:00::ERR :   Mysqli prepare error: Unknown column 'cad.action' in 'where clause'
2019-02-04T12:51:58+02:00::DEBUG : URL = http://lh.talentspotting.com/leaderboards
2019-02-04T12:51:58+02:00::DEBUG : HTTP_REFERER = http://lh.talentspotting.com/campaign-report?id=37
2019-02-04T12:51:58+02:00::DEBUG : USER AGENT = Mozilla/5.0 (Macintosh; Intel Mac OS X 10_13_5) AppleWebKit/537.36 (KHTML, like Gecko) Chrome/71.0.3578.98 Safari/537.36
2019-02-04T12:51:58+02:00::DEBUG : FILE = /Applications/XAMPP/xamppfiles/htdocs/html/talentspotting/library/WebApp/Db/Table.php :: line=63
2019-02-04T12:51:58+02:00::DEBUG : ZONE LANDING = users/admin/leaderboards
2019-02-04T12:51:58+02:00::DEBUG : CLASS/FUNCTION = Zend_Db_Adapter_Abstract -> fetchAll
2019-02-04T12:51:58+02:00::DEBUG : TRACE 0 = ...ml/talentspotting/library/Zend/Db/Statement.php : line=/Applications/XAMPP/xamppfiles/htdocs/html/talentspotting/library/Zend/Db/Statement.php : func=_prepare
2019-02-04T12:51:58+02:00::DEBUG : TRACE 1 = ...lentspotting/library/Zend/Db/Adapter/Mysqli.php : line=/Applications/XAMPP/xamppfiles/htdocs/html/talentspotting/library/Zend/Db/Adapter/Mysqli.php : func=__construct
2019-02-04T12:51:58+02:00::DEBUG : TRACE 2 = ...ntspotting/library/Zend/Db/Adapter/Abstract.php : line=/Applications/XAMPP/xamppfiles/htdocs/html/talentspotting/library/Zend/Db/Adapter/Abstract.php : func=prepare
2019-02-04T12:51:58+02:00::DEBUG : TRACE 3 = ...ntspotting/library/Zend/Db/Adapter/Abstract.php : line=/Applications/XAMPP/xamppfiles/htdocs/html/talentspotting/library/Zend/Db/Adapter/Abstract.php : func=query
2019-02-04T12:51:58+02:00::DEBUG : TRACE 4 = ...html/talentspotting/library/WebApp/Db/Table.php : line=/Applications/XAMPP/xamppfiles/htdocs/html/talentspotting/library/WebApp/Db/Table.php : func=fetchAll
2019-02-04T12:51:58+02:00::DEBUG : TRACE 5 = ...l/talentspotting/application/models/Company.php : line=/Applications/XAMPP/xamppfiles/htdocs/html/talentspotting/application/models/Company.php : func=fetchAll
2019-02-04T12:51:58+02:00::DEBUG : TRACE 6 = ...n/modules/users/controllers/AdminController.php : line=/Applications/XAMPP/xamppfiles/htdocs/html/talentspotting/application/modules/users/controllers/AdminController.php : func=getLeaderboardsPagination
2019-02-04T12:51:58+02:00::DEBUG : TRACE 7 = ...lentspotting/library/Zend/Controller/Action.php : line=/Applications/XAMPP/xamppfiles/htdocs/html/talentspotting/library/Zend/Controller/Action.php : func=leaderboardsAction
2019-02-04T12:51:58+02:00::DEBUG : TRACE 8 = ...library/Zend/Controller/Dispatcher/Standard.php : line=/Applications/XAMPP/xamppfiles/htdocs/html/talentspotting/library/Zend/Controller/Dispatcher/Standard.php : func=dispatch
2019-02-04T12:51:58+02:00::DEBUG : TRACE 9 = ...alentspotting/library/Zend/Controller/Front.php : line=/Applications/XAMPP/xamppfiles/htdocs/html/talentspotting/library/Zend/Controller/Front.php : func=dispatch
2019-02-04T12:51:58+02:00::DEBUG : TRACE 10 = ...ibrary/Zend/Application/Bootstrap/Bootstrap.php : line=/Applications/XAMPP/xamppfiles/htdocs/html/talentspotting/library/Zend/Application/Bootstrap/Bootstrap.php : func=dispatch
2019-02-04T12:51:58+02:00::DEBUG : TRACE 11 = ...tml/talentspotting/library/Zend/Application.php : line=/Applications/XAMPP/xamppfiles/htdocs/html/talentspotting/library/Zend/Application.php : func=run
2019-02-04T12:51:58+02:00::DEBUG : TRACE 12 = ...les/htdocs/html/talentspotting/public/index.php : line=/Applications/XAMPP/xamppfiles/htdocs/html/talentspotting/public/index.php : func=run

2019-02-04T12:52:41+02:00::ERR :   Mysqli prepare error: Unknown column 'cad.action' in 'where clause'
2019-02-04T12:52:41+02:00::DEBUG : URL = http://lh.talentspotting.com/leaderboards
2019-02-04T12:52:41+02:00::DEBUG : HTTP_REFERER = http://lh.talentspotting.com/campaign-report?id=37
2019-02-04T12:52:41+02:00::DEBUG : USER AGENT = Mozilla/5.0 (Macintosh; Intel Mac OS X 10_13_5) AppleWebKit/537.36 (KHTML, like Gecko) Chrome/71.0.3578.98 Safari/537.36
2019-02-04T12:52:41+02:00::DEBUG : FILE = /Applications/XAMPP/xamppfiles/htdocs/html/talentspotting/library/WebApp/Db/Table.php :: line=63
2019-02-04T12:52:41+02:00::DEBUG : ZONE LANDING = users/admin/leaderboards
2019-02-04T12:52:41+02:00::DEBUG : CLASS/FUNCTION = Zend_Db_Adapter_Abstract -> fetchAll
2019-02-04T12:52:41+02:00::DEBUG : TRACE 0 = ...ml/talentspotting/library/Zend/Db/Statement.php : line=/Applications/XAMPP/xamppfiles/htdocs/html/talentspotting/library/Zend/Db/Statement.php : func=_prepare
2019-02-04T12:52:41+02:00::DEBUG : TRACE 1 = ...lentspotting/library/Zend/Db/Adapter/Mysqli.php : line=/Applications/XAMPP/xamppfiles/htdocs/html/talentspotting/library/Zend/Db/Adapter/Mysqli.php : func=__construct
2019-02-04T12:52:41+02:00::DEBUG : TRACE 2 = ...ntspotting/library/Zend/Db/Adapter/Abstract.php : line=/Applications/XAMPP/xamppfiles/htdocs/html/talentspotting/library/Zend/Db/Adapter/Abstract.php : func=prepare
2019-02-04T12:52:41+02:00::DEBUG : TRACE 3 = ...ntspotting/library/Zend/Db/Adapter/Abstract.php : line=/Applications/XAMPP/xamppfiles/htdocs/html/talentspotting/library/Zend/Db/Adapter/Abstract.php : func=query
2019-02-04T12:52:41+02:00::DEBUG : TRACE 4 = ...html/talentspotting/library/WebApp/Db/Table.php : line=/Applications/XAMPP/xamppfiles/htdocs/html/talentspotting/library/WebApp/Db/Table.php : func=fetchAll
2019-02-04T12:52:41+02:00::DEBUG : TRACE 5 = ...l/talentspotting/application/models/Company.php : line=/Applications/XAMPP/xamppfiles/htdocs/html/talentspotting/application/models/Company.php : func=fetchAll
2019-02-04T12:52:41+02:00::DEBUG : TRACE 6 = ...n/modules/users/controllers/AdminController.php : line=/Applications/XAMPP/xamppfiles/htdocs/html/talentspotting/application/modules/users/controllers/AdminController.php : func=getLeaderboardsPagination
2019-02-04T12:52:41+02:00::DEBUG : TRACE 7 = ...lentspotting/library/Zend/Controller/Action.php : line=/Applications/XAMPP/xamppfiles/htdocs/html/talentspotting/library/Zend/Controller/Action.php : func=leaderboardsAction
2019-02-04T12:52:41+02:00::DEBUG : TRACE 8 = ...library/Zend/Controller/Dispatcher/Standard.php : line=/Applications/XAMPP/xamppfiles/htdocs/html/talentspotting/library/Zend/Controller/Dispatcher/Standard.php : func=dispatch
2019-02-04T12:52:41+02:00::DEBUG : TRACE 9 = ...alentspotting/library/Zend/Controller/Front.php : line=/Applications/XAMPP/xamppfiles/htdocs/html/talentspotting/library/Zend/Controller/Front.php : func=dispatch
2019-02-04T12:52:41+02:00::DEBUG : TRACE 10 = ...ibrary/Zend/Application/Bootstrap/Bootstrap.php : line=/Applications/XAMPP/xamppfiles/htdocs/html/talentspotting/library/Zend/Application/Bootstrap/Bootstrap.php : func=dispatch
2019-02-04T12:52:41+02:00::DEBUG : TRACE 11 = ...tml/talentspotting/library/Zend/Application.php : line=/Applications/XAMPP/xamppfiles/htdocs/html/talentspotting/library/Zend/Application.php : func=run
2019-02-04T12:52:41+02:00::DEBUG : TRACE 12 = ...les/htdocs/html/talentspotting/public/index.php : line=/Applications/XAMPP/xamppfiles/htdocs/html/talentspotting/public/index.php : func=run

2019-02-04T12:52:55+02:00::ERR :   Mysqli prepare error: Unknown column 'cad.action' in 'where clause'
2019-02-04T12:52:55+02:00::DEBUG : URL = http://lh.talentspotting.com/leaderboards
2019-02-04T12:52:55+02:00::DEBUG : HTTP_REFERER = http://lh.talentspotting.com/campaign-report?id=37
2019-02-04T12:52:55+02:00::DEBUG : USER AGENT = Mozilla/5.0 (Macintosh; Intel Mac OS X 10_13_5) AppleWebKit/537.36 (KHTML, like Gecko) Chrome/71.0.3578.98 Safari/537.36
2019-02-04T12:52:55+02:00::DEBUG : FILE = /Applications/XAMPP/xamppfiles/htdocs/html/talentspotting/library/WebApp/Db/Table.php :: line=63
2019-02-04T12:52:55+02:00::DEBUG : ZONE LANDING = users/admin/leaderboards
2019-02-04T12:52:55+02:00::DEBUG : CLASS/FUNCTION = Zend_Db_Adapter_Abstract -> fetchAll
2019-02-04T12:52:55+02:00::DEBUG : TRACE 0 = ...ml/talentspotting/library/Zend/Db/Statement.php : line=/Applications/XAMPP/xamppfiles/htdocs/html/talentspotting/library/Zend/Db/Statement.php : func=_prepare
2019-02-04T12:52:55+02:00::DEBUG : TRACE 1 = ...lentspotting/library/Zend/Db/Adapter/Mysqli.php : line=/Applications/XAMPP/xamppfiles/htdocs/html/talentspotting/library/Zend/Db/Adapter/Mysqli.php : func=__construct
2019-02-04T12:52:55+02:00::DEBUG : TRACE 2 = ...ntspotting/library/Zend/Db/Adapter/Abstract.php : line=/Applications/XAMPP/xamppfiles/htdocs/html/talentspotting/library/Zend/Db/Adapter/Abstract.php : func=prepare
2019-02-04T12:52:55+02:00::DEBUG : TRACE 3 = ...ntspotting/library/Zend/Db/Adapter/Abstract.php : line=/Applications/XAMPP/xamppfiles/htdocs/html/talentspotting/library/Zend/Db/Adapter/Abstract.php : func=query
2019-02-04T12:52:55+02:00::DEBUG : TRACE 4 = ...html/talentspotting/library/WebApp/Db/Table.php : line=/Applications/XAMPP/xamppfiles/htdocs/html/talentspotting/library/WebApp/Db/Table.php : func=fetchAll
2019-02-04T12:52:55+02:00::DEBUG : TRACE 5 = ...l/talentspotting/application/models/Company.php : line=/Applications/XAMPP/xamppfiles/htdocs/html/talentspotting/application/models/Company.php : func=fetchAll
2019-02-04T12:52:55+02:00::DEBUG : TRACE 6 = ...n/modules/users/controllers/AdminController.php : line=/Applications/XAMPP/xamppfiles/htdocs/html/talentspotting/application/modules/users/controllers/AdminController.php : func=getLeaderboardsPagination
2019-02-04T12:52:55+02:00::DEBUG : TRACE 7 = ...lentspotting/library/Zend/Controller/Action.php : line=/Applications/XAMPP/xamppfiles/htdocs/html/talentspotting/library/Zend/Controller/Action.php : func=leaderboardsAction
2019-02-04T12:52:55+02:00::DEBUG : TRACE 8 = ...library/Zend/Controller/Dispatcher/Standard.php : line=/Applications/XAMPP/xamppfiles/htdocs/html/talentspotting/library/Zend/Controller/Dispatcher/Standard.php : func=dispatch
2019-02-04T12:52:55+02:00::DEBUG : TRACE 9 = ...alentspotting/library/Zend/Controller/Front.php : line=/Applications/XAMPP/xamppfiles/htdocs/html/talentspotting/library/Zend/Controller/Front.php : func=dispatch
2019-02-04T12:52:55+02:00::DEBUG : TRACE 10 = ...ibrary/Zend/Application/Bootstrap/Bootstrap.php : line=/Applications/XAMPP/xamppfiles/htdocs/html/talentspotting/library/Zend/Application/Bootstrap/Bootstrap.php : func=dispatch
2019-02-04T12:52:55+02:00::DEBUG : TRACE 11 = ...tml/talentspotting/library/Zend/Application.php : line=/Applications/XAMPP/xamppfiles/htdocs/html/talentspotting/library/Zend/Application.php : func=run
2019-02-04T12:52:55+02:00::DEBUG : TRACE 12 = ...les/htdocs/html/talentspotting/public/index.php : line=/Applications/XAMPP/xamppfiles/htdocs/html/talentspotting/public/index.php : func=run

2019-02-04T12:53:44+02:00::ERR :   Mysqli prepare error: Unknown column 'cad.action' in 'where clause'
2019-02-04T12:53:44+02:00::DEBUG : URL = http://lh.talentspotting.com/leaderboards
2019-02-04T12:53:44+02:00::DEBUG : HTTP_REFERER = http://lh.talentspotting.com/campaign-report?id=37
2019-02-04T12:53:44+02:00::DEBUG : USER AGENT = Mozilla/5.0 (Macintosh; Intel Mac OS X 10_13_5) AppleWebKit/537.36 (KHTML, like Gecko) Chrome/71.0.3578.98 Safari/537.36
2019-02-04T12:53:44+02:00::DEBUG : FILE = /Applications/XAMPP/xamppfiles/htdocs/html/talentspotting/library/WebApp/Db/Table.php :: line=63
2019-02-04T12:53:44+02:00::DEBUG : ZONE LANDING = users/admin/leaderboards
2019-02-04T12:53:44+02:00::DEBUG : CLASS/FUNCTION = Zend_Db_Adapter_Abstract -> fetchAll
2019-02-04T12:53:44+02:00::DEBUG : TRACE 0 = ...ml/talentspotting/library/Zend/Db/Statement.php : line=/Applications/XAMPP/xamppfiles/htdocs/html/talentspotting/library/Zend/Db/Statement.php : func=_prepare
2019-02-04T12:53:44+02:00::DEBUG : TRACE 1 = ...lentspotting/library/Zend/Db/Adapter/Mysqli.php : line=/Applications/XAMPP/xamppfiles/htdocs/html/talentspotting/library/Zend/Db/Adapter/Mysqli.php : func=__construct
2019-02-04T12:53:44+02:00::DEBUG : TRACE 2 = ...ntspotting/library/Zend/Db/Adapter/Abstract.php : line=/Applications/XAMPP/xamppfiles/htdocs/html/talentspotting/library/Zend/Db/Adapter/Abstract.php : func=prepare
2019-02-04T12:53:44+02:00::DEBUG : TRACE 3 = ...ntspotting/library/Zend/Db/Adapter/Abstract.php : line=/Applications/XAMPP/xamppfiles/htdocs/html/talentspotting/library/Zend/Db/Adapter/Abstract.php : func=query
2019-02-04T12:53:44+02:00::DEBUG : TRACE 4 = ...html/talentspotting/library/WebApp/Db/Table.php : line=/Applications/XAMPP/xamppfiles/htdocs/html/talentspotting/library/WebApp/Db/Table.php : func=fetchAll
2019-02-04T12:53:44+02:00::DEBUG : TRACE 5 = ...l/talentspotting/application/models/Company.php : line=/Applications/XAMPP/xamppfiles/htdocs/html/talentspotting/application/models/Company.php : func=fetchAll
2019-02-04T12:53:44+02:00::DEBUG : TRACE 6 = ...n/modules/users/controllers/AdminController.php : line=/Applications/XAMPP/xamppfiles/htdocs/html/talentspotting/application/modules/users/controllers/AdminController.php : func=getLeaderboardsPagination
2019-02-04T12:53:44+02:00::DEBUG : TRACE 7 = ...lentspotting/library/Zend/Controller/Action.php : line=/Applications/XAMPP/xamppfiles/htdocs/html/talentspotting/library/Zend/Controller/Action.php : func=leaderboardsAction
2019-02-04T12:53:44+02:00::DEBUG : TRACE 8 = ...library/Zend/Controller/Dispatcher/Standard.php : line=/Applications/XAMPP/xamppfiles/htdocs/html/talentspotting/library/Zend/Controller/Dispatcher/Standard.php : func=dispatch
2019-02-04T12:53:44+02:00::DEBUG : TRACE 9 = ...alentspotting/library/Zend/Controller/Front.php : line=/Applications/XAMPP/xamppfiles/htdocs/html/talentspotting/library/Zend/Controller/Front.php : func=dispatch
2019-02-04T12:53:44+02:00::DEBUG : TRACE 10 = ...ibrary/Zend/Application/Bootstrap/Bootstrap.php : line=/Applications/XAMPP/xamppfiles/htdocs/html/talentspotting/library/Zend/Application/Bootstrap/Bootstrap.php : func=dispatch
2019-02-04T12:53:44+02:00::DEBUG : TRACE 11 = ...tml/talentspotting/library/Zend/Application.php : line=/Applications/XAMPP/xamppfiles/htdocs/html/talentspotting/library/Zend/Application.php : func=run
2019-02-04T12:53:44+02:00::DEBUG : TRACE 12 = ...les/htdocs/html/talentspotting/public/index.php : line=/Applications/XAMPP/xamppfiles/htdocs/html/talentspotting/public/index.php : func=run

2019-02-04T12:54:31+02:00::ERR :   Mysqli prepare error: Unknown column 'cad.action' in 'where clause'
2019-02-04T12:54:31+02:00::DEBUG : URL = http://lh.talentspotting.com/leaderboards
2019-02-04T12:54:31+02:00::DEBUG : HTTP_REFERER = http://lh.talentspotting.com/campaign-report?id=37
2019-02-04T12:54:31+02:00::DEBUG : USER AGENT = Mozilla/5.0 (Macintosh; Intel Mac OS X 10_13_5) AppleWebKit/537.36 (KHTML, like Gecko) Chrome/71.0.3578.98 Safari/537.36
2019-02-04T12:54:31+02:00::DEBUG : FILE = /Applications/XAMPP/xamppfiles/htdocs/html/talentspotting/library/WebApp/Db/Table.php :: line=63
2019-02-04T12:54:31+02:00::DEBUG : ZONE LANDING = users/admin/leaderboards
2019-02-04T12:54:31+02:00::DEBUG : CLASS/FUNCTION = Zend_Db_Adapter_Abstract -> fetchAll
2019-02-04T12:54:31+02:00::DEBUG : TRACE 0 = ...ml/talentspotting/library/Zend/Db/Statement.php : line=/Applications/XAMPP/xamppfiles/htdocs/html/talentspotting/library/Zend/Db/Statement.php : func=_prepare
2019-02-04T12:54:31+02:00::DEBUG : TRACE 1 = ...lentspotting/library/Zend/Db/Adapter/Mysqli.php : line=/Applications/XAMPP/xamppfiles/htdocs/html/talentspotting/library/Zend/Db/Adapter/Mysqli.php : func=__construct
2019-02-04T12:54:31+02:00::DEBUG : TRACE 2 = ...ntspotting/library/Zend/Db/Adapter/Abstract.php : line=/Applications/XAMPP/xamppfiles/htdocs/html/talentspotting/library/Zend/Db/Adapter/Abstract.php : func=prepare
2019-02-04T12:54:31+02:00::DEBUG : TRACE 3 = ...ntspotting/library/Zend/Db/Adapter/Abstract.php : line=/Applications/XAMPP/xamppfiles/htdocs/html/talentspotting/library/Zend/Db/Adapter/Abstract.php : func=query
2019-02-04T12:54:31+02:00::DEBUG : TRACE 4 = ...html/talentspotting/library/WebApp/Db/Table.php : line=/Applications/XAMPP/xamppfiles/htdocs/html/talentspotting/library/WebApp/Db/Table.php : func=fetchAll
2019-02-04T12:54:31+02:00::DEBUG : TRACE 5 = ...l/talentspotting/application/models/Company.php : line=/Applications/XAMPP/xamppfiles/htdocs/html/talentspotting/application/models/Company.php : func=fetchAll
2019-02-04T12:54:31+02:00::DEBUG : TRACE 6 = ...n/modules/users/controllers/AdminController.php : line=/Applications/XAMPP/xamppfiles/htdocs/html/talentspotting/application/modules/users/controllers/AdminController.php : func=getLeaderboardsPagination
2019-02-04T12:54:31+02:00::DEBUG : TRACE 7 = ...lentspotting/library/Zend/Controller/Action.php : line=/Applications/XAMPP/xamppfiles/htdocs/html/talentspotting/library/Zend/Controller/Action.php : func=leaderboardsAction
2019-02-04T12:54:31+02:00::DEBUG : TRACE 8 = ...library/Zend/Controller/Dispatcher/Standard.php : line=/Applications/XAMPP/xamppfiles/htdocs/html/talentspotting/library/Zend/Controller/Dispatcher/Standard.php : func=dispatch
2019-02-04T12:54:31+02:00::DEBUG : TRACE 9 = ...alentspotting/library/Zend/Controller/Front.php : line=/Applications/XAMPP/xamppfiles/htdocs/html/talentspotting/library/Zend/Controller/Front.php : func=dispatch
2019-02-04T12:54:31+02:00::DEBUG : TRACE 10 = ...ibrary/Zend/Application/Bootstrap/Bootstrap.php : line=/Applications/XAMPP/xamppfiles/htdocs/html/talentspotting/library/Zend/Application/Bootstrap/Bootstrap.php : func=dispatch
2019-02-04T12:54:31+02:00::DEBUG : TRACE 11 = ...tml/talentspotting/library/Zend/Application.php : line=/Applications/XAMPP/xamppfiles/htdocs/html/talentspotting/library/Zend/Application.php : func=run
2019-02-04T12:54:31+02:00::DEBUG : TRACE 12 = ...les/htdocs/html/talentspotting/public/index.php : line=/Applications/XAMPP/xamppfiles/htdocs/html/talentspotting/public/index.php : func=run

2019-02-04T12:58:28+02:00::ERR :   Mysqli prepare error: Unknown column 'cad.action' in 'where clause'
2019-02-04T12:58:28+02:00::DEBUG : URL = http://lh.talentspotting.com/leaderboards
2019-02-04T12:58:28+02:00::DEBUG : HTTP_REFERER = http://lh.talentspotting.com/campaign-report?id=37
2019-02-04T12:58:28+02:00::DEBUG : USER AGENT = Mozilla/5.0 (Macintosh; Intel Mac OS X 10_13_5) AppleWebKit/537.36 (KHTML, like Gecko) Chrome/71.0.3578.98 Safari/537.36
2019-02-04T12:58:28+02:00::DEBUG : FILE = /Applications/XAMPP/xamppfiles/htdocs/html/talentspotting/library/WebApp/Db/Table.php :: line=63
2019-02-04T12:58:28+02:00::DEBUG : ZONE LANDING = users/admin/leaderboards
2019-02-04T12:58:28+02:00::DEBUG : CLASS/FUNCTION = Zend_Db_Adapter_Abstract -> fetchAll
2019-02-04T12:58:28+02:00::DEBUG : TRACE 0 = ...ml/talentspotting/library/Zend/Db/Statement.php : line=/Applications/XAMPP/xamppfiles/htdocs/html/talentspotting/library/Zend/Db/Statement.php : func=_prepare
2019-02-04T12:58:28+02:00::DEBUG : TRACE 1 = ...lentspotting/library/Zend/Db/Adapter/Mysqli.php : line=/Applications/XAMPP/xamppfiles/htdocs/html/talentspotting/library/Zend/Db/Adapter/Mysqli.php : func=__construct
2019-02-04T12:58:28+02:00::DEBUG : TRACE 2 = ...ntspotting/library/Zend/Db/Adapter/Abstract.php : line=/Applications/XAMPP/xamppfiles/htdocs/html/talentspotting/library/Zend/Db/Adapter/Abstract.php : func=prepare
2019-02-04T12:58:28+02:00::DEBUG : TRACE 3 = ...ntspotting/library/Zend/Db/Adapter/Abstract.php : line=/Applications/XAMPP/xamppfiles/htdocs/html/talentspotting/library/Zend/Db/Adapter/Abstract.php : func=query
2019-02-04T12:58:28+02:00::DEBUG : TRACE 4 = ...html/talentspotting/library/WebApp/Db/Table.php : line=/Applications/XAMPP/xamppfiles/htdocs/html/talentspotting/library/WebApp/Db/Table.php : func=fetchAll
2019-02-04T12:58:28+02:00::DEBUG : TRACE 5 = ...l/talentspotting/application/models/Company.php : line=/Applications/XAMPP/xamppfiles/htdocs/html/talentspotting/application/models/Company.php : func=fetchAll
2019-02-04T12:58:28+02:00::DEBUG : TRACE 6 = ...n/modules/users/controllers/AdminController.php : line=/Applications/XAMPP/xamppfiles/htdocs/html/talentspotting/application/modules/users/controllers/AdminController.php : func=getLeaderboardsPagination
2019-02-04T12:58:28+02:00::DEBUG : TRACE 7 = ...lentspotting/library/Zend/Controller/Action.php : line=/Applications/XAMPP/xamppfiles/htdocs/html/talentspotting/library/Zend/Controller/Action.php : func=leaderboardsAction
2019-02-04T12:58:28+02:00::DEBUG : TRACE 8 = ...library/Zend/Controller/Dispatcher/Standard.php : line=/Applications/XAMPP/xamppfiles/htdocs/html/talentspotting/library/Zend/Controller/Dispatcher/Standard.php : func=dispatch
2019-02-04T12:58:28+02:00::DEBUG : TRACE 9 = ...alentspotting/library/Zend/Controller/Front.php : line=/Applications/XAMPP/xamppfiles/htdocs/html/talentspotting/library/Zend/Controller/Front.php : func=dispatch
2019-02-04T12:58:28+02:00::DEBUG : TRACE 10 = ...ibrary/Zend/Application/Bootstrap/Bootstrap.php : line=/Applications/XAMPP/xamppfiles/htdocs/html/talentspotting/library/Zend/Application/Bootstrap/Bootstrap.php : func=dispatch
2019-02-04T12:58:28+02:00::DEBUG : TRACE 11 = ...tml/talentspotting/library/Zend/Application.php : line=/Applications/XAMPP/xamppfiles/htdocs/html/talentspotting/library/Zend/Application.php : func=run
2019-02-04T12:58:28+02:00::DEBUG : TRACE 12 = ...les/htdocs/html/talentspotting/public/index.php : line=/Applications/XAMPP/xamppfiles/htdocs/html/talentspotting/public/index.php : func=run

2019-02-04T12:59:16+02:00::ERR :   Mysqli prepare error: Unknown column 'cad.action' in 'where clause'
2019-02-04T12:59:16+02:00::DEBUG : URL = http://lh.talentspotting.com/leaderboards
2019-02-04T12:59:16+02:00::DEBUG : HTTP_REFERER = http://lh.talentspotting.com/campaign-report?id=37
2019-02-04T12:59:16+02:00::DEBUG : USER AGENT = Mozilla/5.0 (Macintosh; Intel Mac OS X 10_13_5) AppleWebKit/537.36 (KHTML, like Gecko) Chrome/71.0.3578.98 Safari/537.36
2019-02-04T12:59:16+02:00::DEBUG : FILE = /Applications/XAMPP/xamppfiles/htdocs/html/talentspotting/library/WebApp/Db/Table.php :: line=63
2019-02-04T12:59:16+02:00::DEBUG : ZONE LANDING = users/admin/leaderboards
2019-02-04T12:59:16+02:00::DEBUG : CLASS/FUNCTION = Zend_Db_Adapter_Abstract -> fetchAll
2019-02-04T12:59:16+02:00::DEBUG : TRACE 0 = ...ml/talentspotting/library/Zend/Db/Statement.php : line=/Applications/XAMPP/xamppfiles/htdocs/html/talentspotting/library/Zend/Db/Statement.php : func=_prepare
2019-02-04T12:59:16+02:00::DEBUG : TRACE 1 = ...lentspotting/library/Zend/Db/Adapter/Mysqli.php : line=/Applications/XAMPP/xamppfiles/htdocs/html/talentspotting/library/Zend/Db/Adapter/Mysqli.php : func=__construct
2019-02-04T12:59:16+02:00::DEBUG : TRACE 2 = ...ntspotting/library/Zend/Db/Adapter/Abstract.php : line=/Applications/XAMPP/xamppfiles/htdocs/html/talentspotting/library/Zend/Db/Adapter/Abstract.php : func=prepare
2019-02-04T12:59:16+02:00::DEBUG : TRACE 3 = ...ntspotting/library/Zend/Db/Adapter/Abstract.php : line=/Applications/XAMPP/xamppfiles/htdocs/html/talentspotting/library/Zend/Db/Adapter/Abstract.php : func=query
2019-02-04T12:59:16+02:00::DEBUG : TRACE 4 = ...html/talentspotting/library/WebApp/Db/Table.php : line=/Applications/XAMPP/xamppfiles/htdocs/html/talentspotting/library/WebApp/Db/Table.php : func=fetchAll
2019-02-04T12:59:16+02:00::DEBUG : TRACE 5 = ...l/talentspotting/application/models/Company.php : line=/Applications/XAMPP/xamppfiles/htdocs/html/talentspotting/application/models/Company.php : func=fetchAll
2019-02-04T12:59:16+02:00::DEBUG : TRACE 6 = ...n/modules/users/controllers/AdminController.php : line=/Applications/XAMPP/xamppfiles/htdocs/html/talentspotting/application/modules/users/controllers/AdminController.php : func=getLeaderboardsPagination
2019-02-04T12:59:16+02:00::DEBUG : TRACE 7 = ...lentspotting/library/Zend/Controller/Action.php : line=/Applications/XAMPP/xamppfiles/htdocs/html/talentspotting/library/Zend/Controller/Action.php : func=leaderboardsAction
2019-02-04T12:59:16+02:00::DEBUG : TRACE 8 = ...library/Zend/Controller/Dispatcher/Standard.php : line=/Applications/XAMPP/xamppfiles/htdocs/html/talentspotting/library/Zend/Controller/Dispatcher/Standard.php : func=dispatch
2019-02-04T12:59:16+02:00::DEBUG : TRACE 9 = ...alentspotting/library/Zend/Controller/Front.php : line=/Applications/XAMPP/xamppfiles/htdocs/html/talentspotting/library/Zend/Controller/Front.php : func=dispatch
2019-02-04T12:59:16+02:00::DEBUG : TRACE 10 = ...ibrary/Zend/Application/Bootstrap/Bootstrap.php : line=/Applications/XAMPP/xamppfiles/htdocs/html/talentspotting/library/Zend/Application/Bootstrap/Bootstrap.php : func=dispatch
2019-02-04T12:59:16+02:00::DEBUG : TRACE 11 = ...tml/talentspotting/library/Zend/Application.php : line=/Applications/XAMPP/xamppfiles/htdocs/html/talentspotting/library/Zend/Application.php : func=run
2019-02-04T12:59:16+02:00::DEBUG : TRACE 12 = ...les/htdocs/html/talentspotting/public/index.php : line=/Applications/XAMPP/xamppfiles/htdocs/html/talentspotting/public/index.php : func=run

2019-02-04T13:30:37+02:00::ERR :   Mysqli prepare error: Table 'test.gamifications_points' doesn't exist
2019-02-04T13:30:37+02:00::DEBUG : URL = http://lh.talentspotting.com/leaderboards
2019-02-04T13:30:37+02:00::DEBUG : HTTP_REFERER = http://lh.talentspotting.com/view-campaigns
2019-02-04T13:30:37+02:00::DEBUG : USER AGENT = Mozilla/5.0 (Macintosh; Intel Mac OS X 10_13_5) AppleWebKit/537.36 (KHTML, like Gecko) Chrome/71.0.3578.98 Safari/537.36
2019-02-04T13:30:37+02:00::DEBUG : FILE = /Applications/XAMPP/xamppfiles/htdocs/html/talentspotting/library/WebApp/Db/Table.php :: line=79
2019-02-04T13:30:37+02:00::DEBUG : ZONE LANDING = users/admin/leaderboards
2019-02-04T13:30:37+02:00::DEBUG : CLASS/FUNCTION = Zend_Db_Adapter_Abstract -> fetchRow
2019-02-04T13:30:37+02:00::DEBUG : TRACE 0 = ...ml/talentspotting/library/Zend/Db/Statement.php : line=/Applications/XAMPP/xamppfiles/htdocs/html/talentspotting/library/Zend/Db/Statement.php : func=_prepare
2019-02-04T13:30:37+02:00::DEBUG : TRACE 1 = ...lentspotting/library/Zend/Db/Adapter/Mysqli.php : line=/Applications/XAMPP/xamppfiles/htdocs/html/talentspotting/library/Zend/Db/Adapter/Mysqli.php : func=__construct
2019-02-04T13:30:37+02:00::DEBUG : TRACE 2 = ...ntspotting/library/Zend/Db/Adapter/Abstract.php : line=/Applications/XAMPP/xamppfiles/htdocs/html/talentspotting/library/Zend/Db/Adapter/Abstract.php : func=prepare
2019-02-04T13:30:37+02:00::DEBUG : TRACE 3 = ...ntspotting/library/Zend/Db/Adapter/Abstract.php : line=/Applications/XAMPP/xamppfiles/htdocs/html/talentspotting/library/Zend/Db/Adapter/Abstract.php : func=query
2019-02-04T13:30:37+02:00::DEBUG : TRACE 4 = ...html/talentspotting/library/WebApp/Db/Table.php : line=/Applications/XAMPP/xamppfiles/htdocs/html/talentspotting/library/WebApp/Db/Table.php : func=fetchRow
2019-02-04T13:30:37+02:00::DEBUG : TRACE 5 = ...l/talentspotting/application/models/Company.php : line=/Applications/XAMPP/xamppfiles/htdocs/html/talentspotting/application/models/Company.php : func=fetchRow
2019-02-04T13:30:37+02:00::DEBUG : TRACE 6 = ...n/modules/users/controllers/AdminController.php : line=/Applications/XAMPP/xamppfiles/htdocs/html/talentspotting/application/modules/users/controllers/AdminController.php : func=collectGamificationInfo
2019-02-04T13:30:37+02:00::DEBUG : TRACE 7 = ...lentspotting/library/Zend/Controller/Action.php : line=/Applications/XAMPP/xamppfiles/htdocs/html/talentspotting/library/Zend/Controller/Action.php : func=leaderboardsAction
2019-02-04T13:30:37+02:00::DEBUG : TRACE 8 = ...library/Zend/Controller/Dispatcher/Standard.php : line=/Applications/XAMPP/xamppfiles/htdocs/html/talentspotting/library/Zend/Controller/Dispatcher/Standard.php : func=dispatch
2019-02-04T13:30:37+02:00::DEBUG : TRACE 9 = ...alentspotting/library/Zend/Controller/Front.php : line=/Applications/XAMPP/xamppfiles/htdocs/html/talentspotting/library/Zend/Controller/Front.php : func=dispatch
2019-02-04T13:30:37+02:00::DEBUG : TRACE 10 = ...ibrary/Zend/Application/Bootstrap/Bootstrap.php : line=/Applications/XAMPP/xamppfiles/htdocs/html/talentspotting/library/Zend/Application/Bootstrap/Bootstrap.php : func=dispatch
2019-02-04T13:30:37+02:00::DEBUG : TRACE 11 = ...tml/talentspotting/library/Zend/Application.php : line=/Applications/XAMPP/xamppfiles/htdocs/html/talentspotting/library/Zend/Application.php : func=run
2019-02-04T13:30:37+02:00::DEBUG : TRACE 12 = ...les/htdocs/html/talentspotting/public/index.php : line=/Applications/XAMPP/xamppfiles/htdocs/html/talentspotting/public/index.php : func=run

