2019-03-15T08:13:17+02:00::ERR :   Mysqli prepare error: Unknown column 'j.title' in 'order clause'
2019-03-15T08:13:17+02:00::DEBUG : URL = http://lh.talentspotting.com/ajax/index/get-jobs
2019-03-15T08:13:17+02:00::DEBUG : HTTP_REFERER = 
2019-03-15T08:13:17+02:00::DEBUG : USER AGENT = Mozilla/5.0 (Macintosh; Intel Mac OS X 10_13_5) AppleWebKit/537.36 (KHTML, like Gecko) Chrome/72.0.3626.119 Safari/537.36
2019-03-15T08:13:17+02:00::DEBUG : FILE = /Applications/XAMPP/xamppfiles/htdocs/html/talentspotting/library/WebApp/Db/Table.php :: line=63
2019-03-15T08:13:17+02:00::DEBUG : ZONE LANDING = ajax/index/get-jobs
2019-03-15T08:13:17+02:00::DEBUG : CLASS/FUNCTION = Zend_Db_Adapter_Abstract -> fetchAll
2019-03-15T08:13:17+02:00::DEBUG : TRACE 0 = ...ml/talentspotting/library/Zend/Db/Statement.php : line=/Applications/XAMPP/xamppfiles/htdocs/html/talentspotting/library/Zend/Db/Statement.php : func=_prepare
2019-03-15T08:13:17+02:00::DEBUG : TRACE 1 = ...lentspotting/library/Zend/Db/Adapter/Mysqli.php : line=/Applications/XAMPP/xamppfiles/htdocs/html/talentspotting/library/Zend/Db/Adapter/Mysqli.php : func=__construct
2019-03-15T08:13:17+02:00::DEBUG : TRACE 2 = ...ntspotting/library/Zend/Db/Adapter/Abstract.php : line=/Applications/XAMPP/xamppfiles/htdocs/html/talentspotting/library/Zend/Db/Adapter/Abstract.php : func=prepare
2019-03-15T08:13:17+02:00::DEBUG : TRACE 3 = ...ntspotting/library/Zend/Db/Adapter/Abstract.php : line=/Applications/XAMPP/xamppfiles/htdocs/html/talentspotting/library/Zend/Db/Adapter/Abstract.php : func=query
2019-03-15T08:13:17+02:00::DEBUG : TRACE 4 = ...html/talentspotting/library/WebApp/Db/Table.php : line=/Applications/XAMPP/xamppfiles/htdocs/html/talentspotting/library/WebApp/Db/Table.php : func=fetchAll
2019-03-15T08:13:17+02:00::DEBUG : TRACE 5 = ...html/talentspotting/application/models/Jobs.php : line=/Applications/XAMPP/xamppfiles/htdocs/html/talentspotting/application/models/Jobs.php : func=fetchAll
2019-03-15T08:13:17+02:00::DEBUG : TRACE 6 = ...on/modules/ajax/controllers/IndexController.php : line=/Applications/XAMPP/xamppfiles/htdocs/html/talentspotting/application/modules/ajax/controllers/IndexController.php : func=getActiveJobs
2019-03-15T08:13:17+02:00::DEBUG : TRACE 7 = ...lentspotting/library/Zend/Controller/Action.php : line=/Applications/XAMPP/xamppfiles/htdocs/html/talentspotting/library/Zend/Controller/Action.php : func=getJobsAction
2019-03-15T08:13:17+02:00::DEBUG : TRACE 8 = ...library/Zend/Controller/Dispatcher/Standard.php : line=/Applications/XAMPP/xamppfiles/htdocs/html/talentspotting/library/Zend/Controller/Dispatcher/Standard.php : func=dispatch
2019-03-15T08:13:17+02:00::DEBUG : TRACE 9 = ...alentspotting/library/Zend/Controller/Front.php : line=/Applications/XAMPP/xamppfiles/htdocs/html/talentspotting/library/Zend/Controller/Front.php : func=dispatch
2019-03-15T08:13:17+02:00::DEBUG : TRACE 10 = ...ibrary/Zend/Application/Bootstrap/Bootstrap.php : line=/Applications/XAMPP/xamppfiles/htdocs/html/talentspotting/library/Zend/Application/Bootstrap/Bootstrap.php : func=dispatch
2019-03-15T08:13:17+02:00::DEBUG : TRACE 11 = ...tml/talentspotting/library/Zend/Application.php : line=/Applications/XAMPP/xamppfiles/htdocs/html/talentspotting/library/Zend/Application.php : func=run
2019-03-15T08:13:17+02:00::DEBUG : TRACE 12 = ...les/htdocs/html/talentspotting/public/index.php : line=/Applications/XAMPP/xamppfiles/htdocs/html/talentspotting/public/index.php : func=run

2019-03-15T09:14:02+02:00::ERR :   Mysqli statement execute error : Column 'value' cannot be null
2019-03-15T09:14:02+02:00::DEBUG : URL = http://lh.talentspotting.com/fingerprint
2019-03-15T09:14:02+02:00::DEBUG : HTTP_REFERER = http://lh.talentspotting.com/jobs/1270/design-leader/lh?track=2cc0b255c4894762e17aad3059ce2dcb&ts=15526338035c8b4fcbdde88&source=8
2019-03-15T09:14:02+02:00::DEBUG : USER AGENT = Mozilla/5.0 (Macintosh; Intel Mac OS X 10_13_5) AppleWebKit/537.36 (KHTML, like Gecko) Chrome/72.0.3626.119 Safari/537.36
2019-03-15T09:14:02+02:00::DEBUG : FILE = /Applications/XAMPP/xamppfiles/htdocs/html/talentspotting/library/WebApp/Db/Table.php :: line=127
2019-03-15T09:14:02+02:00::DEBUG : ZONE LANDING = jobs/index/finger
2019-03-15T09:14:02+02:00::DEBUG : CLASS/FUNCTION = Zend_Db_Adapter_Abstract -> insert
2019-03-15T09:14:02+02:00::DEBUG : TRACE 0 = ...ml/talentspotting/library/Zend/Db/Statement.php : line=/Applications/XAMPP/xamppfiles/htdocs/html/talentspotting/library/Zend/Db/Statement.php : func=_execute
2019-03-15T09:14:02+02:00::DEBUG : TRACE 1 = ...ntspotting/library/Zend/Db/Adapter/Abstract.php : line=/Applications/XAMPP/xamppfiles/htdocs/html/talentspotting/library/Zend/Db/Adapter/Abstract.php : func=execute
2019-03-15T09:14:02+02:00::DEBUG : TRACE 2 = ...ntspotting/library/Zend/Db/Adapter/Abstract.php : line=/Applications/XAMPP/xamppfiles/htdocs/html/talentspotting/library/Zend/Db/Adapter/Abstract.php : func=query
2019-03-15T09:14:02+02:00::DEBUG : TRACE 3 = ...html/talentspotting/library/WebApp/Db/Table.php : line=/Applications/XAMPP/xamppfiles/htdocs/html/talentspotting/library/WebApp/Db/Table.php : func=insert
2019-03-15T09:14:02+02:00::DEBUG : TRACE 4 = ...tml/talentspotting/application/models/Stats.php : line=/Applications/XAMPP/xamppfiles/htdocs/html/talentspotting/application/models/Stats.php : func=insert
2019-03-15T09:14:02+02:00::DEBUG : TRACE 5 = ...on/modules/jobs/controllers/IndexController.php : line=/Applications/XAMPP/xamppfiles/htdocs/html/talentspotting/application/modules/jobs/controllers/IndexController.php : func=saveCampaignReport
2019-03-15T09:14:02+02:00::DEBUG : TRACE 6 = ...lentspotting/library/Zend/Controller/Action.php : line=/Applications/XAMPP/xamppfiles/htdocs/html/talentspotting/library/Zend/Controller/Action.php : func=fingerAction
2019-03-15T09:14:02+02:00::DEBUG : TRACE 7 = ...library/Zend/Controller/Dispatcher/Standard.php : line=/Applications/XAMPP/xamppfiles/htdocs/html/talentspotting/library/Zend/Controller/Dispatcher/Standard.php : func=dispatch
2019-03-15T09:14:02+02:00::DEBUG : TRACE 8 = ...alentspotting/library/Zend/Controller/Front.php : line=/Applications/XAMPP/xamppfiles/htdocs/html/talentspotting/library/Zend/Controller/Front.php : func=dispatch
2019-03-15T09:14:02+02:00::DEBUG : TRACE 9 = ...ibrary/Zend/Application/Bootstrap/Bootstrap.php : line=/Applications/XAMPP/xamppfiles/htdocs/html/talentspotting/library/Zend/Application/Bootstrap/Bootstrap.php : func=dispatch
2019-03-15T09:14:02+02:00::DEBUG : TRACE 10 = ...tml/talentspotting/library/Zend/Application.php : line=/Applications/XAMPP/xamppfiles/htdocs/html/talentspotting/library/Zend/Application.php : func=run
2019-03-15T09:14:02+02:00::DEBUG : TRACE 11 = ...les/htdocs/html/talentspotting/public/index.php : line=/Applications/XAMPP/xamppfiles/htdocs/html/talentspotting/public/index.php : func=run

2019-03-15T14:14:32+02:00::ERR :   Operation timed out
2019-03-15T14:14:32+02:00::DEBUG : URL = http://lh.talentspotting.com/users/index/upload-process
2019-03-15T14:14:32+02:00::DEBUG : HTTP_REFERER = http://lh.talentspotting.com/jobs/1189/senior-internal-auditor/lh?track=2cc0b255c4894762e17aad3059ce2dcb&ts=15526519885c8b96d4c46b6&source=12
2019-03-15T14:14:32+02:00::DEBUG : USER AGENT = Mozilla/5.0 (Macintosh; Intel Mac OS X 10_13_5) AppleWebKit/537.36 (KHTML, like Gecko) Chrome/72.0.3626.119 Safari/537.36
2019-03-15T14:14:32+02:00::DEBUG : FILE = /Applications/XAMPP/xamppfiles/htdocs/html/talentspotting/library/WebApp/Mail.php :: line=39
2019-03-15T14:14:32+02:00::DEBUG : ZONE LANDING = users/index/upload-process
2019-03-15T14:14:32+02:00::DEBUG : CLASS/FUNCTION = Zend_Mail -> send
2019-03-15T14:14:32+02:00::DEBUG : TRACE 0 = ...entspotting/library/Zend/Mail/Protocol/Smtp.php : line=/Applications/XAMPP/xamppfiles/htdocs/html/talentspotting/library/Zend/Mail/Protocol/Smtp.php : func=_connect
2019-03-15T14:14:32+02:00::DEBUG : TRACE 1 = ...ntspotting/library/Zend/Mail/Transport/Smtp.php : line=/Applications/XAMPP/xamppfiles/htdocs/html/talentspotting/library/Zend/Mail/Transport/Smtp.php : func=connect
2019-03-15T14:14:32+02:00::DEBUG : TRACE 2 = ...otting/library/Zend/Mail/Transport/Abstract.php : line=/Applications/XAMPP/xamppfiles/htdocs/html/talentspotting/library/Zend/Mail/Transport/Abstract.php : func=_sendMail
2019-03-15T14:14:32+02:00::DEBUG : TRACE 3 = ...tdocs/html/talentspotting/library/Zend/Mail.php : line=/Applications/XAMPP/xamppfiles/htdocs/html/talentspotting/library/Zend/Mail.php : func=send
2019-03-15T14:14:32+02:00::DEBUG : TRACE 4 = ...ocs/html/talentspotting/library/WebApp/Mail.php : line=/Applications/XAMPP/xamppfiles/htdocs/html/talentspotting/library/WebApp/Mail.php : func=send
2019-03-15T14:14:32+02:00::DEBUG : TRACE 5 = ...otting/application/Domain/User/UserAbstract.php : line=/Applications/XAMPP/xamppfiles/htdocs/html/talentspotting/application/Domain/User/UserAbstract.php : func=send
2019-03-15T14:14:32+02:00::DEBUG : TRACE 6 = ...otting/application/Domain/User/UserAbstract.php : line=/Applications/XAMPP/xamppfiles/htdocs/html/talentspotting/application/Domain/User/UserAbstract.php : func=sendMail
2019-03-15T14:14:32+02:00::DEBUG : TRACE 7 = ...n/modules/users/controllers/IndexController.php : line=/Applications/XAMPP/xamppfiles/htdocs/html/talentspotting/application/modules/users/controllers/IndexController.php : func=uploadUserCvEmail
2019-03-15T14:14:32+02:00::DEBUG : TRACE 8 = ...lentspotting/library/Zend/Controller/Action.php : line=/Applications/XAMPP/xamppfiles/htdocs/html/talentspotting/library/Zend/Controller/Action.php : func=uploadProcessAction
2019-03-15T14:14:32+02:00::DEBUG : TRACE 9 = ...library/Zend/Controller/Dispatcher/Standard.php : line=/Applications/XAMPP/xamppfiles/htdocs/html/talentspotting/library/Zend/Controller/Dispatcher/Standard.php : func=dispatch
2019-03-15T14:14:32+02:00::DEBUG : TRACE 10 = ...alentspotting/library/Zend/Controller/Front.php : line=/Applications/XAMPP/xamppfiles/htdocs/html/talentspotting/library/Zend/Controller/Front.php : func=dispatch
2019-03-15T14:14:32+02:00::DEBUG : TRACE 11 = ...ibrary/Zend/Application/Bootstrap/Bootstrap.php : line=/Applications/XAMPP/xamppfiles/htdocs/html/talentspotting/library/Zend/Application/Bootstrap/Bootstrap.php : func=dispatch
2019-03-15T14:14:32+02:00::DEBUG : TRACE 12 = ...tml/talentspotting/library/Zend/Application.php : line=/Applications/XAMPP/xamppfiles/htdocs/html/talentspotting/library/Zend/Application.php : func=run
2019-03-15T14:14:32+02:00::DEBUG : TRACE 13 = ...les/htdocs/html/talentspotting/public/index.php : line=/Applications/XAMPP/xamppfiles/htdocs/html/talentspotting/public/index.php : func=run

