2019-02-12T12:17:46+02:00::ERR :   You don't have enough permissions to access this page.
2019-02-12T12:17:46+02:00::DEBUG : URL = http://lh.talentspotting.com/campaigns/admin/save
2019-02-12T12:17:46+02:00::DEBUG : HTTP_REFERER = 
2019-02-12T12:17:46+02:00::DEBUG : USER AGENT = Mozilla/5.0 (Macintosh; Intel Mac OS X 10_13_5) AppleWebKit/537.36 (KHTML, like Gecko) Chrome/71.0.3578.98 Safari/537.36
2019-02-12T12:17:46+02:00::DEBUG : FILE = /Applications/XAMPP/xamppfiles/htdocs/html/talentspotting/application/plugins/Acl.php :: line=31
2019-02-12T12:17:46+02:00::DEBUG : ZONE LANDING = campaigns/admin/save
2019-02-12T12:17:46+02:00::DEBUG : CLASS/FUNCTION = plugins_Acl -> _checkPermisions
2019-02-12T12:17:46+02:00::DEBUG : TRACE 0 = ...html/talentspotting/application/plugins/Acl.php : line=/Applications/XAMPP/xamppfiles/htdocs/html/talentspotting/application/plugins/Acl.php : func=_checkPermisions
2019-02-12T12:17:46+02:00::DEBUG : TRACE 1 = ...tting/library/Zend/Controller/Plugin/Broker.php : line=/Applications/XAMPP/xamppfiles/htdocs/html/talentspotting/library/Zend/Controller/Plugin/Broker.php : func=preDispatch
2019-02-12T12:17:46+02:00::DEBUG : TRACE 2 = ...alentspotting/library/Zend/Controller/Front.php : line=/Applications/XAMPP/xamppfiles/htdocs/html/talentspotting/library/Zend/Controller/Front.php : func=preDispatch
2019-02-12T12:17:46+02:00::DEBUG : TRACE 3 = ...ibrary/Zend/Application/Bootstrap/Bootstrap.php : line=/Applications/XAMPP/xamppfiles/htdocs/html/talentspotting/library/Zend/Application/Bootstrap/Bootstrap.php : func=dispatch
2019-02-12T12:17:46+02:00::DEBUG : TRACE 4 = ...tml/talentspotting/library/Zend/Application.php : line=/Applications/XAMPP/xamppfiles/htdocs/html/talentspotting/library/Zend/Application.php : func=run
2019-02-12T12:17:46+02:00::DEBUG : TRACE 5 = ...les/htdocs/html/talentspotting/public/index.php : line=/Applications/XAMPP/xamppfiles/htdocs/html/talentspotting/public/index.php : func=run

2019-02-12T12:18:11+02:00::ERR :   You don't have enough permissions to access this page.
2019-02-12T12:18:11+02:00::DEBUG : URL = http://lh.talentspotting.com/add-campaign
2019-02-12T12:18:11+02:00::DEBUG : HTTP_REFERER = http://lh.talentspotting.com/view-campaigns
2019-02-12T12:18:11+02:00::DEBUG : USER AGENT = Mozilla/5.0 (Macintosh; Intel Mac OS X 10_13_5) AppleWebKit/537.36 (KHTML, like Gecko) Chrome/71.0.3578.98 Safari/537.36
2019-02-12T12:18:11+02:00::DEBUG : FILE = /Applications/XAMPP/xamppfiles/htdocs/html/talentspotting/application/plugins/Acl.php :: line=31
2019-02-12T12:18:11+02:00::DEBUG : ZONE LANDING = campaigns/admin/add-campaign
2019-02-12T12:18:11+02:00::DEBUG : CLASS/FUNCTION = plugins_Acl -> _checkPermisions
2019-02-12T12:18:11+02:00::DEBUG : TRACE 0 = ...html/talentspotting/application/plugins/Acl.php : line=/Applications/XAMPP/xamppfiles/htdocs/html/talentspotting/application/plugins/Acl.php : func=_checkPermisions
2019-02-12T12:18:11+02:00::DEBUG : TRACE 1 = ...tting/library/Zend/Controller/Plugin/Broker.php : line=/Applications/XAMPP/xamppfiles/htdocs/html/talentspotting/library/Zend/Controller/Plugin/Broker.php : func=preDispatch
2019-02-12T12:18:11+02:00::DEBUG : TRACE 2 = ...alentspotting/library/Zend/Controller/Front.php : line=/Applications/XAMPP/xamppfiles/htdocs/html/talentspotting/library/Zend/Controller/Front.php : func=preDispatch
2019-02-12T12:18:11+02:00::DEBUG : TRACE 3 = ...ibrary/Zend/Application/Bootstrap/Bootstrap.php : line=/Applications/XAMPP/xamppfiles/htdocs/html/talentspotting/library/Zend/Application/Bootstrap/Bootstrap.php : func=dispatch
2019-02-12T12:18:11+02:00::DEBUG : TRACE 4 = ...tml/talentspotting/library/Zend/Application.php : line=/Applications/XAMPP/xamppfiles/htdocs/html/talentspotting/library/Zend/Application.php : func=run
2019-02-12T12:18:11+02:00::DEBUG : TRACE 5 = ...les/htdocs/html/talentspotting/public/index.php : line=/Applications/XAMPP/xamppfiles/htdocs/html/talentspotting/public/index.php : func=run

2019-02-12T12:21:08+02:00::ERR :   You don't have enough permissions to access this page.
2019-02-12T12:21:08+02:00::DEBUG : URL = http://lh.talentspotting.com/campaigns/admin/save
2019-02-12T12:21:08+02:00::DEBUG : HTTP_REFERER = 
2019-02-12T12:21:08+02:00::DEBUG : USER AGENT = Mozilla/5.0 (Macintosh; Intel Mac OS X 10_13_5) AppleWebKit/537.36 (KHTML, like Gecko) Chrome/71.0.3578.98 Safari/537.36
2019-02-12T12:21:08+02:00::DEBUG : FILE = /Applications/XAMPP/xamppfiles/htdocs/html/talentspotting/application/plugins/Acl.php :: line=31
2019-02-12T12:21:08+02:00::DEBUG : ZONE LANDING = campaigns/admin/save
2019-02-12T12:21:08+02:00::DEBUG : CLASS/FUNCTION = plugins_Acl -> _checkPermisions
2019-02-12T12:21:08+02:00::DEBUG : TRACE 0 = ...html/talentspotting/application/plugins/Acl.php : line=/Applications/XAMPP/xamppfiles/htdocs/html/talentspotting/application/plugins/Acl.php : func=_checkPermisions
2019-02-12T12:21:08+02:00::DEBUG : TRACE 1 = ...tting/library/Zend/Controller/Plugin/Broker.php : line=/Applications/XAMPP/xamppfiles/htdocs/html/talentspotting/library/Zend/Controller/Plugin/Broker.php : func=preDispatch
2019-02-12T12:21:08+02:00::DEBUG : TRACE 2 = ...alentspotting/library/Zend/Controller/Front.php : line=/Applications/XAMPP/xamppfiles/htdocs/html/talentspotting/library/Zend/Controller/Front.php : func=preDispatch
2019-02-12T12:21:08+02:00::DEBUG : TRACE 3 = ...ibrary/Zend/Application/Bootstrap/Bootstrap.php : line=/Applications/XAMPP/xamppfiles/htdocs/html/talentspotting/library/Zend/Application/Bootstrap/Bootstrap.php : func=dispatch
2019-02-12T12:21:08+02:00::DEBUG : TRACE 4 = ...tml/talentspotting/library/Zend/Application.php : line=/Applications/XAMPP/xamppfiles/htdocs/html/talentspotting/library/Zend/Application.php : func=run
2019-02-12T12:21:08+02:00::DEBUG : TRACE 5 = ...les/htdocs/html/talentspotting/public/index.php : line=/Applications/XAMPP/xamppfiles/htdocs/html/talentspotting/public/index.php : func=run

2019-02-12T12:21:20+02:00::ERR :   You don't have enough permissions to access this page.
2019-02-12T12:21:20+02:00::DEBUG : URL = http://lh.talentspotting.com/campaigns/admin/save
2019-02-12T12:21:20+02:00::DEBUG : HTTP_REFERER = 
2019-02-12T12:21:20+02:00::DEBUG : USER AGENT = Mozilla/5.0 (Macintosh; Intel Mac OS X 10_13_5) AppleWebKit/537.36 (KHTML, like Gecko) Chrome/71.0.3578.98 Safari/537.36
2019-02-12T12:21:20+02:00::DEBUG : FILE = /Applications/XAMPP/xamppfiles/htdocs/html/talentspotting/application/plugins/Acl.php :: line=31
2019-02-12T12:21:20+02:00::DEBUG : ZONE LANDING = campaigns/admin/save
2019-02-12T12:21:20+02:00::DEBUG : CLASS/FUNCTION = plugins_Acl -> _checkPermisions
2019-02-12T12:21:20+02:00::DEBUG : TRACE 0 = ...html/talentspotting/application/plugins/Acl.php : line=/Applications/XAMPP/xamppfiles/htdocs/html/talentspotting/application/plugins/Acl.php : func=_checkPermisions
2019-02-12T12:21:20+02:00::DEBUG : TRACE 1 = ...tting/library/Zend/Controller/Plugin/Broker.php : line=/Applications/XAMPP/xamppfiles/htdocs/html/talentspotting/library/Zend/Controller/Plugin/Broker.php : func=preDispatch
2019-02-12T12:21:20+02:00::DEBUG : TRACE 2 = ...alentspotting/library/Zend/Controller/Front.php : line=/Applications/XAMPP/xamppfiles/htdocs/html/talentspotting/library/Zend/Controller/Front.php : func=preDispatch
2019-02-12T12:21:20+02:00::DEBUG : TRACE 3 = ...ibrary/Zend/Application/Bootstrap/Bootstrap.php : line=/Applications/XAMPP/xamppfiles/htdocs/html/talentspotting/library/Zend/Application/Bootstrap/Bootstrap.php : func=dispatch
2019-02-12T12:21:20+02:00::DEBUG : TRACE 4 = ...tml/talentspotting/library/Zend/Application.php : line=/Applications/XAMPP/xamppfiles/htdocs/html/talentspotting/library/Zend/Application.php : func=run
2019-02-12T12:21:20+02:00::DEBUG : TRACE 5 = ...les/htdocs/html/talentspotting/public/index.php : line=/Applications/XAMPP/xamppfiles/htdocs/html/talentspotting/public/index.php : func=run

2019-02-12T12:21:25+02:00::ERR :   You don't have enough permissions to access this page.
2019-02-12T12:21:25+02:00::DEBUG : URL = http://lh.talentspotting.com/campaigns/admin/save
2019-02-12T12:21:25+02:00::DEBUG : HTTP_REFERER = 
2019-02-12T12:21:25+02:00::DEBUG : USER AGENT = Mozilla/5.0 (Macintosh; Intel Mac OS X 10_13_5) AppleWebKit/537.36 (KHTML, like Gecko) Chrome/71.0.3578.98 Safari/537.36
2019-02-12T12:21:25+02:00::DEBUG : FILE = /Applications/XAMPP/xamppfiles/htdocs/html/talentspotting/application/plugins/Acl.php :: line=31
2019-02-12T12:21:25+02:00::DEBUG : ZONE LANDING = campaigns/admin/save
2019-02-12T12:21:25+02:00::DEBUG : CLASS/FUNCTION = plugins_Acl -> _checkPermisions
2019-02-12T12:21:25+02:00::DEBUG : TRACE 0 = ...html/talentspotting/application/plugins/Acl.php : line=/Applications/XAMPP/xamppfiles/htdocs/html/talentspotting/application/plugins/Acl.php : func=_checkPermisions
2019-02-12T12:21:25+02:00::DEBUG : TRACE 1 = ...tting/library/Zend/Controller/Plugin/Broker.php : line=/Applications/XAMPP/xamppfiles/htdocs/html/talentspotting/library/Zend/Controller/Plugin/Broker.php : func=preDispatch
2019-02-12T12:21:25+02:00::DEBUG : TRACE 2 = ...alentspotting/library/Zend/Controller/Front.php : line=/Applications/XAMPP/xamppfiles/htdocs/html/talentspotting/library/Zend/Controller/Front.php : func=preDispatch
2019-02-12T12:21:25+02:00::DEBUG : TRACE 3 = ...ibrary/Zend/Application/Bootstrap/Bootstrap.php : line=/Applications/XAMPP/xamppfiles/htdocs/html/talentspotting/library/Zend/Application/Bootstrap/Bootstrap.php : func=dispatch
2019-02-12T12:21:25+02:00::DEBUG : TRACE 4 = ...tml/talentspotting/library/Zend/Application.php : line=/Applications/XAMPP/xamppfiles/htdocs/html/talentspotting/library/Zend/Application.php : func=run
2019-02-12T12:21:25+02:00::DEBUG : TRACE 5 = ...les/htdocs/html/talentspotting/public/index.php : line=/Applications/XAMPP/xamppfiles/htdocs/html/talentspotting/public/index.php : func=run

2019-02-12T12:21:36+02:00::ERR :   You don't have enough permissions to access this page.
2019-02-12T12:21:36+02:00::DEBUG : URL = http://lh.talentspotting.com/campaigns/admin/save
2019-02-12T12:21:36+02:00::DEBUG : HTTP_REFERER = 
2019-02-12T12:21:36+02:00::DEBUG : USER AGENT = Mozilla/5.0 (Macintosh; Intel Mac OS X 10_13_5) AppleWebKit/537.36 (KHTML, like Gecko) Chrome/71.0.3578.98 Safari/537.36
2019-02-12T12:21:36+02:00::DEBUG : FILE = /Applications/XAMPP/xamppfiles/htdocs/html/talentspotting/application/plugins/Acl.php :: line=31
2019-02-12T12:21:36+02:00::DEBUG : ZONE LANDING = campaigns/admin/save
2019-02-12T12:21:36+02:00::DEBUG : CLASS/FUNCTION = plugins_Acl -> _checkPermisions
2019-02-12T12:21:36+02:00::DEBUG : TRACE 0 = ...html/talentspotting/application/plugins/Acl.php : line=/Applications/XAMPP/xamppfiles/htdocs/html/talentspotting/application/plugins/Acl.php : func=_checkPermisions
2019-02-12T12:21:36+02:00::DEBUG : TRACE 1 = ...tting/library/Zend/Controller/Plugin/Broker.php : line=/Applications/XAMPP/xamppfiles/htdocs/html/talentspotting/library/Zend/Controller/Plugin/Broker.php : func=preDispatch
2019-02-12T12:21:36+02:00::DEBUG : TRACE 2 = ...alentspotting/library/Zend/Controller/Front.php : line=/Applications/XAMPP/xamppfiles/htdocs/html/talentspotting/library/Zend/Controller/Front.php : func=preDispatch
2019-02-12T12:21:36+02:00::DEBUG : TRACE 3 = ...ibrary/Zend/Application/Bootstrap/Bootstrap.php : line=/Applications/XAMPP/xamppfiles/htdocs/html/talentspotting/library/Zend/Application/Bootstrap/Bootstrap.php : func=dispatch
2019-02-12T12:21:36+02:00::DEBUG : TRACE 4 = ...tml/talentspotting/library/Zend/Application.php : line=/Applications/XAMPP/xamppfiles/htdocs/html/talentspotting/library/Zend/Application.php : func=run
2019-02-12T12:21:36+02:00::DEBUG : TRACE 5 = ...les/htdocs/html/talentspotting/public/index.php : line=/Applications/XAMPP/xamppfiles/htdocs/html/talentspotting/public/index.php : func=run

2019-02-12T12:21:55+02:00::ERR :   You don't have enough permissions to access this page.
2019-02-12T12:21:55+02:00::DEBUG : URL = http://lh.talentspotting.com/campaigns/admin/save
2019-02-12T12:21:55+02:00::DEBUG : HTTP_REFERER = 
2019-02-12T12:21:55+02:00::DEBUG : USER AGENT = Mozilla/5.0 (Macintosh; Intel Mac OS X 10_13_5) AppleWebKit/537.36 (KHTML, like Gecko) Chrome/71.0.3578.98 Safari/537.36
2019-02-12T12:21:55+02:00::DEBUG : FILE = /Applications/XAMPP/xamppfiles/htdocs/html/talentspotting/application/plugins/Acl.php :: line=31
2019-02-12T12:21:55+02:00::DEBUG : ZONE LANDING = campaigns/admin/save
2019-02-12T12:21:55+02:00::DEBUG : CLASS/FUNCTION = plugins_Acl -> _checkPermisions
2019-02-12T12:21:55+02:00::DEBUG : TRACE 0 = ...html/talentspotting/application/plugins/Acl.php : line=/Applications/XAMPP/xamppfiles/htdocs/html/talentspotting/application/plugins/Acl.php : func=_checkPermisions
2019-02-12T12:21:55+02:00::DEBUG : TRACE 1 = ...tting/library/Zend/Controller/Plugin/Broker.php : line=/Applications/XAMPP/xamppfiles/htdocs/html/talentspotting/library/Zend/Controller/Plugin/Broker.php : func=preDispatch
2019-02-12T12:21:55+02:00::DEBUG : TRACE 2 = ...alentspotting/library/Zend/Controller/Front.php : line=/Applications/XAMPP/xamppfiles/htdocs/html/talentspotting/library/Zend/Controller/Front.php : func=preDispatch
2019-02-12T12:21:55+02:00::DEBUG : TRACE 3 = ...ibrary/Zend/Application/Bootstrap/Bootstrap.php : line=/Applications/XAMPP/xamppfiles/htdocs/html/talentspotting/library/Zend/Application/Bootstrap/Bootstrap.php : func=dispatch
2019-02-12T12:21:55+02:00::DEBUG : TRACE 4 = ...tml/talentspotting/library/Zend/Application.php : line=/Applications/XAMPP/xamppfiles/htdocs/html/talentspotting/library/Zend/Application.php : func=run
2019-02-12T12:21:55+02:00::DEBUG : TRACE 5 = ...les/htdocs/html/talentspotting/public/index.php : line=/Applications/XAMPP/xamppfiles/htdocs/html/talentspotting/public/index.php : func=run

2019-02-12T12:22:16+02:00::ERR :   You don't have enough permissions to access this page.
2019-02-12T12:22:16+02:00::DEBUG : URL = http://lh.talentspotting.com/campaigns/admin/save
2019-02-12T12:22:16+02:00::DEBUG : HTTP_REFERER = 
2019-02-12T12:22:16+02:00::DEBUG : USER AGENT = Mozilla/5.0 (Macintosh; Intel Mac OS X 10_13_5) AppleWebKit/537.36 (KHTML, like Gecko) Chrome/71.0.3578.98 Safari/537.36
2019-02-12T12:22:16+02:00::DEBUG : FILE = /Applications/XAMPP/xamppfiles/htdocs/html/talentspotting/application/plugins/Acl.php :: line=31
2019-02-12T12:22:16+02:00::DEBUG : ZONE LANDING = campaigns/admin/save
2019-02-12T12:22:16+02:00::DEBUG : CLASS/FUNCTION = plugins_Acl -> _checkPermisions
2019-02-12T12:22:16+02:00::DEBUG : TRACE 0 = ...html/talentspotting/application/plugins/Acl.php : line=/Applications/XAMPP/xamppfiles/htdocs/html/talentspotting/application/plugins/Acl.php : func=_checkPermisions
2019-02-12T12:22:16+02:00::DEBUG : TRACE 1 = ...tting/library/Zend/Controller/Plugin/Broker.php : line=/Applications/XAMPP/xamppfiles/htdocs/html/talentspotting/library/Zend/Controller/Plugin/Broker.php : func=preDispatch
2019-02-12T12:22:16+02:00::DEBUG : TRACE 2 = ...alentspotting/library/Zend/Controller/Front.php : line=/Applications/XAMPP/xamppfiles/htdocs/html/talentspotting/library/Zend/Controller/Front.php : func=preDispatch
2019-02-12T12:22:16+02:00::DEBUG : TRACE 3 = ...ibrary/Zend/Application/Bootstrap/Bootstrap.php : line=/Applications/XAMPP/xamppfiles/htdocs/html/talentspotting/library/Zend/Application/Bootstrap/Bootstrap.php : func=dispatch
2019-02-12T12:22:16+02:00::DEBUG : TRACE 4 = ...tml/talentspotting/library/Zend/Application.php : line=/Applications/XAMPP/xamppfiles/htdocs/html/talentspotting/library/Zend/Application.php : func=run
2019-02-12T12:22:16+02:00::DEBUG : TRACE 5 = ...les/htdocs/html/talentspotting/public/index.php : line=/Applications/XAMPP/xamppfiles/htdocs/html/talentspotting/public/index.php : func=run

2019-02-12T12:27:43+02:00::ERR :   You don't have enough permissions to access this page.
2019-02-12T12:27:43+02:00::DEBUG : URL = http://lh.talentspotting.com/campaigns/admin/save
2019-02-12T12:27:43+02:00::DEBUG : HTTP_REFERER = 
2019-02-12T12:27:43+02:00::DEBUG : USER AGENT = Mozilla/5.0 (Macintosh; Intel Mac OS X 10_13_5) AppleWebKit/537.36 (KHTML, like Gecko) Chrome/71.0.3578.98 Safari/537.36
2019-02-12T12:27:43+02:00::DEBUG : FILE = /Applications/XAMPP/xamppfiles/htdocs/html/talentspotting/application/plugins/Acl.php :: line=31
2019-02-12T12:27:43+02:00::DEBUG : ZONE LANDING = campaigns/admin/save
2019-02-12T12:27:43+02:00::DEBUG : CLASS/FUNCTION = plugins_Acl -> _checkPermisions
2019-02-12T12:27:43+02:00::DEBUG : TRACE 0 = ...html/talentspotting/application/plugins/Acl.php : line=/Applications/XAMPP/xamppfiles/htdocs/html/talentspotting/application/plugins/Acl.php : func=_checkPermisions
2019-02-12T12:27:43+02:00::DEBUG : TRACE 1 = ...tting/library/Zend/Controller/Plugin/Broker.php : line=/Applications/XAMPP/xamppfiles/htdocs/html/talentspotting/library/Zend/Controller/Plugin/Broker.php : func=preDispatch
2019-02-12T12:27:43+02:00::DEBUG : TRACE 2 = ...alentspotting/library/Zend/Controller/Front.php : line=/Applications/XAMPP/xamppfiles/htdocs/html/talentspotting/library/Zend/Controller/Front.php : func=preDispatch
2019-02-12T12:27:43+02:00::DEBUG : TRACE 3 = ...ibrary/Zend/Application/Bootstrap/Bootstrap.php : line=/Applications/XAMPP/xamppfiles/htdocs/html/talentspotting/library/Zend/Application/Bootstrap/Bootstrap.php : func=dispatch
2019-02-12T12:27:43+02:00::DEBUG : TRACE 4 = ...tml/talentspotting/library/Zend/Application.php : line=/Applications/XAMPP/xamppfiles/htdocs/html/talentspotting/library/Zend/Application.php : func=run
2019-02-12T12:27:43+02:00::DEBUG : TRACE 5 = ...les/htdocs/html/talentspotting/public/index.php : line=/Applications/XAMPP/xamppfiles/htdocs/html/talentspotting/public/index.php : func=run

2019-02-12T12:27:58+02:00::ERR :   You don't have enough permissions to access this page.
2019-02-12T12:27:58+02:00::DEBUG : URL = http://lh.talentspotting.com/campaigns/admin/save
2019-02-12T12:27:58+02:00::DEBUG : HTTP_REFERER = 
2019-02-12T12:27:58+02:00::DEBUG : USER AGENT = Mozilla/5.0 (Macintosh; Intel Mac OS X 10_13_5) AppleWebKit/537.36 (KHTML, like Gecko) Chrome/71.0.3578.98 Safari/537.36
2019-02-12T12:27:58+02:00::DEBUG : FILE = /Applications/XAMPP/xamppfiles/htdocs/html/talentspotting/application/plugins/Acl.php :: line=31
2019-02-12T12:27:58+02:00::DEBUG : ZONE LANDING = campaigns/admin/save
2019-02-12T12:27:58+02:00::DEBUG : CLASS/FUNCTION = plugins_Acl -> _checkPermisions
2019-02-12T12:27:58+02:00::DEBUG : TRACE 0 = ...html/talentspotting/application/plugins/Acl.php : line=/Applications/XAMPP/xamppfiles/htdocs/html/talentspotting/application/plugins/Acl.php : func=_checkPermisions
2019-02-12T12:27:58+02:00::DEBUG : TRACE 1 = ...tting/library/Zend/Controller/Plugin/Broker.php : line=/Applications/XAMPP/xamppfiles/htdocs/html/talentspotting/library/Zend/Controller/Plugin/Broker.php : func=preDispatch
2019-02-12T12:27:58+02:00::DEBUG : TRACE 2 = ...alentspotting/library/Zend/Controller/Front.php : line=/Applications/XAMPP/xamppfiles/htdocs/html/talentspotting/library/Zend/Controller/Front.php : func=preDispatch
2019-02-12T12:27:58+02:00::DEBUG : TRACE 3 = ...ibrary/Zend/Application/Bootstrap/Bootstrap.php : line=/Applications/XAMPP/xamppfiles/htdocs/html/talentspotting/library/Zend/Application/Bootstrap/Bootstrap.php : func=dispatch
2019-02-12T12:27:58+02:00::DEBUG : TRACE 4 = ...tml/talentspotting/library/Zend/Application.php : line=/Applications/XAMPP/xamppfiles/htdocs/html/talentspotting/library/Zend/Application.php : func=run
2019-02-12T12:27:58+02:00::DEBUG : TRACE 5 = ...les/htdocs/html/talentspotting/public/index.php : line=/Applications/XAMPP/xamppfiles/htdocs/html/talentspotting/public/index.php : func=run

2019-02-12T12:28:54+02:00::ERR :   You don't have enough permissions to access this page.
2019-02-12T12:28:54+02:00::DEBUG : URL = http://lh.talentspotting.com/campaigns/admin/save
2019-02-12T12:28:54+02:00::DEBUG : HTTP_REFERER = 
2019-02-12T12:28:54+02:00::DEBUG : USER AGENT = Mozilla/5.0 (Macintosh; Intel Mac OS X 10_13_5) AppleWebKit/537.36 (KHTML, like Gecko) Chrome/71.0.3578.98 Safari/537.36
2019-02-12T12:28:54+02:00::DEBUG : FILE = /Applications/XAMPP/xamppfiles/htdocs/html/talentspotting/application/plugins/Acl.php :: line=31
2019-02-12T12:28:54+02:00::DEBUG : ZONE LANDING = campaigns/admin/save
2019-02-12T12:28:54+02:00::DEBUG : CLASS/FUNCTION = plugins_Acl -> _checkPermisions
2019-02-12T12:28:54+02:00::DEBUG : TRACE 0 = ...html/talentspotting/application/plugins/Acl.php : line=/Applications/XAMPP/xamppfiles/htdocs/html/talentspotting/application/plugins/Acl.php : func=_checkPermisions
2019-02-12T12:28:54+02:00::DEBUG : TRACE 1 = ...tting/library/Zend/Controller/Plugin/Broker.php : line=/Applications/XAMPP/xamppfiles/htdocs/html/talentspotting/library/Zend/Controller/Plugin/Broker.php : func=preDispatch
2019-02-12T12:28:54+02:00::DEBUG : TRACE 2 = ...alentspotting/library/Zend/Controller/Front.php : line=/Applications/XAMPP/xamppfiles/htdocs/html/talentspotting/library/Zend/Controller/Front.php : func=preDispatch
2019-02-12T12:28:54+02:00::DEBUG : TRACE 3 = ...ibrary/Zend/Application/Bootstrap/Bootstrap.php : line=/Applications/XAMPP/xamppfiles/htdocs/html/talentspotting/library/Zend/Application/Bootstrap/Bootstrap.php : func=dispatch
2019-02-12T12:28:54+02:00::DEBUG : TRACE 4 = ...tml/talentspotting/library/Zend/Application.php : line=/Applications/XAMPP/xamppfiles/htdocs/html/talentspotting/library/Zend/Application.php : func=run
2019-02-12T12:28:54+02:00::DEBUG : TRACE 5 = ...les/htdocs/html/talentspotting/public/index.php : line=/Applications/XAMPP/xamppfiles/htdocs/html/talentspotting/public/index.php : func=run

