2019-02-01T16:51:24+02:00::ERR :   You don't have enough permissions to access this page.
2019-02-01T16:51:24+02:00::DEBUG : URL = http://lh.talentspotting.com/leaderboard
2019-02-01T16:51:24+02:00::DEBUG : HTTP_REFERER = 
2019-02-01T16:51:24+02:00::DEBUG : USER AGENT = Mozilla/5.0 (Macintosh; Intel Mac OS X 10_13_5) AppleWebKit/537.36 (KHTML, like Gecko) Chrome/71.0.3578.98 Safari/537.36
2019-02-01T16:51:24+02:00::DEBUG : FILE = /Applications/XAMPP/xamppfiles/htdocs/html/talentspotting/application/plugins/Acl.php :: line=31
2019-02-01T16:51:24+02:00::DEBUG : ZONE LANDING = users/index/leaderboard
2019-02-01T16:51:24+02:00::DEBUG : CLASS/FUNCTION = plugins_Acl -> _checkPermisions
2019-02-01T16:51:24+02:00::DEBUG : TRACE 0 = ...html/talentspotting/application/plugins/Acl.php : line=/Applications/XAMPP/xamppfiles/htdocs/html/talentspotting/application/plugins/Acl.php : func=_checkPermisions
2019-02-01T16:51:24+02:00::DEBUG : TRACE 1 = ...tting/library/Zend/Controller/Plugin/Broker.php : line=/Applications/XAMPP/xamppfiles/htdocs/html/talentspotting/library/Zend/Controller/Plugin/Broker.php : func=preDispatch
2019-02-01T16:51:24+02:00::DEBUG : TRACE 2 = ...alentspotting/library/Zend/Controller/Front.php : line=/Applications/XAMPP/xamppfiles/htdocs/html/talentspotting/library/Zend/Controller/Front.php : func=preDispatch
2019-02-01T16:51:24+02:00::DEBUG : TRACE 3 = ...ibrary/Zend/Application/Bootstrap/Bootstrap.php : line=/Applications/XAMPP/xamppfiles/htdocs/html/talentspotting/library/Zend/Application/Bootstrap/Bootstrap.php : func=dispatch
2019-02-01T16:51:24+02:00::DEBUG : TRACE 4 = ...tml/talentspotting/library/Zend/Application.php : line=/Applications/XAMPP/xamppfiles/htdocs/html/talentspotting/library/Zend/Application.php : func=run
2019-02-01T16:51:24+02:00::DEBUG : TRACE 5 = ...les/htdocs/html/talentspotting/public/index.php : line=/Applications/XAMPP/xamppfiles/htdocs/html/talentspotting/public/index.php : func=run

2019-02-01T17:00:48+02:00::ERR :   script 'leaderborads.phtml' not found in path (/Applications/XAMPP/xamppfiles/htdocs/html/talentspotting/application/layouts/scripts/sublayouts/)
2019-02-01T17:00:48+02:00::DEBUG : URL = http://lh.talentspotting.com/users/admin/leaderboards
2019-02-01T17:00:48+02:00::DEBUG : HTTP_REFERER = 
2019-02-01T17:00:48+02:00::DEBUG : USER AGENT = Mozilla/5.0 (Macintosh; Intel Mac OS X 10_13_5) AppleWebKit/537.36 (KHTML, like Gecko) Chrome/71.0.3578.98 Safari/537.36
2019-02-01T17:00:48+02:00::DEBUG : FILE = /Applications/XAMPP/xamppfiles/htdocs/html/talentspotting/application/modules/users/controllers/AdminController.php :: line=290
2019-02-01T17:00:48+02:00::DEBUG : ZONE LANDING = users/admin/leaderboards
2019-02-01T17:00:48+02:00::DEBUG : CLASS/FUNCTION = Zend_View_Helper_Partial -> partial
2019-02-01T17:00:48+02:00::DEBUG : TRACE 0 = ...l/talentspotting/library/Zend/View/Abstract.php : line=/Applications/XAMPP/xamppfiles/htdocs/html/talentspotting/library/Zend/View/Abstract.php : func=_script
2019-02-01T17:00:48+02:00::DEBUG : TRACE 1 = ...ntspotting/library/Zend/View/Helper/Partial.php : line=/Applications/XAMPP/xamppfiles/htdocs/html/talentspotting/library/Zend/View/Helper/Partial.php : func=render
2019-02-01T17:00:48+02:00::DEBUG : TRACE 2 = ...n/modules/users/controllers/AdminController.php : line=/Applications/XAMPP/xamppfiles/htdocs/html/talentspotting/application/modules/users/controllers/AdminController.php : func=partial
2019-02-01T17:00:48+02:00::DEBUG : TRACE 3 = ...lentspotting/library/Zend/Controller/Action.php : line=/Applications/XAMPP/xamppfiles/htdocs/html/talentspotting/library/Zend/Controller/Action.php : func=leaderboardsAction
2019-02-01T17:00:48+02:00::DEBUG : TRACE 4 = ...library/Zend/Controller/Dispatcher/Standard.php : line=/Applications/XAMPP/xamppfiles/htdocs/html/talentspotting/library/Zend/Controller/Dispatcher/Standard.php : func=dispatch
2019-02-01T17:00:48+02:00::DEBUG : TRACE 5 = ...alentspotting/library/Zend/Controller/Front.php : line=/Applications/XAMPP/xamppfiles/htdocs/html/talentspotting/library/Zend/Controller/Front.php : func=dispatch
2019-02-01T17:00:48+02:00::DEBUG : TRACE 6 = ...ibrary/Zend/Application/Bootstrap/Bootstrap.php : line=/Applications/XAMPP/xamppfiles/htdocs/html/talentspotting/library/Zend/Application/Bootstrap/Bootstrap.php : func=dispatch
2019-02-01T17:00:48+02:00::DEBUG : TRACE 7 = ...tml/talentspotting/library/Zend/Application.php : line=/Applications/XAMPP/xamppfiles/htdocs/html/talentspotting/library/Zend/Application.php : func=run
2019-02-01T17:00:48+02:00::DEBUG : TRACE 8 = ...les/htdocs/html/talentspotting/public/index.php : line=/Applications/XAMPP/xamppfiles/htdocs/html/talentspotting/public/index.php : func=run

2019-02-01T17:01:16+02:00::ERR :   script 'leaderborads.phtml' not found in path (/Applications/XAMPP/xamppfiles/htdocs/html/talentspotting/application/layouts/scripts/sublayouts/)
2019-02-01T17:01:16+02:00::DEBUG : URL = http://lh.talentspotting.com/users/admin/leaderboards
2019-02-01T17:01:16+02:00::DEBUG : HTTP_REFERER = 
2019-02-01T17:01:16+02:00::DEBUG : USER AGENT = Mozilla/5.0 (Macintosh; Intel Mac OS X 10_13_5) AppleWebKit/537.36 (KHTML, like Gecko) Chrome/71.0.3578.98 Safari/537.36
2019-02-01T17:01:16+02:00::DEBUG : FILE = /Applications/XAMPP/xamppfiles/htdocs/html/talentspotting/application/modules/users/controllers/AdminController.php :: line=290
2019-02-01T17:01:16+02:00::DEBUG : ZONE LANDING = users/admin/leaderboards
2019-02-01T17:01:16+02:00::DEBUG : CLASS/FUNCTION = Zend_View_Helper_Partial -> partial
2019-02-01T17:01:16+02:00::DEBUG : TRACE 0 = ...l/talentspotting/library/Zend/View/Abstract.php : line=/Applications/XAMPP/xamppfiles/htdocs/html/talentspotting/library/Zend/View/Abstract.php : func=_script
2019-02-01T17:01:16+02:00::DEBUG : TRACE 1 = ...ntspotting/library/Zend/View/Helper/Partial.php : line=/Applications/XAMPP/xamppfiles/htdocs/html/talentspotting/library/Zend/View/Helper/Partial.php : func=render
2019-02-01T17:01:16+02:00::DEBUG : TRACE 2 = ...n/modules/users/controllers/AdminController.php : line=/Applications/XAMPP/xamppfiles/htdocs/html/talentspotting/application/modules/users/controllers/AdminController.php : func=partial
2019-02-01T17:01:16+02:00::DEBUG : TRACE 3 = ...lentspotting/library/Zend/Controller/Action.php : line=/Applications/XAMPP/xamppfiles/htdocs/html/talentspotting/library/Zend/Controller/Action.php : func=leaderboardsAction
2019-02-01T17:01:16+02:00::DEBUG : TRACE 4 = ...library/Zend/Controller/Dispatcher/Standard.php : line=/Applications/XAMPP/xamppfiles/htdocs/html/talentspotting/library/Zend/Controller/Dispatcher/Standard.php : func=dispatch
2019-02-01T17:01:16+02:00::DEBUG : TRACE 5 = ...alentspotting/library/Zend/Controller/Front.php : line=/Applications/XAMPP/xamppfiles/htdocs/html/talentspotting/library/Zend/Controller/Front.php : func=dispatch
2019-02-01T17:01:16+02:00::DEBUG : TRACE 6 = ...ibrary/Zend/Application/Bootstrap/Bootstrap.php : line=/Applications/XAMPP/xamppfiles/htdocs/html/talentspotting/library/Zend/Application/Bootstrap/Bootstrap.php : func=dispatch
2019-02-01T17:01:16+02:00::DEBUG : TRACE 7 = ...tml/talentspotting/library/Zend/Application.php : line=/Applications/XAMPP/xamppfiles/htdocs/html/talentspotting/library/Zend/Application.php : func=run
2019-02-01T17:01:16+02:00::DEBUG : TRACE 8 = ...les/htdocs/html/talentspotting/public/index.php : line=/Applications/XAMPP/xamppfiles/htdocs/html/talentspotting/public/index.php : func=run

2019-02-01T17:21:38+02:00::ERR :   You don't have enough permissions to access this page.
2019-02-01T17:21:38+02:00::DEBUG : URL = http://lh.talentspotting.com/leaderboard
2019-02-01T17:21:38+02:00::DEBUG : HTTP_REFERER = 
2019-02-01T17:21:38+02:00::DEBUG : USER AGENT = Mozilla/5.0 (Macintosh; Intel Mac OS X 10_13_5) AppleWebKit/537.36 (KHTML, like Gecko) Chrome/71.0.3578.98 Safari/537.36
2019-02-01T17:21:38+02:00::DEBUG : FILE = /Applications/XAMPP/xamppfiles/htdocs/html/talentspotting/application/plugins/Acl.php :: line=31
2019-02-01T17:21:38+02:00::DEBUG : ZONE LANDING = users/index/leaderboard
2019-02-01T17:21:38+02:00::DEBUG : CLASS/FUNCTION = plugins_Acl -> _checkPermisions
2019-02-01T17:21:38+02:00::DEBUG : TRACE 0 = ...html/talentspotting/application/plugins/Acl.php : line=/Applications/XAMPP/xamppfiles/htdocs/html/talentspotting/application/plugins/Acl.php : func=_checkPermisions
2019-02-01T17:21:38+02:00::DEBUG : TRACE 1 = ...tting/library/Zend/Controller/Plugin/Broker.php : line=/Applications/XAMPP/xamppfiles/htdocs/html/talentspotting/library/Zend/Controller/Plugin/Broker.php : func=preDispatch
2019-02-01T17:21:38+02:00::DEBUG : TRACE 2 = ...alentspotting/library/Zend/Controller/Front.php : line=/Applications/XAMPP/xamppfiles/htdocs/html/talentspotting/library/Zend/Controller/Front.php : func=preDispatch
2019-02-01T17:21:38+02:00::DEBUG : TRACE 3 = ...ibrary/Zend/Application/Bootstrap/Bootstrap.php : line=/Applications/XAMPP/xamppfiles/htdocs/html/talentspotting/library/Zend/Application/Bootstrap/Bootstrap.php : func=dispatch
2019-02-01T17:21:38+02:00::DEBUG : TRACE 4 = ...tml/talentspotting/library/Zend/Application.php : line=/Applications/XAMPP/xamppfiles/htdocs/html/talentspotting/library/Zend/Application.php : func=run
2019-02-01T17:21:38+02:00::DEBUG : TRACE 5 = ...les/htdocs/html/talentspotting/public/index.php : line=/Applications/XAMPP/xamppfiles/htdocs/html/talentspotting/public/index.php : func=run

