<?xml version="1.0" encoding="utf-8"?>
<!-- Generator: Adobe Illustrator 19.0.0, SVG Export Plug-In . SVG Version: 6.00 Build 0)  -->
<svg version="1.1" id="Capa_1" xmlns="http://www.w3.org/2000/svg" xmlns:xlink="http://www.w3.org/1999/xlink" x="0px" y="0px"
	 viewBox="-743 495 512 512" style="enable-background:new -743 495 512 512;" xml:space="preserve">
<style type="text/css">
	.st0{fill:#7D7D7D;}
</style>
<g>
	<g>
		<g>
			<path class="st0" d="M-378.5,663.5c35,31.1,55.1,68.5,55.1,115.3c0,90.3-73.4,163.7-163.7,163.7c-90.3,0-163.7-73.4-163.7-163.7
				c0-43.7,17-84.8,47.9-115.7l-45.6-45.6c-43.1,43.1-66.8,100.4-66.8,161.4c0,125.8,102.3,228.2,228.2,228.2
				c125.8,0,228.2-102.3,228.2-228.2c0-65.3-28-120.3-76.8-163.6L-378.5,663.5z"/>
			<path class="st0" d="M-454.2,776.3c0,18.8-17.1,34.1-38.3,34.1c-21.1,0-38.2-15.3-38.2-34.1V529.1c0-18.8,17.2-34.1,38.3-34.1
				c21.1,0,38.2,15.3,38.2,34.1L-454.2,776.3L-454.2,776.3z"/>
		</g>
	</g>
</g>
</svg>
