<?xml version="1.0" encoding="utf-8"?>
<!-- Generator: Adobe Illustrator 19.0.0, SVG Export Plug-In . SVG Version: 6.00 Build 0)  -->
<svg version="1.1" id="Layer_1" xmlns="http://www.w3.org/2000/svg" xmlns:xlink="http://www.w3.org/1999/xlink" x="0px" y="0px"
	 viewBox="-33 -100.5 492.5 492.5" style="enable-background:new -33 -100.5 492.5 492.5;" xml:space="preserve">
<style type="text/css">
	.st0{fill:#7DCC93;}
	.st1{fill:#333333;}
</style>
<g>
	<g>
		<path class="st0" d="M49.8-100.5c-34.4,0-62.4,28-62.4,62.4s28,62.4,62.4,62.4s62.4-28,62.4-62.4S84.2-100.5,49.8-100.5z
			 M49.8,4.6C26.2,4.6,7.2-14.5,7.2-38s19.1-42.6,42.6-42.6S92.3-61.5,92.3-38S73.2,4.6,49.8,4.6z"/>
		<path class="st1" d="M49.8,83.4c-34.4,0-62.4,28-62.4,62.4s28,62.4,62.4,62.4s62.4-28,62.4-62.4S84.2,83.4,49.8,83.4z M49.8,188.4
			c-23.5,0-42.6-19.1-42.6-42.6s19.1-42.6,42.6-42.6s42.6,19.1,42.6,42.6S73.2,188.4,49.8,188.4z"/>
		<path class="st0" d="M49.8,267.2c-34.4,0-62.4,28-62.4,62.4s28,62.4,62.4,62.4s62.4-28,62.4-62.4S84.2,267.2,49.8,267.2z
			 M49.8,372.3c-23.5,0-42.6-19.1-42.6-42.6s19.1-42.6,42.6-42.6s42.6,19.1,42.6,42.6C92.3,353.1,73.2,372.3,49.8,372.3z"/>
		<path class="st0" d="M439.1-41.4c0-5.5-4.4-9.9-9.9-9.9h-250c-5.5,0-9.9,4.4-9.9,9.9s4.4,9.9,9.9,9.9h250
			C434.8-31.5,439.1-35.9,439.1-41.4z"/>
		<path class="st1" d="M175.9,135.9c-5.5,0-9.9,4.4-9.9,9.9s4.4,9.9,9.9,9.9h250c5.5,0,9.9-4.4,9.9-9.9s-4.4-9.9-9.9-9.9H175.9z"/>
		<path class="st0" d="M435.8,329.6c0-5.5-4.4-9.9-9.9-9.9h-250c-5.5,0-9.9,4.4-9.9,9.9s4.4,9.9,9.9,9.9h250
			C431.4,339.5,435.8,335.1,435.8,329.6z"/>
	</g>
</g>
</svg>
