Firstname,Lastname,Email,Phone,Address,Availability,Location,Gender,Company,Job Title,Job Description,Start Date,Skills
Livia,Theodorescu,livia.theodorescu@brainspotting.ro,,,,"Bucuresti, Romania",F,Brainspotting,Senior Auditor,,,
Maria,Hostiuc,maria.hostiuc@brainspotting.ro,,,,"Cluj, Romania",F,Brainspotting,Senior Tax Manager,,,
Adriana,Evanghelie,adriana.evanghelie@brainspotting.ro,,,,"Brasov, Romania",F,Brainspotting,Tax Manager,,,
Laura,Filimon,laura.filimon@brainspotting.ro,734568798,,,,F,Brainspotting,,,,
Roxana,Barbu,roxana.barbu@brainspotting.ro,765789730,,,,F,Brainspotting,,,,
Violeta,Ciutac,violeta.ciutac@brainspotting.ro,739475831,,,,F,Brainspotting,,,,
Georgiana,Paise,georgiana.paise@brainspotting.ro,724657894,,,,F,Brainspotting,,,,
Anca,Cojocaru,anca.cojocaru@brainspotting.ro,722765432,,,,F,Brainspotting,,,,
Corina,Ilie,corina.ilie@brainspotting.ro,765789730,,,,F,Brainspotting,,,,
Anca,Gradinaru,anca.gradinaru@brainspotting.ro,739475831,,,,F,Brainspotting,,,,
Lidia,Maier,lidia.maier@brainspotting.ro,724657894,,,,F,Brainspotting,,,,
Carmen,Safta,carmen.safta@brainspotting.ro,722765432,,,,F,Brainspotting,,,,
Adina,Irimin,adina.irimin@brainspotting.ro,765789730,,,,F,Brainspotting,,,,
Florentina,Margelatu,florentina.margelatu@brainspotting.ro,739475831,,,,F,Brainspotting,,,,
Adrian ,Vasilescu,adrian.vasilescu@brainspotting.ro,724657894,,,,M,Brainspotting,,,,
Roxana,Zainea,roxana.zainea@brainspotting.ro,722765432,,,,F,Brainspotting,,,,
George,Mihaiu,george.mihaiu1@gmail.com,734568798,,,,M,Brainspotting,,,,
Mada,Talpau,talpau.madalina@gmail.com,765789730,,,,F,Brainspotting,,,,
Cris,Foarfa,cris.foarfa@gmail.com,739475831,,,,F,Brainspotting,,,,
Carmen,Marina,carmen@tech-it-up.com,724657894,,,,F,Brainspotting,,,,
Dragos,Gheban,dragos.gheban@catalyst.ro,765789730,,,,M,Brainspotting,,,,
Roro,Zainea,roxana.zainea@gmail.com,739475831,,,,F,Brainspotting,,,,
Andrei,Vasilescu,vasilescu.andrei.adrian@gmail.com,724657894,,,,F,Brainspotting,,,,