Firstname,Lastname,Email,Phone,type
test,test,jeddey.seifeddine@gmail.com,722222222,Recommender
erer,erere,jeddey.seifeddine@live.com,5454545,Recommender
sdfsdf,sdfsdf,sdfsdfsd@live.fr,sdfsdfsdf,Recommender
