Firstname,Lastname,Email,Phone,type,department
test,test,jeddey.seifeddine@gmail.com,722222222,Candidate,Legal
erer,erere,jeddey.seifeddine@live.com,5454545,Recommender,it software
sdfsdf,sdfsdf,sdfsdfsd@live.fr,sdfsdfsdf,Recommender,Legal
