,NUME ,PRENUME ,EMAIL,DENUMIRE PROIECT,FUNCTIE   
1,Achim,Alexandru,aachim@totalsoft.ro,Erp dezvoltare,Tester
2,Afilipoaie,Cristian,cafilipoaie@totalsoft.ro,Erp dezvoltare,Senior Developer
3,Alexandru,Ovidiu - Dorin,oalexandru@totalsoft.ro,Erp Technical Pool,Technical Consultant
4,Andreescu,Luiza - Maria,landreescu@totalsoft.ro,Erp implementare,Business Consultant
5,Andrei,Anamaria,aandrei@totalsoft.ro,Erp Technical Pool,Junior Technical Consultant
6,Anghelina,Ovidiu,oanghelina@totalsoft.ro,Erp dezvoltare,Tester
7,Anton,Laurentiu - Ionut,lanton@totalsoft.ro,Erp dezvoltare,Head of Financial Services
8,Antonescu,Cristina,cantonescu@totalsoft.ro,Erp Postimplementare,Helpdesk Officer
9,Argesanu,Cristina - Ionela,cargesanu@totalsoft.ro,Erp implementare,Business Consultant
10,Balea,Alexandru,abalea@totalsoft.ro,Erp implementare,Junior Business Consultant
11,Ban,Marius,mban@totalsoft.ro,Erp Postimplementare,Technical Consultant
12,Barbu,Florin,fbarbu@totalsoft.ro,Erp implementare,Project Manager
13,Barbu,Ion - Nicusor,ibarbu@totalsoft.ro,Erp Postimplementare,Technical Consultant
14,Barteanu,Ionica,ibarteanu@totalsoft.ro,Erp Technical Pool,Developer
15,Birzu,Andreea Sorina,abirzu@totalsoft.ro,Erp implementare,Manager
16,Bosincianu,Andreea,abosinceanu@totalsoft.ro,Erp implementare,Business Consultant
17,Brad,Alexandra,abrad@totalsoft.ro,Erp implementare,Junior Business Consultant
18,Bratosin,Alexandru,abratosin@totalsoft.ro,Erp Technical Pool,Technical Consultant
19,Bumbac,George,gbumbac@totalsoft.ro,Erp implementare,Business Consultant
20,Burlan,Alexandru,aburlan@totalsoft.ro,Erp Postimplementare,Head of Trade
21,Calinescu,Ileana Costinela,ccalinescu@totalsoft.ro,Erp Technical Pool,Technical Consultant
22,Calintaru,Cristina,ccalintaru@totalsoft.ro,Erp Technical Pool,Technical Consultant
23,Calota,Stefan,scalota@totalsoft.ro,Erp Postimplementare,Technical Consultant
24,Catulescu,Marian,mcatulescu@totalsoft.ro,Erp implementare,Senior Technical Consultant
25,Cechi,Florian,fcechi@totalsoft.ro,Erp Technical Pool,Senior Technical Consultant
26,Ciambur,Ioan Radu,rciambur@totalsoft.ro,Erp implementare,Business Consultant
27,Ciocodei,Andreea Viorica,aciocodei@totalsoft.ro,Erp implementare,Business Consultant
28,Ciuca,Mihai - Sebastian,sciuca@totalsoft.ro,Erp Technical Pool,Technical Consultant
29,Ciuca,Radu,rciuca@totalsoft.ro,Erp implementare,Manager
30,Ciurea,Monica - Roxana,rciurea@totalsoft.ro,Erp dezvoltare,Tester
31,Constantin,Bogdan - Costin,bconstantin@totalsoft.ro,Erp implementare,Senior Business Consultant
32,Constantin,Valerica,vconstantin@totalsoft.ro,Erp implementare,Business Consultant
33,Contu,Mihaita,mcontu2@totalsoft.ro,Erp implementare,Senior Business Consultant
34,Cornescu,Traian,tcornescu@totalsoft.ro,Erp Postimplementare,Technical Consultant
35,Cososchi,Vasile - Florian,fcososchi@totalsoft.ro,Erp Technical Pool,Junior Technical Support
36,Cozma,Delia - Adriana,dcozma@totalsoft.ro,Erp Postimplementare,Business Consultant
37,Craciun,Vasile - Romeo,rcraciun@totalsoft.ro,Erp dezvoltare,Senior Developer
38,Cretu,Maria - Claudia,mcretu@totalsoft.ro,Erp Postimplementare,Technical Consultant
39,Cuculeac,Florin,fcuculeac@totalsoft.ro,Erp Technical Pool,SeniorTechnical Consultant
40,Dancu,Adrian,adancu@totalsoft.ro,Erp Postimplementare,Senior Technical Consultant
41,Davis,Christopher Oliver,cdavis@totalsoft.ro,Erp implementare,Director
42,Diaconescu,Dragos - Iulian,ddiaconescu@totalsoft.ro,Erp implementare,Senior Business Consultant
43,Diaconu,Florian,fdiaconu@totalsoft.ro,Erp implementare,Developer
44,Dima,Ionut - George,idima@totalsoft.ro,Erp Technical Pool,Technical Consultant
45,Dima,Romica,rdima@totalsoft.ro,Erp Postimplementare,Senior Developer
46,Dinca,George - Cristian,gdinca@totalsoft.ro,Erp implementare,Senior Business Consultant
47,Dinca,Laurentiu - Cristian,cdinca@totalsoft.ro,Erp implementare,Sales Support
48,Dinca,Marcel - Cristian,cristian.dinca@totalsoft.ro,Erp dezvoltare,Developer
49,Dinu,Nicolae,ndinu@totalsoft.ro,Erp Technical Pool,Manager
50,Dobre,Simona,sdobre@totalsoft.ro,Erp implementare,Business Consultant
51,Dogaru,Cezar - Robert,cdogaru@totalsoft.ro,Erp dezvoltare,Senior Developer
52,Dorobantescu,Sofia - Larisa,sdorobantescu@totalsoft.ro,Erp implementare,Business Consultant
53,Dragomir,Daniela - Aurelia,ddragomir@totalsoft.ro,Erp Postimplementare,Manager
54,Dumitrascu,Nicolae Sorin,sdumitrascu@totalsoft.ro,Erp Postimplementare,Technical Consultant
55,Dumitrescu,Andrei - Calin,andrei.dumitrescu@totalsoft.ro,Erp dezvoltare,Tester
56,Dumitru,Andreea,adumitru@totalsoft.ro,Erp implementare,Senior Business Consultant
57,Foaie,Madalina,mfoaie@totalsoft.ro,Erp implementare,Business Consultant
58,Fortu,Dan,dfortu@totalsoft.ro,Erp dezvoltare,Tester
59,Gaita,Cristian - Florian,cgaita@totalsoft.ro,Erp implementare,Senior Technical Consultant
60,Geboiu,Mihaela,mgeboiu@totalsoft.ro,Erp implementare,Business Consultant
61,Ghetu,Dona,dghetu@totalsoft.ro,Erp Postimplementare,Business Consultant
62,Ghiorghiu,Mihai,mghiorghiu@totalsoft.ro,Erp implementare,Junior Business Consultant
63,Giusca,Nicusor,ngiusca@totalsoft.ro,Erp Technical Pool,Technical Consultant
64,Gozu,Victor,vgozu@totalsoft.ro,Erp implementare,Senior Business Consultant
65,Harabagiu,Valentin - Georgian,vharabagiu@totalsoft.ro,Erp implementare,Senior Business Consultant
66,Herbert,Florin,fherbert@totalsoft.ro,Erp dezvoltare,Senior Developer
67,Iacob,Lucian,LIacob@totalsoft.ro,Erp implementare,Business Consultant
68,Iancu,Ioana - Aura,aiancu@totalsoft.ro,Erp Technical Pool,Junior Technical Consultant
69,Ionescu,George Daniel,dionescu@totalsoft.ro,Erp dezvoltare,Manager
70,Ionita,Dumitru,dionita@totalsoft.ro,Erp Postimplementare,Senior Business Consultant
71,Ionita,Stefan - Aurelian,sionita@totalsoft.ro,Erp dezvoltare,Senior Developer
72,Irod,Ionut Emilian,iirod@totalsoft.ro,Erp dezvoltare,Head of Commercial and Retail
73,Lascu,Daniela,dlascu@totalsoft.ro,Erp implementare,Senior Business Consultant
74,Lazaroiu,Octavian - Marius,olazaroiu@totalsoft.ro,Erp dezvoltare,Developer
75,Lungeanu,Adrian - Liviu,llungeanu@totalsoft.ro,Erp dezvoltare,Developer
76,Lungu,Bogdan,blungu@totalsoft.ro,Erp implementare,Project Manager
77,Lupu,Alina - Veronica,alupu@totalsoft.ro,Erp dezvoltare,Tester
78,Maier,Alexandru,amaier@totalsoft.ro,Erp implementare,Business Consultant
79,Manaila,George,gmanaila@totalsoft.ro,Erp Technical Pool,Junior Developer
80,Manea,Razvan,rmanea@totalsoft.ro,Erp dezvoltare,Junior Tester
81,Mateescu,Daniel,dmateescu@totalsoft.ro,Erp implementare,Chief Operations Officer
82,Mavrodin,Ioana Elena,iadascalitei@totalsoft.ro,Erp Postimplementare,Head of Leasing
83,Mavrodin,Laurentiu,lmavrodin@totalsoft.ro,Erp implementare,Manager
84,Maxentian,Georgiana-Iulia,gmaxentian@totalsoft.ro,Erp dezvoltare,Tester
85,Mazareanu,Rodica - Mirela,dma@totalsoft.ro,Erp Postimplementare,Senior Business Consultant
86,Mihaita,Cristian,cmihaita@totalsoft.ro,Erp implementare,Senior Business Consultant
87,Mihaiu,Nicoleta - Elena,nmihaiu@totalsoft.ro,Erp implementare,Manager
88,Mirica,Andreea - Tania,amirica@totalsoft.ro,Erp Technical Pool,Junior Technical Consultant
89,Mirosanu,Ionela - Aurora,imirosanu@totalsoft.ro,Erp Technical Pool,Junior Technical Consultant
90,Mitac,Florin - Daniel,dmitac@totalsoft.ro,Erp implementare,Junior Developer
91,Mogos,Anca,amogos@totalsoft.ro,Erp Postimplementare,Technical Consultant
92,Moise,Alexandra - Iuliana,imoise@totalsoft.ro,Erp Postimplementare,Junior Technical Consultant
93,Morar,Raluca Claudia,rmorar@totalsoft.ro,Erp dezvoltare,Senior Developer
94,Morogan,Roxana,rmorogan@totalsoft.ro,Erp implementare,Junior Business Consultant
95,Musetoiu,Amalia,amusetoiu@totalsoft.ro,Erp Technical Pool,Junior Technical Consultant
96,Nasoi,Anghel - Augustin,anasoi@totalsoft.ro,Erp dezvoltare,Senior Developer
97,Neagu,Constantin - Viorel,vneagu@totalsoft.ro,Erp implementare,Project Manager
98,Nica,Daniel - Catalin,cnica@totalsoft.ro,Erp Training,Trainer
99,Obogeanu,Stefan - Matei,sobogeanu@totalsoft.ro,Erp implementare,Junior Developer
100,Obreja,Mihail - Ciprian,cobreja@totalsoft.ro,Erp Postimplementare,Technical Consultant
101,Olariu,Casian - Ioan,colariu@totalsoft.ro,Erp implementare,Senior Business Consultant
102,Olaru,Ioana - Andreia,iolaru@totalsoft.ro,Erp dezvoltare,Assistant Manager
103,Oprescu,Marius,moprescu@totalsoft.ro,Erp implementare,Business Consultant
104,Oproiu,Ionut - Daniel,doproiu@totalsoft.ro,Erp dezvoltare,Senior Developer
105,Oproiu,Oana,oandrei@totalsoft.ro,Erp dezvoltare,Senior Developer
106,Paraschiv,Madalina,mparaschiv@totalsoft.ro,Erp implementare,Manager
107,Paraschiv,Valeria,vparaschiv@totalsoft.ro,Erp Technical Pool,Technical Consultant
108,Petcu,Ioan - Gabriel,gpetcu@totalsoft.ro,Erp Postimplementare,Developer
109,Pisticiuc,Codrin - Ionut,cpisticiuc@totalsoft.ro,Erp implementare,Business Consultant
110,Plesea,Cristian,cplesea@totalsoft.ro,Erp dezvoltare,Senior Developer
111,Plesu,Ana - Maria,aplesu@totalsoft.ro,Erp implementare,Business Consultant
112,Podaru,Mihaela,mpodaru@totalsoft.ro,Erp Postimplementare,Senior Technical Consultant
113,Popa,Ciprian,ciprian.popa@totalasoft.ro,Erp dezvoltare,Senior Developer
114,Popa,Ervin,epopa@totalsoft.ro,Erp Technical Pool,Technical Consultant
115,Popescu,Costin,cpopescu@totalsoft.ro,Erp Postimplementare,Technical Consultant
116,Precupas - Siniteanu,Raoul - Silviu,rprecupas@totalsoft.ro,Erp dezvoltare,Manager
117,Prodan,Laurentiu - Cristian,cprodan@totalsoft.ro,Erp Technical Pool,Junior Technical Consultant
118,Puscasu,Mihai - Marcel,mpuscasu@totalsoft.ro,Erp Postimplementare,Technical Consultant
119,Radu,Valentin,vradu@totalsoft.ro,Erp Technical Pool,Technical Consultant
120,Raducan,Dragos - Alexandru,draducan@totalsoft.ro,Erp implementare,Junior Business Consultant
121,Rasineanu,Dinu - Vlad,drasineanu@totalsoft.ro,Erp Technical Pool,Technical Consultant
122,Repede,Ana,arepede@totalsoft.ro,Erp implementare,Business Consultant
123,Rizea,Valentin - Andrei,vrizea@totalsoft.ro,Erp implementare,Business Consultant
124,Roman,Catalin - Eugen,croman@totalsoft.ro,Erp Postimplementare,Technical Consultant
125,Rosu,Sebastian,srosu@totalsoft.ro,Erp implementare,Junior Technical Consultant
126,Scarlat,Marian Radu,mscarlat@totalsoft.ro,Erp dezvoltare,Senior Developer
127,Schultz,Silviu - Razvan,sschultz@totalsoft.ro,Erp implementare,Business Consultant
128,Singhel,Cristina - Ioana,csinghel@totalsoft.ro,Erp dezvoltare,Developer
129,Spinoche,Ciprian - Costin,cspinoche@totalsoft.ro,Erp Technical Pool,Technical Consultant
130,Stanciu,Tudor - Andrei,tstanciu@totalsoft.ro,Erp dezvoltare,Junior Developer
131,Statie,Radu,rstatie@totalsoft.ro,Erp dezvoltare,Developer
132,Stefan,Florin,fstefan@totalsoft.ro,Erp implementare,Senior Business Consultant
133,Stefan,Marius - Alexandru,astefan@totalsoft.ro,Erp dezvoltare,Senior Developer
134,Stoica,Stefanita - Cristian,sstoica@totalsoft.ro,Erp implementare,Senior Business Consultant
135,Stroie,Dragos - Cristian,dstroie@totalsoft.ro,Erp implementare,Technical Consultant
136,Szekely,Maria - Natalia,nszekely@totalsoft.ro,Erp implementare,Junior Technical Consultant
137,Szentpetery,Erhart - Raul,rszentpetery@totalsoft.ro,Erp implementare,Developer
138,Tagirta,Florentina,ftagirta@totalsoft.ro,Erp Technical Pool,Junior Developer
139,Tanase,Ana - Maria,atanase@totalsoft.ro,Erp Technical Pool,Junior Technical Consultant
140,Totoret,Alexandra - Maria,atotoret@totalsoft.ro,Erp implementare,Senior Business Consultant
141,Trandafir,Roxana - Genoveva,rtrandafir@totalsoft.ro,Erp implementare,Junior Business Consultant
142,Tudorache,Mircea - Daniel,mtudorache@totalsoft.ro,Erp implementare,Senior Business Consultant
143,Tudose,Catalina - Ionela,ctudose@totalsoft.ro,Erp Technical Pool,Junior Technical Consultant
144,Vaida,Ovidiu - Lucian,OVaida@totalsoft.ro,Erp dezvoltare,Senior Developer
145,Vancea,Elena - Lavinia,evancea@totalsoft.ro,Erp dezvoltare,Junior Developer
146,Vasilescu,Adriana - Arabela,avasilescu@totalsoft.ro,Erp dezvoltare,Tester
147,Verdes,Mihai - Alexandru,averdes@totalsoft.ro,Erp dezvoltare,Developer
148,Vespe,Clara - Alexandra,cvespe@totalsoft.ro,Erp dezvoltare,Junior Developer
149,Vilceanu,Alina - Gabriela,avilceanu@totalsoft.ro,Erp Technical Pool,Junior Developer
150,Vlad,Romulus - Andrei,avlad@totalsoft.ro,Erp Postimplementare,Technical Consultant
151,Vlad,Tatiana - Floriana,tvlad@totalsoft.ro,Erp Technical Pool,Technical Consultant
152,Voinea,Raluca- Ileana,rvoinea@totalsoft.ro,Erp implementare,Technical Consultant
153,Vraja,Dorin,dvraja@totalsoft.ro,Erp Postimplementare,Senior Technical Consultant
154,Zabava,Catalin - Adrian,czabava@totalsoft.ro,Erp implementare,Team Leader
155,Zanfir,Ion - Adrian,AZanfir@totalsoft.ro,Erp implementare,Senior Business Consultant
