<?xml version="1.0" encoding="UTF-8"?>
<svg width="38px" height="38px" viewBox="0 0 38 38" version="1.1" xmlns="http://www.w3.org/2000/svg" xmlns:xlink="http://www.w3.org/1999/xlink">
    <!-- Generator: Sketch 40.3 (33839) - http://www.bohemiancoding.com/sketch -->
    <title>Search Icon</title>
    <desc>Created with Sketch.</desc>
    <defs>
        <polygon id="path-1" points="0 38 37.985 38 37.985 0.015 0 0.015"></polygon>
    </defs>
    <g id="Brainspotting-Website" stroke="none" stroke-width="1" fill="none" fill-rule="evenodd">
        <g id="Homepage" transform="translate(-1134.000000, -675.000000)">
            <g id="Search-and-Filter" transform="translate(0.000000, 644.000000)">
                <g id="Search-Icon" transform="translate(1134.000000, 30.000000)">
                    <g id="Group-3" transform="translate(0.000000, 0.985400)">
                        <mask id="mask-2" fill="white">
                            <use xlink:href="#path-1"></use>
                        </mask>
                        <g id="Clip-2"></g>
                        <path d="M35.0845,38 L2.9005,38 C1.2985,38 -0.0005,36.701 -0.0005,35.099 L-0.0005,2.915 C-0.0005,1.313 1.2985,0.015 2.9005,0.015 L35.0845,0.015 C36.6865,0.015 37.9855,1.313 37.9855,2.915 L37.9855,35.099 C37.9855,36.701 36.6865,38 35.0845,38" id="Fill-1" fill="#F2F2F2" mask="url(#mask-2)"></path>
                    </g>
                    <path d="M32.1333,13.641 C32.1333,17.449 29.0463,20.536 25.2383,20.536 C21.4303,20.536 18.3433,17.449 18.3433,13.641 C18.3433,9.833 21.4303,6.746 25.2383,6.746 C29.0463,6.746 32.1333,9.833 32.1333,13.641 L32.1333,13.641 Z" id="Stroke-4" stroke="#81BF41" stroke-width="3"></path>
                    <path d="M21.3222,18.2191 L7.2012,28.8091" id="Stroke-6" stroke="#81BF41" stroke-width="3"></path>
                </g>
            </g>
        </g>
    </g>
</svg>